User: USER;Path: C:\Program Files (x86)\BMG\CLARIOstar\User\Data\;Test run no.: 415
Test name: OD600-AGAx;Date: 06.07.2018;Time: 10:07:56
Used kinetic range(s): Range 1;
ID1: 06.07.2018_10:07:56_OD600-AGAx;ID2: Wizard script `ODmVenus 24h`;
Absorbance

Well;Content;Raw Data (600 1);Raw Data (600 1);Raw Data (600 1);Raw Data (600 1);Raw Data (600 1);Raw Data (600 1);Raw Data (600 1);Raw Data (600 1);Raw Data (600 1);Raw Data (600 1);Raw Data (600 1);Raw Data (600 1);Raw Data (600 1);Raw Data (600 1);Raw Data (600 1);Raw Data (600 1);Raw Data (600 1);Raw Data (600 1);Raw Data (600 1);Raw Data (600 1);Raw Data (600 1);Raw Data (600 1);Raw Data (600 1);Raw Data (600 1);Raw Data (600 1);Raw Data (600 1);Raw Data (600 1);Raw Data (600 1);Raw Data (600 1);Raw Data (600 1);Raw Data (600 1);Raw Data (600 1);Raw Data (600 1);Raw Data (600 1);Raw Data (600 1);Raw Data (600 1);Raw Data (600 1);Raw Data (600 1);Raw Data (600 1);Raw Data (600 1);Raw Data (600 1);Raw Data (600 1);Raw Data (600 1);Raw Data (600 1);Raw Data (600 1);Raw Data (600 1);Raw Data (600 1);Raw Data (600 1);Raw Data (600 1);Raw Data (600 1);Raw Data (600 1);Raw Data (600 1);Raw Data (600 1);Raw Data (600 1);Raw Data (600 1);Raw Data (600 1);Raw Data (600 1);Raw Data (600 1);Raw Data (600 1);Raw Data (600 1);Raw Data (600 1);Raw Data (600 1);Raw Data (600 1);Raw Data (600 1);Raw Data (600 1);Raw Data (600 1);Raw Data (600 1);Raw Data (600 1);Raw Data (600 1);Raw Data (600 1);Raw Data (600 1);Raw Data (600 1);Raw Data (600 1);Raw Data (600 1);Raw Data (600 1);Raw Data (600 1);Raw Data (600 1);Raw Data (600 1);Raw Data (600 1);Raw Data (600 1);Raw Data (600 1);Raw Data (600 1);Raw Data (600 1);Raw Data (600 1);Raw Data (600 1);Raw Data (600 1);Raw Data (600 1);Raw Data (600 1);Raw Data (600 1);Raw Data (600 1);Raw Data (600 1);Raw Data (600 1);Raw Data (600 1);Raw Data (600 1);Raw Data (600 1);Raw Data (600 1);Raw Data (600 1);Raw Data (600 1);Raw Data (600 1);Raw Data (600 1);Raw Data (600 1);Raw Data (600 1);Raw Data (600 1);Raw Data (600 1);Raw Data (600 1);Raw Data (600 1);Raw Data (600 1);Raw Data (600 1);Raw Data (600 1);Raw Data (600 1);Raw Data (600 1);Raw Data (600 1);Raw Data (600 1);Raw Data (600 1);Raw Data (600 1);Raw Data (600 1);Raw Data (600 1);Raw Data (600 1);Raw Data (600 1);Raw Data (600 1);Raw Data (600 1);Raw Data (600 1);Raw Data (600 1);Raw Data (600 1);Raw Data (600 1);Raw Data (600 1);Raw Data (600 1);Raw Data (600 1);Raw Data (600 1);Raw Data (600 1);Raw Data (600 1);Raw Data (600 1);Raw Data (600 1);Raw Data (600 1);Raw Data (600 1);Raw Data (600 1);Raw Data (600 1);Raw Data (600 1);Raw Data (600 1);Raw Data (600 1);Raw Data (600 1);Raw Data (600 1);Raw Data (600 1);Raw Data (600 1);
;Time;0 h ;0 h 10 min;0 h 20 min;0 h 30 min;0 h 40 min;0 h 50 min;1 h ;1 h 10 min;1 h 20 min;1 h 30 min;1 h 40 min;1 h 50 min;2 h ;2 h 10 min;2 h 20 min;2 h 30 min;2 h 40 min;2 h 50 min;3 h ;3 h 10 min;3 h 20 min;3 h 30 min;3 h 40 min;3 h 50 min;4 h ;4 h 10 min;4 h 20 min;4 h 30 min;4 h 40 min;4 h 50 min;5 h ;5 h 10 min;5 h 20 min;5 h 30 min;5 h 40 min;5 h 50 min;6 h ;6 h 10 min;6 h 20 min;6 h 30 min;6 h 40 min;6 h 50 min;7 h ;7 h 10 min;7 h 20 min;7 h 30 min;7 h 40 min;7 h 50 min;8 h ;8 h 10 min;8 h 20 min;8 h 30 min;8 h 40 min;8 h 50 min;9 h ;9 h 10 min;9 h 20 min;9 h 30 min;9 h 40 min;9 h 50 min;10 h ;10 h 10 min;10 h 20 min;10 h 30 min;10 h 40 min;10 h 50 min;11 h ;11 h 10 min;11 h 20 min;11 h 30 min;11 h 40 min;11 h 50 min;12 h ;12 h 10 min;12 h 20 min;12 h 30 min;12 h 40 min;12 h 50 min;13 h ;13 h 10 min;13 h 20 min;13 h 30 min;13 h 40 min;13 h 50 min;14 h ;14 h 10 min;14 h 20 min;14 h 30 min;14 h 40 min;14 h 50 min;15 h ;15 h 10 min;15 h 20 min;15 h 30 min;15 h 40 min;15 h 50 min;16 h ;16 h 10 min;16 h 20 min;16 h 30 min;16 h 40 min;16 h 50 min;17 h ;17 h 10 min;17 h 20 min;17 h 30 min;17 h 40 min;17 h 50 min;18 h ;18 h 10 min;18 h 20 min;18 h 30 min;18 h 40 min;18 h 50 min;19 h ;19 h 10 min;19 h 20 min;19 h 30 min;19 h 40 min;19 h 50 min;20 h ;20 h 10 min;20 h 20 min;20 h 30 min;20 h 40 min;20 h 50 min;21 h ;21 h 10 min;21 h 20 min;21 h 30 min;21 h 40 min;21 h 50 min;22 h ;22 h 10 min;22 h 20 min;22 h 30 min;22 h 40 min;22 h 50 min;23 h ;23 h 10 min;23 h 20 min;23 h 30 min;23 h 40 min;23 h 50 min;
A01;Sample X1;0,254;0,255;0,255;0,26;0,26;0,265;0,272;0,406;0,286;0,298;0,311;0,714;0,621;0,8;0,381;0,403;0,923;0,472;0,57;0,523;0,554;0,601;0,653;0,695;0,756;0,805;0,873;0,954;1,011;1,097;1,192;1,221;1,31;1,447;1,539;1,669;1,799;1,84;1,921;1,962;1,984;2,031;2,145;2,233;2,332;2,356;2,45;2,463;2,521;2,577;2,596;2,685;2,733;2,766;2,792;2,818;2,825;2,866;2,907;2,935;2,927;2,956;2,95;2,975;2,999;3,014;3,038;3,082;3,042;3,093;3,104;3,413;3,149;3,136;3,17;3,174;3,188;3,212;3,22;3,237;3,258;3,267;3,274;3,276;3,277;3,318;3,295;3,29;3,298;3,302;3,312;3,317;3,296;3,288;3,282;3,278;3,264;3,274;3,273;3,276;3,262;3,263;3,249;3,247;3,231;3,239;3,246;3,23;3,234;3,217;3,224;3,218;3,215;3,207;3,21;3,216;3,214;3,212;3,199;3,2;3,209;3,194;3,204;3,199;3,195;3,191;3,361;3,201;3,178;3,182;3,173;3,174;3,154;3,166;3,165;3,169;3,162;3,154;3,158;3,141;3,145;3,143;3,14;3,131;
A02;Sample X2;0,249;0,249;0,249;0,252;0,253;0,256;0,26;0,269;0,276;0,284;0,293;0,306;0,316;0,333;0,351;0,365;0,393;0,412;0,441;0,476;0,502;0,541;0,584;0,624;0,671;0,714;0,768;0,805;0,892;0,961;1,036;1,081;1,174;1,19;1,297;1,407;1,512;1,577;1,701;1,815;1,856;1,893;1,982;1,989;2,044;2,151;2,276;2,27;2,306;2,391;2,45;2,477;2,491;2,528;2,64;2,642;2,694;2,731;2,738;2,783;2,787;2,815;2,805;2,827;2,843;2,879;2,878;2,932;2,891;2,934;2,947;2,946;2,997;2,994;2,991;2,997;2,975;2,973;3,013;3,027;3,048;3,045;3,041;3,071;3,055;3,077;3,066;3,074;3,079;3,077;3,091;3,083;3,088;3,092;3,092;3,084;3,084;3,086;3,07;3,071;3,059;3,05;3,053;3,044;3,04;3,021;3,031;3,029;3,018;3,006;3,012;3,005;3,002;2,999;2,992;2,991;2,99;2,991;2,992;2,993;2,972;2,967;2,973;2,951;2,966;2,961;2,968;2,982;2,969;2,988;2,965;2,972;3,147;2,957;2,954;2,958;2,954;2,963;2,95;3,639;2,948;2,942;2,949;2,962;
A03;Sample X3;0,251;0,252;0,252;0,252;0,254;0,256;0,263;0,268;0,278;0,285;0,295;0,308;0,319;0,332;0,352;0,363;0,391;0,408;0,439;0,473;0,501;0,538;0,581;0,614;0,667;0,706;0,759;0,81;0,845;0,936;1,002;1,065;1,119;1,153;1,251;1,315;1,4;1,501;1,617;1,754;1,806;1,854;2,014;1,987;2,025;2,058;2,203;2,24;2,337;2,361;2,386;2,455;2,461;2,479;2,521;2,63;2,619;2,688;2,717;2,704;2,713;2,749;2,776;2,791;2,791;2,806;2,817;2,838;2,821;2,852;2,869;2,869;2,887;2,903;2,901;2,918;2,909;2,905;2,92;2,932;2,947;2,946;2,938;2,983;2,973;2,985;2,971;2,99;3,007;2,999;3,013;3,016;3,029;3,017;3,01;2,999;3,003;3,002;2,995;2,97;2,966;2,949;2,934;2,94;2,923;2,895;2,908;2,903;2,892;2,876;2,885;2,87;2,871;2,881;2,87;2,862;2,857;2,85;2,848;2,845;2,836;2,833;2,836;2,822;2,817;2,824;2,829;2,827;2,815;2,82;2,811;2,823;2,81;2,809;2,799;2,803;2,793;2,785;2,796;2,789;2,78;2,775;2,771;2,761;
A04;Sample X4;0,255;0,255;0,256;0,257;0,258;0,261;0,265;0,268;0,277;0,288;0,299;0,31;0,321;0,338;0,353;0,365;0,392;0,409;0,437;0,474;0,503;0,545;0,583;0,618;0,676;0,705;0,759;0,818;0,823;0,935;1;1,078;1,144;1,123;1,249;1,24;1,39;1,435;1,534;1,655;1,773;1,849;1,987;2,061;2,09;2,113;2,164;2,291;2,272;2,278;2,325;2,5;2,353;2,444;2,509;2,567;2,524;2,565;2,551;2,563;2,585;2,634;2,646;2,684;2,739;2,735;2,723;2,704;2,794;2,826;2,843;2,816;2,836;2,835;2,871;2,869;2,885;2,903;2,905;2,918;2,924;2,931;2,948;3,052;2,956;2,969;2,97;2,979;2,998;2,979;3,008;3,022;3,02;3,039;3,042;3,023;3,029;3,077;3,087;3,07;3,078;3,076;3,073;3,078;3,081;3,074;3,089;3,075;3,066;3,054;3,058;3,057;3,041;3,043;3,05;3,039;3,027;3,013;2,994;2,99;3,001;2,981;3,192;3,053;2,968;2,967;3,06;2,979;2,959;2,97;2,964;2,962;2,993;2,974;2,952;2,941;2,934;2,927;2,928;2,949;2,91;2,902;2,9;2,913;
A05;Sample X5;0,248;0,248;0,25;0,253;0,252;0,252;0,259;0,263;0,272;0,285;0,289;0,3;0,31;0,326;0,336;0,352;0,377;0,393;0,417;0,456;0,476;0,514;0,547;0,575;0,637;0,663;0,71;0,761;0,776;0,878;0,928;1,013;1,069;1,093;1,211;1,188;1,288;1,347;1,434;1,595;1,702;1,726;1,928;1,988;2,034;2,011;2,066;2,188;2,218;2,235;2,285;2,318;2,334;2,375;2,41;2,396;2,483;2,503;2,514;2,555;2,564;2,622;2,642;2,665;2,692;2,706;2,705;2,703;2,762;2,754;2,772;2,783;2,828;2,83;2,827;2,849;2,864;2,892;2,888;2,911;2,926;2,942;2,93;2,96;2,962;2,987;2,993;3,003;3,031;3,019;3,045;3,065;3,044;3,044;3,041;3,024;3,027;3,047;3,054;3,02;3,014;3,004;2,998;3,016;3,009;2,988;2,985;2,984;2,972;2,954;2,945;2,947;2,934;2,913;2,929;2,916;2,911;2,898;2,886;2,892;2,887;2,866;2,864;2,883;2,861;2,854;2,878;2,859;2,846;2,862;2,833;2,843;2,835;2,849;2,843;2,807;2,808;2,811;2,817;2,826;2,786;2,777;2,784;2,788;
A06;Sample X6;0,254;0,253;0,255;0,253;0,255;0,256;0,263;0,27;0,274;0,286;0,295;0,307;0,317;0,336;0,349;0,363;0,39;0,408;0,434;0,472;0,498;0,532;0,564;0,592;0,65;0,672;0,71;0,761;0,853;0,899;0,936;1,021;1,084;1,131;1,228;1,266;1,33;1,388;1,422;1,551;1,708;1,763;1,952;2,009;2,057;2,054;2,105;2,221;2,183;2,25;2,304;2,36;2,377;2,401;2,41;2,406;2,47;2,523;2,528;2,552;2,563;2,615;2,645;2,66;2,705;2,719;2,727;2,725;2,76;2,782;2,793;2,808;2,857;2,864;2,865;2,868;2,896;2,924;2,928;2,956;2,965;2,98;2,964;2,997;3,011;3,036;3,042;3,038;3,07;3,058;3,102;3,132;3,113;3,124;3,108;3,076;3,082;3,095;3,112;3,061;3,072;3,048;3,049;3,071;3,069;3,037;3,025;3,038;3,018;3,003;2,985;2,985;2,953;2,948;2,989;2,971;2,955;2,949;2,927;2,938;2,957;2,914;2,904;2,957;2,901;2,907;2,942;2,91;2,898;2,91;2,881;2,886;2,88;2,92;2,898;2,859;2,849;2,846;2,856;2,885;2,825;2,836;2,852;2,833;
A07;Sample X7;0,254;0,252;0,254;0,256;0,256;0,258;0,265;0,27;0,278;0,292;0,301;0,312;0,323;0,343;0,357;0,376;0,404;0,424;0,443;0,489;0,512;0,551;0,579;0,598;0,661;0,673;0,714;0,799;0,857;0,912;0,941;1,03;1,082;1,147;1,242;1,312;1,401;1,439;1,495;1,531;1,581;1,731;1,911;2,023;2,091;2,066;2,163;2,242;2,229;2,279;2,265;2,484;2,434;2,447;2,443;2,436;2,474;2,526;2,584;2,561;2,602;2,625;2,654;2,706;2,721;2,73;2,741;2,746;2,757;2,795;2,802;2,845;2,96;2,863;2,83;2,857;2,875;2,909;2,913;2,952;2,953;2,963;2,942;3,027;2,979;3,007;3,031;3,008;3,024;3,014;3,07;3,106;3,068;3,134;3,123;3,078;3,098;3,136;3,148;3,076;3,11;3,056;3,06;3,106;3,114;3,074;3,061;3,082;3,065;3,033;3,021;3,012;2,97;2,987;3,024;3,071;3,024;3,075;2,919;2,95;2,995;2,921;2,92;3,098;2,912;2,914;2,961;2,924;2,91;2,92;2,872;2,892;2,884;2,971;2,917;2,846;2,843;2,844;2,853;2,9;2,815;2,812;2,91;2,811;
A08;Sample X8;0,248;0,252;0,248;0,25;0,252;0,257;0,264;0,266;0,273;0,287;0,3;0,305;0,319;0,334;0,348;0,368;0,394;0,413;0,43;0,473;0,497;0,526;0,558;0,574;0,625;0,626;0,658;0,731;0,765;0,823;0,829;0,912;0,982;0,978;1,055;1,101;1,162;1,201;1,306;1,29;1,361;1,456;1,474;1,578;1,661;1,737;1,724;1,79;1,93;1,888;1,95;2,135;2,042;2,099;2,186;2,315;2,266;2,307;2,379;2,411;2,555;2,582;2,612;2,706;2,636;2,635;2,642;2,604;2,615;2,653;2,658;2,678;2,776;2,736;2,66;2,695;2,802;2,759;2,762;2,815;2,801;2,84;2,744;2,8;2,898;2,791;2,874;2,853;2,835;2,906;2,861;2,904;2,824;2,91;2,855;2,794;2,797;2,882;2,949;2,831;2,96;2,795;2,836;2,963;2,971;2,917;2,919;2,999;2,989;2,987;2,927;2,944;2,863;2,833;2,96;2,918;2,889;2,852;2,802;2,877;2,911;2,827;2,794;2,901;2,804;2,795;2,856;2,805;2,818;2,82;2,743;2,773;2,801;2,865;2,842;2,699;2,705;2,697;2,726;2,802;2,653;2,667;2,663;2,65;
A09;Sample X9;0,259;0,253;0,254;0,254;0,262;0,256;0,263;0,267;0,274;0,283;0,293;0,305;0,312;0,329;0,34;0,354;0,381;0,387;0,404;0,453;0,462;0,496;0,518;0,525;0,577;0,574;0,609;0,64;0,672;0,725;0,713;0,773;0,794;0,83;0,894;0,914;0,942;0,966;1,069;1,001;1,039;1,108;1,079;1,162;1,198;1,274;1,194;1,248;1,361;1,312;1,333;1,502;1,397;1,45;1,491;1,561;1,549;1,57;1,608;1,583;1,698;1,761;1,717;1,825;1,848;1,855;1,876;1,835;1,798;1,891;1,892;1,915;2,008;1,97;1,909;1,94;1,952;2,019;2,035;2,053;2,049;2,103;2,003;2,049;2,067;2,053;2,143;2,045;2,11;2,055;2,138;2,208;2,138;2,241;2,166;2,099;2,125;2,206;2,292;2,108;2,243;2,107;2,138;2,264;2,306;2,237;2,24;2,312;2,299;2,262;2,211;2,222;2,148;2,185;2,327;2,275;2,252;2,242;2,195;2,288;2,369;2,244;2,236;2,354;2,252;2,23;2,317;2,239;2,263;2,279;2,227;2,223;2,219;2,351;2,313;2,171;2,147;2,169;2,194;2,288;2,097;2,136;2,144;2,15;
A10;Sample X10;0,257;0,255;0,257;0,258;0,26;0,261;0,266;0,272;0,276;0,285;0,296;0,301;0,315;0,332;0,349;0,363;0,388;0,405;0,418;0,466;0,485;0,517;0,546;0,552;0,609;0,614;0,66;0,682;0,697;0,762;0,748;0,824;0,819;0,87;0,919;0,93;0,966;0,984;1,074;1,03;1,059;1,112;1,098;1,178;1,222;1,252;1,196;1,225;1,303;1,251;1,278;1,391;1,326;1,359;1,395;1,456;1,436;1,446;1,481;1,456;1,554;1,595;1,572;1,659;1,631;1,627;1,656;1,614;1,601;1,657;1,641;1,673;1,732;1,694;1,657;1,677;1,681;1,709;1,697;1,713;1,712;1,76;1,673;1,754;1,727;1,74;1,77;1,737;1,743;1,714;1,759;1,811;1,772;1,821;1,766;1,694;1,748;1,791;1,863;1,713;1,758;1,72;1,739;1,773;1,826;1,761;1,762;1,823;1,8;1,8;1,74;1,752;1,703;1,718;1,834;1,787;1,756;1,734;1,742;1,77;1,848;1,73;1,711;1,825;1,748;1,728;1,827;1,715;1,725;1,773;1,746;1,752;1,744;1,835;1,796;1,697;1,695;1,714;1,698;1,801;1,676;1,678;1,692;1,735;
A11;Sample X11;0,248;0,241;0,244;0,248;0,246;0,247;0,253;0,255;0,261;0,267;0,282;0,285;0,292;0,326;0,315;0,323;0,348;0,356;0,365;0,404;0,416;0,443;0,465;0,461;0,517;0,512;0,553;0,586;0,573;0,632;0,609;0,678;0,68;0,711;0,776;0,771;0,824;0,828;0,92;0,86;0,874;0,94;0,909;0,993;1,033;1,082;0,972;1,043;1,111;1,058;1,087;1,39;1,129;1,165;1,196;1,249;1,257;1,25;1,271;1,284;1,382;1,409;1,412;1,503;1,531;1,514;1,488;1,483;1,461;1,512;1,554;1,566;1,613;1,585;1,534;1,566;1,586;1,676;1,654;1,71;1,71;1,757;1,621;1,696;1,689;1,658;1,788;1,765;1,729;1,699;1,769;1,805;1,799;1,856;1,77;1,702;1,711;1,829;1,89;1,742;1,75;1,672;1,747;1,846;1,9;1,833;1,833;1,905;1,903;1,886;1,82;1,848;1,762;1,751;1,889;1,89;1,864;1,807;1,807;1,902;1,839;1,849;1,836;1,894;1,805;1,844;1,883;1,858;1,912;1,9;1,841;1,884;1,844;1,972;2,01;1,831;1,848;1,839;1,865;1,923;1,827;1,838;1,852;1,846;
A12;Sample X12;1,523;1,497;1,457;1,426;1,421;1,426;1,437;1,433;1,432;1,447;1,456;1,435;1,44;1,445;1,454;1,451;1,475;1,465;1,468;1,494;1,487;1,504;1,498;1,508;1,525;1,52;1,542;1,546;1,563;1,563;1,562;1,587;1,586;1,602;1,639;1,648;1,688;1,733;1,812;1,825;1,859;1,926;1,917;2,017;2,097;2,203;2,298;2,33;2,374;2,333;2,448;2,591;2,453;2,469;2,537;2,572;2,674;2,649;2,671;2,68;2,742;2,757;2,762;2,829;2,813;2,812;2,812;2,869;2,849;2,901;2,932;2,944;2,979;2,97;2,953;2,983;2,995;3,077;3,069;3,107;3,108;3,148;3,039;3,054;3,092;3,072;3,166;3,153;3,124;3,082;3,182;3,181;3,164;3,248;3,159;3,113;3,119;3,23;3,239;3,125;3,141;3,076;3,146;3,317;3,29;3,278;3,303;3,324;3,362;3,315;3,283;3,281;3,18;3,132;3,57;3,988;3,241;3,29;3,156;3,363;3,405;3,322;3,186;3,335;3,131;3,19;3,225;3,241;3,302;3,216;3,046;3,119;3,031;3,307;3,296;2,987;2,944;2,9;3,068;2,99;2,86;2,9;2,911;2,781;
B01;Sample X1;0,25;0,25;0,249;0,252;0,254;0,256;0,263;0,268;0,278;0,289;0,302;0,316;0,331;0,342;0,363;0,381;0,413;0,437;0,466;0,503;0,543;0,586;0,625;0,662;0,725;0,763;0,814;0,902;0,963;1,032;1,11;1,188;1,224;1,248;1,429;1,537;1,775;1,834;1,877;2,044;2,038;2,04;2,101;2,124;2,143;2,212;2,296;2,33;2,336;2,413;2,459;2,485;2,551;2,655;2,696;2,703;2,718;2,75;2,788;2,809;2,811;2,846;2,843;2,884;2,865;2,873;2,903;2,936;2,925;2,95;2,973;2,973;3,019;2,997;3,001;3,001;3,003;3,003;3,019;3,047;3,075;3,061;3,059;3,106;3,077;3,111;3,083;3,098;3,102;3,108;3,115;3,118;3,118;3,12;3,129;3,129;3,122;3,121;3,116;3,105;3,096;3,088;3,089;3,089;3,065;3,062;3,061;3,054;3,041;3,047;3,053;3,045;3,035;3,051;3,049;3,029;3,029;3,029;3,034;3,023;3,033;3,015;3,017;3,175;3,018;3,015;3,051;3,015;3,021;3,029;3,014;3,01;3,256;3,008;3,017;3,007;3,007;2,999;3,001;3,032;2,981;2,987;2,975;3,322;
B02;Sample X2;0,259;0,257;0,258;0,26;0,259;0,26;0,267;0,271;0,28;0,293;0,297;0,312;0,325;0,337;0,352;0,367;0,393;0,416;0,436;0,478;0,507;0,542;0,576;0,62;0,674;0,709;0,759;0,823;0,841;0,941;1,018;1,076;1,127;1,171;1,236;1,306;1,54;1,671;1,712;1,91;1,981;2,034;2,142;2,103;2,082;2,149;2,163;2,203;2,228;2,329;2,383;2,387;2,432;2,47;2,537;2,612;2,621;2,653;2,684;2,721;2,712;2,755;2,758;2,79;2,792;2,801;2,818;2,825;2,841;2,865;2,881;2,867;2,923;2,918;2,912;2,904;2,901;2,911;2,917;2,932;2,95;2,948;2,958;2,998;2,969;3,002;2,99;3,003;3,002;3,022;3,023;3,032;3,038;3,03;3,041;3,03;3,031;3,052;3,043;3,035;3,016;3,021;3,009;3,007;3,008;2,979;2,992;2,986;2,979;2,965;2,963;2,958;2,958;2,962;2,955;2,961;2,95;2,947;2,943;2,94;2,938;2,924;2,922;2,925;2,924;2,924;2,912;2,918;2,917;2,92;2,915;2,917;2,911;2,911;2,921;2,905;2,906;2,896;2,896;2,896;2,874;2,884;2,872;2,884;
B03;Sample X3;0,261;0,258;0,264;0,264;0,261;0,265;0,272;0,275;0,283;0,295;0,3;0,313;0,323;0,338;0,352;0,368;0,394;0,41;0,436;0,468;0,5;0,533;0,567;0,608;0,663;0,694;0,739;0,815;0,825;0,896;0,972;1,04;1,088;1,158;1,189;1,199;1,325;1,473;1,582;1,756;1,847;1,894;2,077;2,099;2,092;2,068;2,158;2,111;2,196;2,275;2,295;2,293;2,366;2,401;2,421;2,467;2,506;2,565;2,603;2,608;2,632;2,653;2,68;2,702;2,712;2,715;2,712;2,689;2,741;2,765;2,782;2,783;2,804;2,811;2,806;2,808;2,81;2,821;2,832;2,848;2,843;2,85;2,848;2,891;2,863;2,886;2,884;2,882;2,91;2,904;2,919;2,945;2,954;2,938;2,951;2,938;2,954;2,977;2,998;2,981;2,979;2,985;2,98;2,973;2,96;2,935;2,916;2,825;2,811;2,797;2,796;2,774;2,759;2,772;2,76;2,76;2,741;2,753;2,739;2,722;2,74;2,69;2,716;2,816;2,706;2,711;2,708;2,699;2,679;2,703;2,699;2,698;2,691;2,689;2,689;2,661;2,673;2,67;2,665;2,671;2,643;2,639;2,637;2,653;
B04;Sample X4;0,265;0,256;0,256;0,258;0,257;0,263;0,266;0,27;0,28;0,283;0,291;0,301;0,311;0,33;0,342;0,359;0,381;0,396;0,42;0,451;0,481;0,502;0,539;0,58;0,64;0,664;0,702;0,771;0,814;0,834;0,922;0,984;1,022;1,089;1,194;1,196;1,231;1,29;1,375;1,534;1,7;1,812;1,97;2,029;2,087;2,107;2,16;2,236;2,108;2,184;2,257;2,26;2,297;2,35;2,347;2,367;2,377;2,483;2,498;2,502;2,535;2,571;2,586;2,612;2,65;2,649;2,654;2,642;2,684;2,703;2,722;2,746;2,768;2,769;2,766;2,777;2,799;2,818;2,831;2,846;2,815;2,859;2,864;2,896;2,876;2,932;2,932;2,907;2,942;2,937;2,967;2,976;2,986;2,97;2,987;2,966;2,961;2,993;3;2,982;2,983;2,983;2,969;2,967;2,972;2,939;2,937;2,945;2,937;2,906;2,886;2,903;2,882;2,903;2,881;2,883;2,859;2,861;2,859;2,827;2,86;2,801;2,837;2,838;2,806;2,817;2,824;2,813;2,782;2,807;2,806;2,813;2,787;2,805;2,801;2,781;2,789;2,771;2,774;2,784;2,753;2,747;2,75;2,77;
B05;Sample X5;0,255;0,25;0,248;0,251;0,252;0,257;0,259;0,264;0,272;0,275;0,285;0,29;0,299;0,325;0,337;0,354;0,376;0,389;0,415;0,444;0,471;0,492;0,531;0,577;0,628;0,654;0,684;0,757;0,795;0,828;0,902;0,956;0,993;1,076;1,151;1,227;1,225;1,26;1,34;1,498;1,66;1,783;1,954;2,005;2,085;2,094;2,189;2,253;2,152;2,105;2,216;2,3;2,291;2,324;2,292;2,341;2,313;2,447;2,469;2,466;2,495;2,529;2,552;2,583;2,624;2,621;2,651;2,645;2,663;2,701;2,715;2,754;2,762;2,785;2,788;2,807;2,831;2,85;2,859;2,881;2,833;2,914;2,914;2,94;2,904;3,009;2,97;2,944;3,009;2,992;3,04;3,062;3,068;3,051;3,062;3,032;3,007;3,059;3,068;3,055;3,027;3,033;3,029;3,011;3,025;2,974;2,963;2,989;2,97;2,924;2,915;2,956;2,952;2,954;2,939;2,943;2,916;2,933;2,923;2,881;2,933;2,82;2,897;2,9;2,855;2,874;2,876;2,858;2,818;2,838;2,864;2,863;2,827;2,846;2,839;2,821;2,836;2,826;2,831;2,823;2,808;2,788;2,793;2,819;
B06;Sample X6;0,263;0,259;0,257;0,259;0,261;0,264;0,269;0,273;0,281;0,285;0,295;0,301;0,31;0,339;0,349;0,369;0,396;0,408;0,439;0,464;0,494;0,506;0,546;0,593;0,651;0,67;0,684;0,744;0,796;0,875;0,919;0,963;0,989;1,081;1,168;1,258;1,304;1,295;1,344;1,428;1,609;1,831;1,982;2,047;2,124;2,144;2,255;2,32;2,27;2,351;2,221;2,359;2,365;2,368;2,345;2,362;2,348;2,486;2,516;2,505;2,533;2,569;2,556;2,591;2,644;2,659;2,689;2,672;2,697;2,728;2,742;2,791;2,812;2,823;2,819;2,848;2,887;2,912;2,923;2,935;2,836;2,964;2,983;2,989;2,933;3,07;3,031;2,968;3,069;3,051;3,095;3,114;3,137;3,117;3,125;3,09;3,047;3,12;3,134;3,102;3,046;3,077;3,068;3,058;3,066;3,003;2,989;3,016;3,01;2,932;2,918;2,994;2,97;2,987;2,976;2,986;2,944;2,961;2,96;2,893;2,985;2,829;2,934;2,943;2,886;2,917;2,92;2,908;2,852;2,881;2,92;2,93;2,881;2,897;2,904;2,882;2,88;2,87;2,888;2,882;2,865;2,849;2,87;2,888;
B07;Sample X7;0,263;0,258;0,258;0,259;0,259;0,268;0,269;0,274;0,283;0,285;0,298;0,304;0,312;0,348;0,359;0,381;0,41;0,42;0,449;0,479;0,508;0,512;0,558;0,612;0,656;0,676;0,681;0,766;0,816;0,896;0,933;0,963;0,989;1,086;1,172;1,264;1,35;1,322;1,444;1,403;1,449;1,702;1,932;2,042;2,149;2,123;2,266;2,362;2,307;2,415;2,439;2,399;2,455;2,452;2,399;2,498;2,349;2,487;2,538;2,551;2,576;2,605;2,625;2,654;2,682;2,71;2,747;2,739;2,741;2,766;2,768;2,829;2,822;2,848;2,848;2,888;2,924;2,938;2,947;2,978;2,801;2,987;3,007;3,059;2,934;3,1;3,064;2,984;3,077;3,066;3,118;3,157;3,147;3,141;3,171;3,129;3,061;3,183;3,217;3,163;3,069;3,138;3,135;3,111;3,136;3,051;2,986;3,083;3,064;2,932;2,908;3,046;3,026;3,03;3,03;3,037;2,977;3,021;3;2,886;3,033;2,813;2,985;3,009;2,901;2,968;2,979;2,944;2,846;2,892;2,96;2,977;2,875;2,924;2,942;2,909;2,936;2,907;2,937;2,924;2,915;2,886;2,911;2,943;
B08;Sample X8;0,258;0,26;0,257;0,255;0,257;0,264;0,265;0,267;0,276;0,277;0,288;0,291;0,298;0,328;0,339;0,355;0,378;0,384;0,41;0,438;0,46;0,453;0,493;0,54;0,572;0,585;0,586;0,647;0,637;0,722;0,739;0,749;0,748;0,823;0,875;0,958;0,975;0,875;1,089;0,937;0,998;1,165;1,2;1,254;1,305;1,359;1,385;1,435;1,515;1,511;1,586;1,695;1,69;1,73;1,739;1,865;1,718;1,947;2,007;2,032;2,096;2,14;2,159;2,263;2,311;2,365;2,392;2,393;2,379;2,411;2,435;2,498;2,521;2,585;2,658;2,662;2,664;2,745;2,765;2,792;2,461;2,786;2,765;2,801;2,716;2,806;2,833;2,662;2,805;2,811;2,864;2,884;2,859;2,877;2,883;2,83;2,748;2,91;2,954;2,903;2,787;2,898;2,908;2,901;2,954;2,859;2,771;2,938;2,933;2,694;2,715;2,964;2,927;2,949;2,998;3,009;2,973;2,991;2,982;2,853;3,076;2,71;3,009;3,07;2,927;3,04;3,085;3,003;2,852;2,94;3,031;3,042;2,901;2,966;2,975;2,935;2,959;2,92;2,932;2,954;2,916;2,874;2,889;2,946;
B09;Sample X9;0,253;0,249;0,242;0,244;0,244;0,251;0,255;0,258;0,267;0,269;0,278;0,282;0,288;0,355;0,331;0,349;0,366;0,378;0,408;0,437;0,454;0,438;0,491;0,528;0,566;0,573;0,573;0,636;0,632;0,706;0,715;0,724;0,7;0,793;0,83;0,92;0,93;0,784;1,024;0,836;0,866;1,081;1,083;1,121;1,178;1,216;1,211;1,248;1,318;1,288;1,342;1,451;1,408;1,423;1,409;1,528;1,324;1,576;1,601;1,585;1,656;1,696;1,688;1,735;1,753;1,776;1,817;1,817;1,743;1,801;1,828;1,902;1,919;1,926;1,939;1,95;1,956;1,968;1,983;2,013;1,661;2,011;2,012;2,083;1,95;2,069;2,064;1,854;2,013;2,039;2,086;2,135;2,091;2,103;2,109;2,078;1,996;2,141;2,198;2,128;2,023;2,194;2,17;2,153;2,225;2,124;2,015;2,236;2,201;1,877;1,919;2,185;2,157;2,163;2,257;2,273;2,216;2,238;2,172;2,071;2,327;1,882;2,238;2,314;2,153;2,246;2,32;2,223;2,027;2,154;2,256;2,259;2,101;2,215;2,224;2,191;2,206;2,204;2,188;2,244;2,171;2,13;2,155;2,234;
B10;Sample X10;0,253;0,249;0,25;0,253;0,25;0,256;0,26;0,262;0,273;0,271;0,283;0,285;0,287;0,325;0,332;0,356;0,37;0,381;0,406;0,435;0,456;0,425;0,481;0,519;0,557;0,564;0,556;0,627;0,611;0,681;0,704;0,708;0,656;0,753;0,801;0,886;0,904;0,72;0,986;0,769;0,795;1,011;1,022;1,07;1,097;1,137;1,113;1,146;1,194;1,184;1,228;1,32;1,262;1,28;1,257;1,363;1,133;1,397;1,441;1,421;1,482;1,513;1,485;1,544;1,546;1,578;1,635;1,593;1,53;1,582;1,606;1,678;1,679;1,721;1,708;1,718;1,723;1,726;1,754;1,773;1,398;1,759;1,77;1,83;1,695;1,796;1,816;1,551;1,791;1,822;1,819;1,891;1,831;1,867;1,863;1,82;1,695;1,862;1,947;1,876;1,684;1,898;1,885;1,88;1,93;1,84;1,689;1,94;1,893;1,557;1,579;1,893;1,872;1,863;1,96;1,956;1,907;1,895;1,863;1,714;1,969;1,524;1,883;1,942;1,743;1,886;1,951;1,864;1,639;1,771;1,904;1,912;1,705;1,822;1,853;1,805;1,841;1,828;1,82;1,873;1,801;1,767;1,805;1,902;
B11;Sample X11;0,238;0,235;0,235;0,236;0,236;0,246;0,245;0,249;0,257;0,256;0,264;0,264;0,272;0,306;0,311;0,332;0,348;0,357;0,385;0,408;0,426;0,397;0,46;0,488;0,524;0,531;0,513;0,604;0,584;0,647;0,663;0,657;0,612;0,704;0,761;0,829;0,853;0,677;0,943;0,719;0,746;0,996;1,002;1,048;1,082;1,12;1,101;1,144;1,201;1,161;1,21;1,371;1,266;1,273;1,229;1,445;1,078;1,387;1,42;1,39;1,463;1,512;1,469;1,549;1,565;1,564;1,62;1,575;1,538;1,58;1,614;1,707;1,683;1,708;1,698;1,738;1,73;1,753;1,731;1,783;1,384;1,757;1,802;1,843;1,655;1,826;1,807;1,517;1,819;1,845;1,828;1,877;1,859;1,862;1,88;1,798;1,644;1,871;1,972;1,919;1,683;1,914;1,914;1,864;1,963;1,838;1,658;1,962;1,898;1,553;1,562;1,931;1,911;1,943;1,979;1,981;1,931;1,963;1,943;1,708;1,988;1,532;1,977;1,964;1,734;1,966;2,005;1,923;1,649;1,812;1,995;2,029;1,739;1,896;1,968;1,903;1,97;1,893;1,942;1,954;1,928;1,819;1,93;2,044;
B12;Sample X12;1,482;1,404;1,385;1,38;1,353;1,39;1,37;1,359;1,391;1,369;1,355;1,356;1,352;1,41;1,402;1,413;1,435;1,423;1,451;1,447;1,441;1,399;1,433;1,461;1,478;1,465;1,449;1,512;1,5;1,522;1,53;1,502;1,466;1,511;1,544;1,604;1,637;1,5;1,715;1,567;1,606;1,887;1,914;1,96;1,956;2,021;2,144;2,229;2,211;2,238;2,286;2,387;2,352;2,419;2,393;2,531;2,406;2,583;2,632;2,642;2,672;2,686;2,674;2,74;2,769;2,76;2,788;2,785;2,785;2,802;2,881;2,96;2,918;2,951;2,995;3,016;3,027;3,071;3,063;3,085;2,858;3,06;3,093;3,088;2,963;3,147;3,138;2,932;3,13;3,131;3,203;3,184;3,163;3,167;3,181;3,147;2,998;3,224;3,22;3,22;3,261;3,23;3,253;3,249;3,3;3,196;3,059;3,274;3,286;2,983;3,022;3,353;3,335;3,358;3,364;3,404;3,301;3,421;3,38;3,148;3,465;2,965;4,2;3,397;3,232;3,435;3,328;3,366;3,001;3,1;3,315;3,412;3,085;3,19;3,272;3,189;3,278;3,14;3,337;3,164;3,241;3,281;3,266;3,256;
C01;Sample X1;0,265;0,265;0,265;0,267;0,267;0,271;0,275;0,281;0,29;0,301;0,311;0,322;0,336;0,355;0,372;0,395;0,423;0,444;0,479;0,514;0,544;0,575;0,625;0,666;0,726;0,766;0,811;0,859;0,945;1,017;1,086;1,126;1,194;1,204;1,381;1,499;1,719;1,723;1,85;1,921;2,031;2,153;2,226;2,18;2,207;2,122;2,22;2,246;2,274;2,328;2,387;2,412;2,473;2,501;2,586;2,617;2,614;2,662;2,693;2,702;2,736;2,757;2,745;2,773;2,794;2,789;2,812;2,805;2,832;2,869;2,873;2,87;2,894;2,893;2,873;2,888;2,886;2,9;2,908;2,913;2,909;2,923;2,945;2,989;2,963;2,994;2,974;2,985;2,997;3,007;3,02;3,042;3,035;3,036;3,049;3,045;3,008;3,025;3,026;3,019;3,014;2,999;2,984;2,962;2,96;2,95;2,941;2,937;2,934;2,911;2,904;2,917;2,917;2,931;2,902;2,908;2,901;2,899;2,902;2,871;2,894;2,845;2,886;2,919;2,871;2,879;2,874;2,874;2,844;2,87;2,874;2,878;2,864;2,87;2,865;2,86;2,864;2,858;2,857;2,847;2,849;2,843;2,847;2,843;
C02;Sample X2;0,256;0,254;0,255;0,258;0,258;0,259;0,264;0,27;0,277;0,284;0,292;0,302;0,313;0,333;0,348;0,362;0,392;0,41;0,436;0,471;0,499;0,52;0,576;0,615;0,663;0,702;0,738;0,814;0,821;0,894;0,983;1,035;1,075;1,169;1,165;1,172;1,464;1,508;1,628;1,742;1,856;1,952;2,126;2,122;2,132;2,143;2,25;2,163;2,192;2,275;2,289;2,316;2,339;2,371;2,433;2,489;2,51;2,569;2,58;2,625;2,638;2,659;2,654;2,691;2,709;2,716;2,727;2,725;2,751;2,786;2,795;2,791;2,809;2,798;2,808;2,807;2,82;2,832;2,833;2,825;2,82;2,841;2,861;2,873;2,858;2,913;2,898;2,885;2,92;2,932;2,937;2,954;2,955;2,958;2,964;2,954;2,954;2,987;2,983;2,978;2,982;2,983;2,976;2,946;2,956;2,928;2,92;2,933;2,902;2,882;2,866;2,791;2,79;2,801;2,768;2,776;2,758;2,768;2,769;2,717;2,753;2,68;2,75;2,732;2,728;2,729;2,73;2,724;2,685;2,714;2,726;2,724;2,708;2,706;2,706;2,71;2,702;2,705;2,696;2,681;2,676;2,677;2,676;2,69;
C03;Sample X3;0,257;0,254;0,255;0,257;0,256;0,26;0,263;0,267;0,277;0,284;0,286;0,3;0,31;0,33;0,342;0,36;0,385;0,4;0,432;0,458;0,485;0,5;0,555;0,604;0,65;0,679;0,712;0,782;0,822;0,829;0,937;0,984;1,027;1,097;1,177;1,139;1,289;1,373;1,522;1,605;1,74;1,856;2,021;2,052;2,118;2,136;2,217;2,262;2,087;2,259;2,305;2,303;2,3;2,34;2,354;2,392;2,427;2,493;2,521;2,542;2,561;2,59;2,589;2,624;2,664;2,655;2,671;2,662;2,721;2,75;2,754;2,745;2,758;2,755;2,782;2,784;2,81;2,818;2,821;2,825;2,807;2,852;2,868;2,867;2,842;2,927;2,889;2,884;2,935;2,934;2,948;2,965;2,963;2,954;2,967;2,952;2,951;2,974;2,983;2,967;2,965;2,961;2,947;2,947;2,951;2,925;2,93;2,925;2,915;2,898;2,883;2,915;2,894;2,898;2,873;2,883;2,857;2,877;2,882;2,816;2,865;2,783;2,858;2,838;2,838;2,846;2,841;2,838;2,811;2,837;2,845;2,844;2,823;2,831;2,829;2,827;2,824;2,821;2,833;2,792;2,805;2,791;2,804;2,814;
C04;Sample X4;0,285;0,254;0,255;0,256;0,254;0,257;0,259;0,265;0,274;0,28;0,282;0,295;0,301;0,322;0,334;0,356;0,376;0,387;0,424;0,439;0,468;0,479;0,533;0,588;0,626;0,645;0,679;0,736;0,781;0,802;0,875;0,919;0,978;1,053;1,108;1,204;1,195;1,25;1,334;1,452;1,617;1,755;1,908;1,946;2,052;2,099;2,221;2,273;2,204;2,182;2,223;2,237;2,301;2,291;2,272;2,306;2,291;2,425;2,442;2,447;2,462;2,488;2,52;2,538;2,592;2,603;2,609;2,603;2,67;2,703;2,715;2,717;2,729;2,749;2,772;2,788;2,808;2,829;2,844;2,85;2,846;2,881;2,894;2,904;2,878;2,981;2,959;2,937;2,998;2,994;3,006;3,015;3,032;3,03;3,042;3,032;3,01;3,038;3,022;3,019;3,024;3,011;2,998;3,003;2,998;2,97;2,961;2,955;2,961;2,926;2,919;2,942;2,927;2,943;2,884;2,917;2,872;2,913;2,918;2,813;2,892;2,783;2,865;2,852;2,852;2,864;2,845;2,859;2,822;2,848;2,857;2,85;2,842;2,829;2,831;2,828;2,832;2,83;2,814;2,779;2,806;2,776;2,796;2,818;
C05;Sample X5;0,252;0,252;0,25;0,25;0,253;0,258;0,258;0,27;0,273;0,274;0,278;0,287;0,295;0,315;0,331;0,35;0,373;0,385;0,422;0,439;0,468;0,459;0,53;0,581;0,621;0,626;0,666;0,719;0,761;0,774;0,854;0,888;0,951;1,042;1,08;1,225;1,222;1,263;1,286;1,411;1,568;1,752;1,874;1,991;2,079;2,124;2,237;2,317;2,202;2,26;2,266;2,295;2,33;2,284;2,261;2,296;2,274;2,412;2,434;2,43;2,468;2,465;2,493;2,514;2,581;2,588;2,635;2,626;2,678;2,716;2,738;2,736;2,736;2,742;2,796;2,82;2,85;2,875;2,88;2,889;2,869;2,94;2,947;2,947;2,905;3,025;3,03;2,989;3,06;3,061;3,067;3,081;3,093;3,099;3,106;3,089;3,066;3,088;3,061;3,047;3,047;3,038;3,023;3,029;3,009;2,981;2,981;2,965;2,964;2,931;2,915;2,945;2,931;2,943;2,858;2,91;2,841;2,903;2,92;2,768;2,866;2,734;2,851;2,802;2,828;2,867;2,856;2,856;2,821;2,855;2,874;2,858;2,86;2,838;2,843;2,849;2,853;2,845;2,814;2,753;2,817;2,783;2,824;2,856;
C06;Sample X6;0,247;0,257;0,247;0,248;0,247;0,251;0,251;0,256;0,265;0,27;0,273;0,284;0,293;0,306;0,32;0,344;0,363;0,373;0,408;0,428;0,454;0,438;0,505;0,551;0,585;0,585;0,626;0,665;0,68;0,721;0,797;0,806;0,866;0,958;0,991;1,113;1,194;1,195;1,256;1,3;1,383;1,569;1,65;1,919;2,023;2,062;2,199;2,279;2,209;2,373;2,427;2,244;2,321;2,395;2,356;2,336;2,285;2,398;2,423;2,469;2,494;2,459;2,526;2,497;2,599;2,588;2,627;2,623;2,668;2,711;2,727;2,73;2,69;2,695;2,801;2,807;2,831;2,879;2,879;2,913;2,866;2,953;2,925;2,917;2,887;3,075;3,036;2,963;3,071;3,057;3,075;3,087;3,07;3,114;3,134;3,121;3,115;3,155;3,115;3,059;3,078;3,085;3,046;3,078;3,047;3,017;3,003;3,006;2,998;2,938;2,938;2,981;2,966;2,976;2,827;2,922;2,818;2,915;2,945;2,721;2,853;2,689;2,848;2,798;2,803;2,883;2,901;2,885;2,831;2,874;2,884;2,882;2,869;2,853;2,849;2,865;2,862;2,845;2,812;2,702;2,831;2,768;2,843;2,878;
C07;Sample X7;0,248;0,248;0,249;0,252;0,249;0,253;0,252;0,261;0,273;0,274;0,276;0,293;0,301;0,317;0,334;0,364;0,383;0,394;0,441;0,455;0,491;0,464;0,546;0,599;0,628;0,622;0,655;0,684;0,748;0,782;0,849;0,842;0,915;1,02;1,053;1,178;1,278;1,238;1,317;1,361;1,451;1,601;1,693;2,013;2,115;2,158;2,291;2,365;2,232;2,445;2,486;2,273;2,453;2,462;2,437;2,409;2,307;2,465;2,523;2,514;2,563;2,484;2,555;2,499;2,635;2,611;2,664;2,628;2,703;2,75;2,774;2,75;2,687;2,706;2,832;2,857;2,873;2,942;2,927;2,965;2,9;3,002;2,96;2,928;2,909;3,047;3,097;3,007;3,099;3,103;3,12;3,115;3,1;3,153;3,163;3,151;3,135;3,21;3,168;3,096;3,129;3,129;3,109;3,16;3,118;3,09;3,062;3,068;3,061;2,983;2,988;3,053;3,022;3,026;2,825;2,961;2,819;2,948;2,991;2,718;2,869;2,666;2,867;2,743;2,828;2,94;2,894;2,934;2,87;2,925;2,945;2,934;2,907;2,901;2,9;2,905;2,921;2,886;2,836;2,69;2,87;2,782;2,87;2,933;
C08;Sample X8;0,371;0,251;0,25;0,252;0,25;0,255;0,255;0,258;0,268;0,27;0,269;0,284;0,287;0,308;0,316;0,342;0,359;0,363;0,41;0,416;0,443;0,404;0,484;0,531;0,549;0,532;0,558;0,586;0,578;0,606;0,66;0,639;0,676;0,758;0,751;0,869;0,918;0,779;0,861;0,877;0,978;1,016;1,044;1,213;1,248;1,301;1,342;1,392;1,299;1,483;1,53;1,554;1,654;1,677;1,716;1,781;1,631;1,886;1,953;1,977;2,035;1,913;2,066;1,952;2,218;2,219;2,305;2,21;2,35;2,386;2,42;2,362;2,313;2,225;2,592;2,61;2,602;2,695;2,68;2,736;2,55;2,716;2,666;2,627;2,572;2,652;2,766;2,65;2,781;2,768;2,81;2,818;2,757;2,829;2,835;2,822;2,772;2,846;2,834;2,679;2,784;2,814;2,759;2,902;2,882;2,854;2,848;2,887;2,894;2,787;2,832;2,945;2,888;2,929;2,597;2,908;2,641;2,905;2,975;2,522;2,75;2,471;2,818;2,607;2,752;3,005;2,985;3,004;2,93;2,995;3,007;2,984;2,947;2,933;2,916;2,913;2,932;2,867;2,806;2,587;2,826;2,681;2,828;2,926;
C09;Sample X9;0,249;0,251;0,253;0,253;0,256;0,26;0,256;0,262;0,274;0,273;0,274;0,289;0,293;0,314;0,325;0,353;0,367;0,37;0,423;0,426;0,459;0,408;0,495;0,541;0,557;0,538;0,569;0,585;0,579;0,607;0,664;0,627;0,669;0,74;0,736;0,842;0,897;0,731;0,812;0,812;0,904;0,933;0,965;1,112;1,14;1,165;1,184;1,223;1,09;1,271;1,31;1,327;1,376;1,391;1,402;1,451;1,257;1,521;1,574;1,555;1,6;1,467;1,587;1,455;1,697;1,65;1,738;1,643;1,728;1,787;1,8;1,791;1,638;1,634;1,881;1,867;1,881;1,918;1,904;1,97;1,872;1,986;1,954;1,915;1,85;1,952;2,034;1,969;2,043;2,02;2,017;2,057;2,025;2,094;2,116;2,082;2,071;2,11;2,117;1,927;2,084;2,096;2,016;2,133;2,115;2,119;2,091;2,135;2,127;2,036;2,064;2,171;2,141;2,155;1,853;2,155;1,889;2,159;2,198;1,753;1,965;1,732;2,02;1,84;1,973;2,2;2,189;2,193;2,122;2,216;2,242;2,215;2,209;2,184;2,181;2,183;2,202;2,136;2,035;1,88;2,103;1,96;2,093;2,254;
C10;Sample X10;0,25;0,26;0,258;0,252;0,257;0,257;0,258;0,264;0,277;0,27;0,275;0,284;0,286;0,312;0,324;0,353;0,365;0,37;0,421;0,417;0,463;0,397;0,489;0,532;0,544;0,519;0,55;0,561;0,558;0,569;0,622;0,586;0,624;0,708;0,689;0,803;0,864;0,683;0,744;0,751;0,851;0,854;0,893;1,034;1,077;1,084;1,095;1,128;0,963;1,145;1,182;1,177;1,236;1,235;1,237;1,279;1,079;1,332;1,379;1,361;1,388;1,25;1,379;1,23;1,48;1,438;1,498;1,403;1,498;1,554;1,579;1,504;1,394;1,389;1,595;1,582;1,584;1,673;1,637;1,683;1,593;1,711;1,644;1,6;1,598;1,62;1,744;1,627;1,734;1,764;1,739;1,794;1,737;1,795;1,808;1,788;1,78;1,799;1,808;1,62;1,701;1,747;1,695;1,817;1,794;1,79;1,755;1,853;1,844;1,704;1,742;1,823;1,792;1,8;1,5;1,797;1,511;1,806;1,801;1,397;1,595;1,353;1,629;1,467;1,607;1,816;1,808;1,768;1,708;1,8;1,855;1,79;1,802;1,764;1,741;1,794;1,807;1,722;1,629;1,502;1,674;1,595;1,657;1,824;
C11;Sample X11;0,275;0,278;0,273;0,274;0,279;0,281;0,282;0,287;0,297;0,29;0,297;0,303;0,305;0,33;0,338;0,368;0,38;0,381;0,424;0,421;0,461;0,408;0,487;0,528;0,552;0,518;0,547;0,565;0,566;0,563;0,614;0,588;0,614;0,713;0,672;0,798;0,86;0,682;0,728;0,738;0,84;0,853;0,885;1,048;1,072;1,095;1,104;1,154;0,969;1,164;1,203;1,188;1,258;1,248;1,264;1,292;1,075;1,357;1,395;1,38;1,432;1,276;1,413;1,235;1,526;1,471;1,513;1,438;1,563;1,585;1,621;1,537;1,435;1,405;1,63;1,645;1,637;1,724;1,685;1,73;1,635;1,763;1,67;1,625;1,647;1,653;1,786;1,671;1,798;1,837;1,796;1,841;1,779;1,84;1,884;1,837;1,838;1,844;1,854;1,68;1,773;1,795;1,764;1,864;1,84;1,862;1,815;1,913;1,875;1,791;1,787;1,919;1,881;1,874;1,527;1,857;1,573;1,862;1,881;1,453;1,67;1,374;1,738;1,516;1,694;1,906;1,907;1,895;1,796;1,897;1,949;1,874;1,896;1,856;1,839;1,9;1,924;1,835;1,752;1,623;1,801;1,73;1,786;1,962;
C12;Sample X12;1,516;1,497;1,456;1,455;1,429;1,443;1,426;1,412;1,446;1,42;1,387;1,419;1,406;1,415;1,44;1,484;1,455;1,438;1,482;1,446;1,476;1,397;1,495;1,509;1,499;1,464;1,49;1,467;1,475;1,461;1,495;1,448;1,494;1,523;1,494;1,566;1,629;1,512;1,55;1,593;1,719;1,744;1,76;1,989;2,023;2,011;2,094;2,236;2,063;2,297;2,44;2,383;2,391;2,351;2,391;2,453;2,387;2,546;2,61;2,6;2,641;2,561;2,629;2,606;2,742;2,666;2,712;2,712;2,76;2,812;2,82;2,798;2,762;2,726;2,881;2,918;2,924;2,992;2,962;2,986;2,971;3,025;2,973;2,935;2,908;2,991;3,061;3,018;3,083;3,083;3,312;3,084;3,047;3,104;3,119;3,107;3,105;3,134;3,058;3,28;3,758;3,112;3,107;3,206;3,17;3,162;3,17;3,205;3,224;3,147;3,166;3,264;3,27;3,265;2,929;3,199;2,983;3,235;3,324;3,107;3,111;2,908;3,181;2,953;3,144;3,331;3,24;3,357;3,293;3,325;3,363;3,356;3,361;4,045;3,314;3,376;3,4;3,311;3,231;3,065;3,318;3,18;3,461;3,41;
D01;Sample X1;0,263;0,266;0,268;0,271;0,272;0,272;0,28;0,286;0,294;0,305;0,309;0,329;0,342;0,356;0,376;0,398;0,425;0,44;0,488;0,512;0,547;0,562;0,629;0,675;0,724;0,753;0,821;0,836;0,908;0,969;1,047;1,096;1,187;1,198;1,301;1,465;1,623;1,583;1,67;1,795;2,006;2,089;2,052;2,186;2,193;2,243;2,28;2,301;2,228;2,321;2,368;2,362;2,493;2,508;2,523;2,551;2,565;2,627;2,668;2,679;2,709;2,708;2,731;2,743;2,779;2,779;2,806;2,807;2,815;2,858;2,862;2,853;2,855;2,851;2,869;2,892;2,908;2,921;2,936;2,945;2,957;2,955;2,953;2,978;2,974;3,009;3,005;3,002;3,032;3,022;3,031;3,04;3,047;3,04;3,054;3,056;3,059;3,064;3,068;3,068;3,085;3,075;3,07;3,066;3,064;3,067;3,068;3,051;3,041;3,034;3,026;3,067;3,025;3,05;3,001;3,013;2,992;3,013;3,006;2,943;2,965;2,886;2,933;2,778;2,806;2,807;2,793;2,828;2,791;2,818;2,807;2,816;2,799;2,796;2,793;2,796;2,793;2,799;2,773;2,735;2,77;2,746;2,764;2,767;
D02;Sample X2;0,26;0,258;0,259;0,259;0,258;0,26;0,264;0,274;0,282;0,287;0,292;0,307;0,315;0,331;0,347;0,366;0,389;0,408;0,442;0,46;0,495;0,507;0,568;0,618;0,652;0,687;0,736;0,788;0,824;0,849;0,933;0,99;1,054;1,102;1,192;1,186;1,398;1,448;1,496;1,671;1,833;1,884;1,939;2,003;2,074;2,115;2,176;2,236;2,129;2,249;2,307;2,275;2,33;2,364;2,427;2,471;2,463;2,526;2,564;2,566;2,612;2,611;2,646;2,648;2,703;2,692;2,713;2,703;2,75;2,79;2,794;2,783;2,792;2,795;2,813;2,836;2,862;2,862;2,861;2,869;2,889;2,895;2,911;2,921;2,912;2,945;2,951;2,95;2,971;2,978;2,987;2,993;2,992;3,002;3,008;2,996;3,003;3,007;3,008;3,005;3,01;3,005;2,998;2,99;2,983;2,975;2,981;2,974;2,954;2,951;2,938;2,933;2,928;2,927;2,893;2,904;2,881;2,911;2,904;2,838;2,888;2,826;2,874;2,858;2,876;2,879;2,87;2,88;2,865;2,874;2,87;2,869;2,874;2,868;2,857;2,865;2,861;2,871;2,828;2,813;2,837;2,82;2,831;2,844;
D03;Sample X3;0,257;0,252;0,256;0,258;0,258;0,259;0,263;0,268;0,278;0,288;0,289;0,308;0,313;0,329;0,343;0,362;0,384;0,401;0,438;0,461;0,489;0,5;0,561;0,611;0,643;0,672;0,723;0,767;0,822;0,831;0,902;0,961;1,033;1,08;1,176;1,187;1,254;1,379;1,421;1,598;1,761;1,822;1,843;1,966;2,042;2,126;2,191;2,222;2,232;2,186;2,308;2,226;2,268;2,288;2,319;2,38;2,373;2,449;2,477;2,481;2,52;2,543;2,578;2,58;2,641;2,655;2,674;2,678;2,711;2,756;2,757;2,746;2,769;2,77;2,79;2,809;2,838;2,86;2,868;2,876;2,898;2,915;2,902;2,915;2,932;2,994;2,995;2,993;3,023;3,019;3,024;3,051;3,045;3,031;3,047;3,044;3,04;3,039;3,038;3,039;3,034;3,017;2,997;3,008;2,996;2,991;2,985;2,971;2,968;2,946;2,946;2,935;2,932;2,94;2,9;2,905;2,886;2,913;2,912;2,846;2,883;2,815;2,854;2,844;2,861;2,858;2,852;2,872;2,843;2,869;2,855;2,844;2,849;2,834;2,834;2,837;2,834;2,836;2,803;2,776;2,802;2,79;2,796;2,824;
D04;Sample X4;0,256;0,255;0,252;0,255;0,253;0,257;0,26;0,267;0,273;0,28;0,284;0,297;0,304;0,323;0,339;0,354;0,375;0,391;0,426;0,443;0,48;0,489;0,547;0,584;0,628;0,651;0,693;0,738;0,79;0,808;0,863;0,921;0,996;1,044;1,108;1,199;1,185;1,267;1,35;1,51;1,675;1,741;1,756;1,885;1,979;2,057;2,136;2,186;2,256;2,302;2,239;2,307;2,3;2,279;2,264;2,297;2,309;2,42;2,447;2,443;2,478;2,489;2,526;2,552;2,601;2,621;2,655;2,663;2,702;2,735;2,753;2,749;2,768;2,779;2,79;2,825;2,863;2,879;2,896;2,895;2,923;2,941;2,921;2,938;2,96;3,024;3,03;3,019;3,066;3,062;3,055;3,081;3,091;3,111;3,116;3,102;3,09;3,083;3,087;3,067;3,076;3,052;3,029;3,033;3,013;3;3,001;2,98;2,988;2,962;2,95;2,942;2,943;2,943;2,901;2,912;2,889;2,923;2,916;2,837;2,88;2,813;2,864;2,844;2,856;2,864;2,857;2,882;2,847;2,864;2,875;2,86;2,867;2,865;2,854;2,859;2,856;2,851;2,814;2,792;2,807;2,807;2,807;2,846;
D05;Sample X5;0,255;0,256;0,255;0,258;0,255;0,259;0,262;0,27;0,275;0,287;0,286;0,302;0,31;0,323;0,336;0,354;0,375;0,394;0,428;0,45;0,477;0,479;0,548;0,579;0,625;0,649;0,695;0,733;0,78;0,796;0,87;0,92;1;1,044;1,111;1,203;1,215;1,243;1,354;1,503;1,681;1,752;1,746;1,924;2,005;2,072;2,141;2,209;2,255;2,31;2,227;2,319;2,328;2,288;2,283;2,295;2,303;2,421;2,443;2,457;2,49;2,503;2,537;2,564;2,603;2,638;2,662;2,684;2,723;2,758;2,781;2,781;2,796;2,803;2,821;2,857;2,903;2,914;2,933;2,949;2,961;2,993;2,961;2,973;3,007;3,061;3,078;3,062;3,11;3,11;3,103;3,125;3,147;3,158;3,167;3,138;3,113;3,119;3,129;3,086;3,098;3,063;3,045;3,046;3,012;3,011;3,003;2,998;2,988;2,969;2,951;2,914;2,941;2,948;2,905;2,907;2,891;2,922;2,916;2,84;2,874;2,814;2,853;2,855;2,855;2,853;2,863;2,879;2,849;2,869;2,871;2,847;2,865;2,853;2,854;2,85;2,861;2,838;2,803;2,785;2,802;2,805;2,794;2,837;
D06;Sample X6;0,265;0,288;0,257;0,257;0,264;0,268;0,27;0,275;0,283;0,281;0,291;0,296;0,301;0,321;0,336;0,351;0,365;0,381;0,416;0,422;0,459;0,447;0,519;0,533;0,568;0,593;0,628;0,656;0,675;0,691;0,775;0,8;0,869;0,919;0,98;1,042;1,123;1,143;1,227;1,264;1,32;1,501;1,49;1,729;1,828;1,927;2,018;2,079;2,073;2,137;2,261;2,134;2,238;2,287;2,308;2,242;2,255;2,36;2,403;2,423;2,446;2,44;2,493;2,51;2,565;2,594;2,614;2,629;2,689;2,718;2,759;2,718;2,724;2,732;2,757;2,785;2,862;2,884;2,914;2,921;2,918;2,975;2,883;2,9;2,981;3,014;3,059;3,041;3,074;3,095;3,057;3,116;3,097;3,134;3,11;3,079;3,056;3,045;3,051;2,991;3,012;2,955;2,943;2,979;2,946;2,938;2,935;2,928;2,936;2,894;2,889;2,854;2,889;2,874;2,828;2,837;2,818;2,868;2,871;2,769;2,803;2,744;2,781;2,782;2,825;2,801;2,844;2,874;2,839;2,857;2,86;2,795;2,84;2,847;2,849;2,836;2,838;2,792;2,755;2,728;2,747;2,758;2,735;2,816;
D07;Sample X7;0,252;0,25;0,25;0,253;0,251;0,255;0,259;0,266;0,272;0,282;0,286;0,304;0,312;0,327;0,342;0,36;0,381;0,401;0,44;0,465;0,492;0,483;0,559;0,576;0,619;0,639;0,671;0,702;0,765;0,801;0,861;0,886;0,977;1,025;1,094;1,16;1,249;1,28;1,337;1,368;1,505;1,664;1,657;1,886;1,992;2,069;2,168;2,237;2,199;2,222;2,384;2,305;2,399;2,372;2,362;2,32;2,322;2,478;2,517;2,515;2,533;2,511;2,587;2,581;2,628;2,669;2,652;2,662;2,744;2,761;2,796;2,769;2,788;2,796;2,777;2,801;2,901;2,915;2,971;2,959;2,944;3,023;2,905;2,912;3,026;3,056;3,104;3,046;3,109;3,125;3,058;3,163;3,113;3,153;3,172;3,171;3,149;3,132;3,163;3,098;3,117;3,038;3,048;3,091;3,054;3,034;3,035;3,031;3,032;2,972;2,983;2,93;2,954;2,936;2,905;2,892;2,893;2,923;2,94;2,82;2,864;2,786;2,841;2,847;2,865;2,849;2,912;2,936;2,889;2,913;2,913;2,824;2,9;2,896;2,894;2,891;2,888;2,817;2,788;2,772;2,775;2,802;2,762;2,833;
D08;Sample X8;0,261;0,298;0,258;0,258;0,261;0,262;0,264;0,272;0,277;0,284;0,288;0,299;0,306;0,321;0,338;0,349;0,366;0,382;0,414;0,432;0,458;0,446;0,506;0,519;0,553;0,576;0,594;0,627;0,632;0,651;0,72;0,715;0,76;0,802;0,857;0,878;0,953;0,886;0,981;0,976;1,046;1,113;1,151;1,171;1,241;1,301;1,354;1,417;1,42;1,466;1,551;1,603;1,659;1,673;1,723;1,757;1,75;1,895;1,951;1,988;2,026;1,988;2,111;2,1;2,193;2,255;2,228;2,285;2,362;2,376;2,433;2,321;2,402;2,449;2,426;2,471;2,589;2,621;2,704;2,708;2,639;2,745;2,592;2,612;2,718;2,741;2,76;2,726;2,8;2,817;2,723;2,888;2,774;2,826;2,85;2,788;2,775;2,777;2,9;2,789;2,841;2,74;2,779;2,894;2,884;2,858;2,876;2,935;2,936;2,873;2,894;2,846;2,865;2,841;2,857;2,839;2,897;2,922;2,947;2,837;2,882;2,811;2,886;2,9;2,929;2,901;3,073;3,082;2,995;3,035;3,015;2,857;2,953;2,967;2,956;2,924;2,907;2,812;2,782;2,783;2,764;2,791;2,724;2,816;
D09;Sample X9;0,263;0,262;0,263;0,264;0,26;0,261;0,27;0,273;0,276;0,291;0,288;0,307;0,312;0,363;0,335;0,351;0,373;0,388;0,419;0,44;0,466;0,447;0,508;0,553;0,554;0,583;0,589;0,628;0,621;0,641;0,706;0,696;0,75;0,781;0,827;0,845;0,903;0,833;0,906;0,907;0,976;1,004;1,043;1,054;1,104;1,132;1,185;1,207;1,184;1,221;1,296;1,322;1,36;1,337;1,369;1,349;1,333;1,475;1,506;1,524;1,54;1,525;1,577;1,616;1,649;1,676;1,636;1,666;1,703;1,727;1,777;1,712;1,763;1,797;1,731;1,746;1,84;1,813;1,882;1,901;1,814;1,954;1,845;1,863;1,945;1,962;1,978;1,919;1,984;2,012;1,907;2,057;2,008;2,035;2,052;1,987;2,004;1,964;2,096;2;2,026;1,945;1,974;2,049;2,079;2,008;1,977;2,08;2,083;1,987;2,02;1,955;2,029;2,001;2,017;1,977;2,062;2,065;2,096;1,945;2,045;1,921;2,037;2,039;2,051;1,999;2,162;2,147;2,088;2,155;2,157;2,003;2,117;2,148;2,144;2,07;2,081;1,994;1,982;2,007;1,934;1,994;1,926;2,026;
D10;Sample X10;0,257;0,256;0,255;0,256;0,257;0,26;0,263;0,267;0,274;0,281;0,286;0,297;0,301;0,315;0,329;0,34;0,368;0,371;0,41;0,427;0,444;0,424;0,482;0,501;0,532;0,549;0,569;0,598;0,592;0,613;0,668;0,655;0,688;0,732;0,763;0,786;0,83;0,779;0,807;0,829;0,883;0,908;0,955;0,951;0,998;1,008;1,046;1,089;1,04;1,08;1,141;1,151;1,164;1,161;1,186;1,162;1,144;1,269;1,271;1,281;1,316;1,295;1,328;1,381;1,4;1,45;1,391;1,439;1,449;1,49;1,52;1,453;1,488;1,526;1,485;1,482;1,566;1,53;1,589;1,603;1,53;1,643;1,562;1,573;1,627;1,63;1,656;1,623;1,666;1,695;1,593;1,772;1,699;1,748;1,731;1,649;1,663;1,651;1,761;1,698;1,703;1,637;1,653;1,704;1,771;1,678;1,668;1,756;1,765;1,688;1,681;1,687;1,69;1,671;1,667;1,625;1,678;1,733;1,7;1,601;1,687;1,545;1,655;1,651;1,675;1,624;1,741;1,737;1,703;1,719;1,707;1,584;1,656;1,726;1,719;1,643;1,642;1,621;1,576;1,611;1,551;1,591;1,545;1,608;
D11;Sample X11;0,25;0,249;0,252;0,252;0,249;0,251;0,253;0,26;0,266;0,274;0,273;0,289;0,292;0,302;0,313;0,324;0,344;0,355;0,381;0,403;0,42;0,399;0,458;0,47;0,498;0,52;0,534;0,573;0,565;0,573;0,625;0,604;0,66;0,696;0,713;0,738;0,799;0,745;0,764;0,798;0,853;0,873;0,913;0,92;0,96;0,986;1,023;1,059;1,018;1,053;1,119;1,139;1,151;1,149;1,176;1,121;1,132;1,236;1,262;1,256;1,293;1,26;1,307;1,355;1,36;1,427;1,373;1,414;1,414;1,453;1,477;1,418;1,475;1,488;1,425;1,46;1,54;1,517;1,562;1,593;1,52;1,613;1,513;1,534;1,586;1,605;1,625;1,596;1,639;1,674;1,552;1,733;1,658;1,686;1,681;1,629;1,626;1,612;1,736;1,661;1,686;1,593;1,618;1,659;1,725;1,648;1,631;1,72;1,721;1,675;1,66;1,66;1,692;1,658;1,649;1,602;1,664;1,67;1,694;1,598;1,678;1,565;1,655;1,647;1,686;1,625;1,712;1,782;1,726;1,737;1,704;1,605;1,686;1,734;1,736;1,667;1,689;1,665;1,61;1,648;1,611;1,648;1,572;1,665;
D12;Sample X12;1,528;1,5;1,46;1,434;1,417;1,429;1,436;1,426;1,423;1,444;1,421;1,439;1,437;1,431;1,443;1,436;1,447;1,454;1,469;1,466;1,473;1,465;1,481;1,475;1,482;1,496;1,503;1,517;1,53;1,51;1,539;1,526;1,558;1,567;1,575;1,565;1,599;1,621;1,634;1,69;1,759;1,815;1,858;1,909;1,969;2,047;2,082;2,203;2,173;2,356;2,386;2,41;2,437;2,47;2,517;2,461;2,457;2,584;2,628;2,622;2,666;2,63;2,651;2,69;2,691;2,718;2,749;2,764;2,78;2,813;2,804;3,605;2,838;2,813;2,779;2,796;2,886;2,88;2,934;2,93;2,922;2,961;2,898;2,914;2,973;2,999;2,99;2,983;3,006;3,008;2,957;3,038;3,012;3,019;3,031;3,022;3,012;2,998;3,063;3,035;3,066;3,011;3,037;3,101;3,068;3,08;3,095;3,131;3,135;3,106;3,135;3,039;3,132;3,127;3,092;3,09;3,137;3,149;3,221;3,12;3,135;3,158;3,14;3,157;3,202;3,192;3,625;3,311;3,254;3,259;3,263;3,21;3,255;3,258;3,295;3,317;3,28;3,227;3,2;3,206;3,2;3,267;3,188;3,249;
E01;Sample X13;0,279;0,281;0,285;0,29;0,29;0,293;0,298;0,307;0,315;0,329;0,334;0,353;0,364;0,373;0,395;0,415;0,439;0,471;0,508;0,548;0,584;0,617;0,676;0,724;0,778;0,82;0,864;0,943;1,001;1,075;1,156;1,225;1,295;1,335;1,488;1,623;1,743;1,756;1,863;1,912;2,052;2,227;2,147;2,32;2,345;2,423;2,451;2,497;2,462;2,457;2,535;2,531;2,604;2,636;2,688;2,712;2,719;2,793;2,832;2,848;2,894;2,911;2,924;2,965;3,006;3,02;3,051;3,076;3,099;3,129;3,145;3,156;3,202;3,212;3,209;3,241;3,262;3,284;3,315;3,34;3,356;3,357;3,357;3,383;3,413;3,439;3,438;3,452;3,436;3,462;3,475;3,488;3,47;3,481;3,487;3,499;3,505;3,496;3,526;3,53;3,525;3,522;3,513;3,528;3,519;3,521;3,533;3,527;3,527;3,516;3,511;3,492;3,507;3,503;3,513;3,494;3,484;3,496;3,479;3,448;3,478;3,438;3,446;3,46;3,466;3,441;3,462;3,472;3,446;3,468;3,472;3,438;3,439;3,448;3,442;3,442;3,442;3,428;3,414;3,42;3,401;3,406;3,389;3,403;
E02;Sample X14;0,262;0,258;0,261;0,261;0,261;0,265;0,27;0,277;0,284;0,295;0,3;0,316;0,329;0,34;0,353;0,371;0,399;0,417;0,456;0,49;0,524;0,549;0,61;0,65;0,705;0,745;0,793;0,837;0,897;0,96;1,042;1,116;1,173;1,251;1,28;1,422;1,559;1,617;1,713;1,794;1,931;2,059;2,068;2,222;2,274;2,317;2,329;2,404;2,293;2,277;2,335;2,336;2,394;2,478;2,542;2,632;2,614;2,68;2,715;2,728;2,787;2,815;2,826;2,883;2,929;2,959;2,988;3;3,022;3,055;3,079;3,095;3,148;3,144;3,156;3,176;3,199;3,201;3,247;3,249;3,281;3,274;3,286;3,315;3,328;3,356;3,361;3,375;3,372;3,401;3,402;3,417;3,406;3,419;3,431;3,432;3,428;3,436;3,449;3,461;3,472;3,458;3,459;3,458;3,461;3,459;3,486;3,453;3,471;3,453;3,457;3,428;3,444;3,439;3,449;3,433;3,433;3,449;3,428;3,406;3,44;3,4;3,417;3,421;3,434;3,4;3,415;3,419;3,395;3,419;3,406;3,389;3,401;3,395;3,392;3,405;3,392;3,382;3,361;3,38;3,352;3,366;3,353;3,363;
E03;Sample X15;0,259;0,259;0,256;0,256;0,259;0,263;0,267;0,273;0,283;0,287;0,295;0,309;0,315;0,33;0,345;0,363;0,387;0,402;0,443;0,466;0,506;0,523;0,585;0,623;0,668;0,703;0,753;0,798;0,827;0,901;0,977;1,034;1,106;1,194;1,25;1,262;1,459;1,505;1,577;1,698;1,838;1,928;1,955;2,112;2,17;2,207;2,225;2,309;2,259;2,346;2,336;2,303;2,358;2,427;2,483;2,513;2,563;2,602;2,656;2,682;2,72;2,747;2,762;2,806;2,828;2,851;2,873;2,898;2,93;2,968;2,985;2,996;3,045;3,041;3,039;3,068;3,101;3,115;3,141;3,153;3,186;3,18;3,191;3,217;3,239;3,268;3,267;3,271;3,264;3,282;3,27;3,286;3,268;3,274;3,294;3,284;3,295;3,272;3,306;3,3;3,306;3,303;3,292;3,296;3,28;3,288;3,299;3,287;3,285;3,277;3,272;3,249;3,257;3,266;3,263;3,253;3,258;3,264;3,253;3,222;3,241;3,221;3,238;3,247;3,251;3,24;3,251;3,267;3,247;3,26;3,254;3,24;3,253;3,243;3,238;3,247;3,244;3,239;3,204;3,222;3,2;3,207;3,198;3,212;
E04;Sample X16;0,25;0,247;0,25;0,281;0,249;0,252;0,255;0,262;0,269;0,277;0,282;0,298;0,307;0,317;0,33;0,347;0,367;0,384;0,424;0,45;0,48;0,498;0,548;0,59;0,635;0,672;0,709;0,74;0,802;0,86;0,926;0,982;1,069;1,123;1,228;1,237;1,39;1,44;1,52;1,646;1,78;1,862;1,896;2,044;2,128;2,184;2,189;2,261;2,245;2,387;2,397;2,346;2,373;2,388;2,439;2,476;2,534;2,583;2,634;2,649;2,688;2,714;2,749;2,782;2,81;2,833;2,863;2,895;2,923;2,955;2,976;2,979;3,033;3,037;3,03;3,066;3,109;3,117;3,135;3,162;3,177;3,196;3,192;3,215;3,247;3,279;3,284;3,284;3,289;3,291;3,278;3,281;3,268;3,269;3,294;3,266;3,283;3,262;3,268;3,284;3,277;3,271;3,262;3,269;3,251;3,259;3,272;3,25;3,254;3,249;3,242;3,219;3,228;3,221;3,236;3,232;3,217;3,235;3,221;3,182;3,21;3,171;3,207;3,222;3,227;3,211;3,225;3,225;3,215;3,226;3,222;3,208;3,227;3,224;3,219;3,224;3,217;3,203;3,177;3,182;3,168;3,176;3,168;3,192;
E05;Sample X17;0,254;0,253;0,253;0,254;0,253;0,256;0,259;0,267;0,279;0,284;0,289;0,304;0,316;0,326;0,34;0,357;0,377;0,402;0,432;0,465;0,494;0,524;0,568;0,613;0,657;0,7;0,738;0,77;0,859;0,909;0,983;1,051;1,138;1,212;1,282;1,371;1,441;1,506;1,593;1,717;1,857;1,972;1,966;2,138;2,22;2,287;2,36;2,419;2,46;2,504;2,503;2,534;2,573;2,539;2,523;2,584;2,615;2,718;2,779;2,795;2,832;2,863;2,897;2,932;2,957;2,994;3,041;3,06;3,081;3,131;3,165;3,16;3,19;3,197;3,214;3,236;3,267;3,272;3,323;3,347;3,326;3,355;3,347;3,399;3,46;3,446;3,492;3,491;3,483;3,478;3,505;3,535;3,522;3,534;3,544;3,523;3,525;3,509;3,539;3,483;3,547;3,48;3,477;3,501;3,452;3,427;3,465;3,417;3,442;3,4;3,445;3,425;3,436;3,404;3,442;3,437;3,43;3,43;3,401;3,392;3,392;3,369;3,385;3,399;3,417;3,417;3,441;3,384;3,368;3,407;3,41;3,378;3,434;3,417;3,38;3,383;3,386;3,396;3,336;3,416;3,34;3,335;3,341;3,364;
E06;Sample X18;0,25;0,248;0,25;0,252;0,25;0,253;0,258;0,266;0,275;0,286;0,292;0,31;0,321;0,333;0,35;0,369;0,392;0,418;0,454;0,484;0,519;0,545;0,6;0,64;0,677;0,705;0,781;0,862;0,911;0,958;1,046;1,117;1,208;1,283;1,381;1,401;1,579;1,593;1,678;1,757;1,9;2,059;2,005;2,14;2,188;2,229;2,389;2,466;2,453;2,473;2,466;2,507;2,508;2,55;2,57;2,643;2,678;2,745;2,804;2,812;2,856;2,865;2,924;2,922;2,957;2,998;3,001;3,049;3,067;3,096;3,141;3,115;3,153;3,164;3,155;3,197;3,247;3,232;3,28;3,294;3,299;3,322;3,316;3,352;3,384;3,424;3,424;3,422;3,423;3,438;3,417;3,422;3,399;3,397;3,404;3,387;3,377;3,373;3,388;3,377;3,388;3,365;3,345;3,361;3,341;3,326;3,353;3,349;3,334;3,313;3,316;3,308;3,306;3,326;3,304;3,301;3,305;3,309;3,32;3,265;3,297;3,254;3,276;3,292;3,299;3,287;3,311;3,319;3,286;3,316;3,328;3,288;3,317;3,312;3,309;3,332;3,33;3,301;3,27;3,281;3,261;3,273;3,249;3,303;
E07;Sample X19;0,26;0,257;0,258;0,261;0,259;0,263;0,268;0,275;0,279;0,293;0,3;0,315;0,329;0,341;0,362;0,379;0,401;0,43;0,463;0,49;0,521;0,554;0,605;0,649;0,691;0,725;0,771;0,829;0,888;0,955;1,028;1,094;1,169;1,253;1,329;1,41;1,51;1,563;1,643;1,665;1,854;1,936;1,998;2,107;2,212;2,286;2,447;2,494;2,463;2,538;2,618;2,609;2,691;2,769;2,82;2,806;2,818;2,861;2,869;2,891;2,9;2,971;3,023;3,066;3,096;3,125;3,129;3,198;3,2;3,217;3,255;3,246;3,295;3,268;3,33;3,434;3,491;3,327;3,37;3,405;3,395;3,509;3,545;3,712;3,707;3,723;3,732;3,684;3,709;3,713;3,771;3,828;3,786;3,788;3,847;3,816;3,822;3,895;3,906;3,973;3,89;3,884;3,805;3,85;3,83;3,82;3,803;3,788;3,83;3,774;3,818;3,822;3,801;3,808;3,878;3,874;3,852;3,864;3,764;3,833;3,861;3,856;3,874;3,841;3,896;3,852;3,891;3,848;3,827;3,883;3,92;3,825;3,869;3,897;3,855;3,898;3,807;3,753;3,592;3,688;3,649;3,629;3,614;3,599;
E08;Sample X20;0,254;0,253;0,252;0,253;0,255;0,259;0,26;0,269;0,278;0,284;0,292;0,302;0,314;0,328;0,343;0,354;0,373;0,398;0,424;0,448;0,478;0,496;0,544;0,577;0,608;0,646;0,655;0,714;0,766;0,803;0,871;0,919;0,974;1,044;1,077;1,148;1,21;1,268;1,336;1,427;1,508;1,58;1,644;1,713;1,79;1,846;1,91;1,998;2,033;2,124;2,19;2,249;2,388;2,369;2,438;2,45;2,552;2,679;2,743;2,727;2,736;2,731;2,79;2,815;2,848;2,891;2,903;2,961;2,979;2,988;3,027;2,992;3,024;3,035;3,055;3,066;3,113;3,086;3,128;3,144;3,111;3,18;3,147;3,181;3,199;3,247;3,249;3,237;3,268;3,323;3,295;3,348;3,321;3,335;3,371;3,37;3,348;3,349;3,379;3,41;3,402;3,406;3,41;3,431;3,452;3,437;3,448;3,479;3,437;3,402;3,388;3,405;3,41;3,415;3,36;3,369;3,349;3,365;3,397;3,294;3,338;3,274;3,309;3,311;3,355;3,314;3,356;3,377;3,317;3,356;3,373;3,303;3,357;3,329;3,327;3,358;3,37;3,318;3,255;3,273;3,275;3,279;3,238;3,311;
E09;Sample X21;0,252;0,246;0,247;0,248;0,247;0,251;0,255;0,261;0,268;0,274;0,281;0,291;0,301;0,312;0,324;0,331;0,347;0,37;0,397;0,416;0,439;0,454;0,494;0,519;0,549;0,592;0,608;0,617;0,678;0,698;0,756;0,802;0,857;0,913;0,935;0,988;1,048;1,078;1,125;1,185;1,247;1,307;1,371;1,425;1,489;1,526;1,605;1,677;1,698;1,776;1,824;1,857;1,956;1,974;2,029;2,055;2,076;2,175;2,252;2,256;2,282;2,275;2,36;2,362;2,41;2,454;2,441;2,531;2,548;2,551;2,597;2,526;2,602;2,599;2,624;2,677;2,716;2,662;2,707;2,688;2,666;2,734;2,693;2,732;2,737;2,776;2,789;2,757;2,814;2,838;2,801;2,885;2,816;2,841;2,87;2,856;2,834;2,839;2,867;2,88;2,848;2,884;2,877;2,887;2,905;2,868;2,88;2,942;2,915;2,879;2,889;2,959;2,951;2,962;2,912;2,931;2,908;2,924;2,993;2,868;2,927;2,896;2,911;2,912;2,987;2,944;3,004;3,008;2,945;3,027;3,045;2,972;3,033;3,008;3,027;3,069;3,097;3,041;2,99;3,007;3,025;3,037;3,005;3,086;
E10;Sample X22;0,262;0,26;0,263;0,266;0,264;0,269;0,27;0,274;0,282;0,29;0,294;0,306;0,317;0,324;0,337;0,346;0,36;0,385;0,41;0,432;0,453;0,464;0,512;0,537;0,559;0,605;0,623;0,627;0,692;0,707;0,772;0,811;0,87;0,911;0,943;0,975;1,041;1,089;1,121;1,194;1,248;1,29;1,349;1,391;1,467;1,495;1,565;1,622;1,628;1,714;1,752;1,788;1,844;1,882;1,948;1,934;1,982;2,034;2,114;2,102;2,135;2,111;2,18;2,204;2,249;2,273;2,278;2,388;2,362;2,388;2,39;2,352;2,39;2,388;2,405;2,405;2,48;2,395;2,453;2,419;2,41;2,428;2,421;2,428;2,428;2,464;2,435;2,448;2,443;2,483;2,429;2,514;2,456;2,454;2,481;2,459;2,434;2,396;2,421;2,448;2,426;2,425;2,398;2,38;2,36;2,344;2,338;2,352;2,336;2,337;2,33;2,342;2,337;2,368;2,294;2,29;2,261;2,263;2,317;2,207;2,231;2,237;2,211;2,217;2,3;2,208;2,271;2,24;2,198;2,233;2,267;2,157;2,243;2,2;2,177;2,241;2,255;2,209;2,116;2,15;2,153;2,166;2,1;2,176;
E11;Sample X23;0,24;0,24;0,24;0,242;0,242;0,248;0,248;0,256;0,262;0,271;0,274;0,287;0,296;0,305;0,324;0,328;0,347;0,369;0,399;0,421;0,445;0,462;0,503;0,528;0,551;0,597;0,611;0,64;0,69;0,711;0,773;0,819;0,884;0,939;0,966;1,009;1,072;1,123;1,16;1,227;1,281;1,343;1,398;1,419;1,492;1,552;1,619;1,679;1,681;1,763;1,813;1,85;1,917;1,948;2,006;2,002;2,063;2,108;2,204;2,177;2,176;2,191;2,24;2,265;2,305;2,33;2,335;2,446;2,445;2,414;2,444;2,39;2,45;2,448;2,446;2,468;2,551;2,451;2,494;2,485;2,495;2,479;2,474;2,475;2,486;2,517;2,48;2,517;2,498;2,525;2,446;2,521;2,484;2,474;2,518;2,497;2,47;2,436;2,449;2,458;2,449;2,417;2,415;2,408;2,397;2,392;2,401;2,398;2,368;2,356;2,369;2,358;2,396;2,382;2,333;2,314;2,301;2,304;2,37;2,255;2,257;2,257;2,233;2,244;2,334;2,221;2,297;2,279;2,238;2,267;2,31;2,189;2,313;2,248;2,228;2,285;2,336;2,263;2,154;2,191;2,193;2,207;2,125;2,231;
E12;Sample X24;1,541;1,504;1,487;1,472;1,458;1,456;1,459;1,448;1,459;1,478;1,463;1,474;1,488;1,485;1,49;1,484;1,493;1,509;1,521;1,524;1,514;1,526;1,54;1,549;1,552;1,58;1,595;1,584;1,611;1,608;1,637;1,656;1,699;1,745;1,759;1,809;1,891;1,934;1,93;2,113;2,217;2,254;2,159;2,234;2,224;2,332;2,374;2,429;2,52;2,511;2,533;2,668;2,631;2,654;2,74;2,669;2,793;2,687;2,741;2,754;2,769;2,788;2,882;2,821;2,859;2,896;2,928;2,99;2,962;3,001;2,985;2,997;3,026;3,019;3,026;3,055;3,073;3,061;3,093;3,091;3,098;3,098;3,103;3,115;3,137;3,167;3,145;3,155;3,178;3,175;3,166;3,2;3,195;3,187;3,224;3,23;3,238;3,232;3,238;3,255;3,275;3,272;3,279;3,293;3,282;3,294;3,305;3,317;3,313;3,319;3,338;3,339;3,353;3,363;3,349;3,352;3,36;3,365;3,404;3,358;3,365;3,371;3,372;3,381;3,411;3,378;3,408;3,436;3,414;3,44;3,459;3,421;3,462;3,444;3,46;3,499;3,519;3,477;3,445;3,464;3,48;3,487;3,457;3,515;
F01;Sample X13;0,252;0,256;0,264;0,266;0,264;0,265;0,273;0,282;0,289;0,305;0,307;0,328;0,337;0,347;0,366;0,384;0,41;0,436;0,472;0,51;0,544;0,583;0,633;0,675;0,723;0,767;0,806;0,891;0,955;1,029;1,107;1,202;1,213;1,356;1,465;1,547;1,609;1,72;1,804;1,897;2,002;2,068;1,992;2,089;2,204;2,281;2,282;2,311;2,367;2,407;2,487;2,527;2,584;2,596;2,651;2,679;2,729;2,781;2,819;2,833;2,853;2,877;2,854;2,927;2,929;2,954;2,979;3,017;3,012;3,057;3,069;3,093;3,149;3,151;3,143;3,175;3,18;3,173;3,198;3,228;3,245;3,232;3,231;3,25;3,25;3,263;3,272;3,276;3,276;3,293;3,302;3,303;3,297;3,295;3,309;3,308;3,311;3,312;3,294;3,295;3,306;3,302;3,299;3,298;3,284;3,291;3,289;3,261;3,269;3,261;3,26;3,256;3,248;3,259;3,251;3,241;3,228;3,236;3,231;3,23;3,23;3,214;3,221;3,214;3,214;3,205;3,208;3,213;3,206;3,223;3,206;3,19;3,177;3,189;3,175;3,185;3,173;3,179;3,16;3,158;3,158;3,152;3,151;3,139;
F02;Sample X14;0,256;0,256;0,256;0,258;0,257;0,261;0,265;0,274;0,281;0,292;0,299;0,316;0,321;0,332;0,351;0,362;0,386;0,41;0,446;0,477;0,507;0,541;0,59;0,632;0,682;0,723;0,762;0,796;0,879;0,94;1,016;1,084;1,123;1,198;1,328;1,41;1,473;1,609;1,667;1,764;1,874;1,999;1,983;2,097;2,131;2,152;2,237;2,284;2,294;2,296;2,35;2,404;2,485;2,517;2,542;2,579;2,652;2,681;2,732;2,765;2,783;2,813;2,805;2,866;2,869;2,904;2,921;2,941;2,951;2,993;3,014;3,039;3,101;3,105;3,09;3,114;3,129;3,139;3,147;3,175;3,215;3,212;3,206;3,239;3,23;3,247;3,251;3,257;3,258;3,274;3,286;3,296;3,282;3,292;3,297;3,304;3,302;3,302;3,307;3,303;3,314;3,304;3,307;3,292;3,293;3,282;3,298;3,277;3,277;3,261;3,276;3,259;3,254;3,264;3,264;3,255;3,241;3,252;3,235;3,221;3,245;3,217;3,23;3,232;3,227;3,217;3,219;3,22;3,214;3,213;3,211;3,199;3,191;3,201;3,184;3,189;3,177;3,181;3,168;3,172;3,151;3,156;3,143;3,149;
F03;Sample X15;0,255;0,253;0,252;0,254;0,254;0,259;0,262;0,269;0,274;0,286;0,294;0,307;0,317;0,329;0,345;0,357;0,38;0,402;0,436;0,465;0,496;0,527;0,581;0,62;0,66;0,704;0,748;0,795;0,838;0,91;0,979;1,053;1,104;1,21;1,266;1,342;1,404;1,565;1,595;1,699;1,794;1,897;1,931;2,076;2,122;2,15;2,18;2,253;2,317;2,325;2,313;2,351;2,412;2,465;2,503;2,532;2,557;2,604;2,667;2,683;2,711;2,755;2,748;2,788;2,814;2,849;2,86;2,884;2,903;2,941;2,949;2,988;3,037;3,044;3,028;3,06;3,081;3,084;3,106;3,121;3,167;3,157;3,168;3,195;3,196;3,215;3,202;3,223;3,216;3,238;3,24;3,26;3,228;3,244;3,259;3,261;3,263;3,257;3,268;3,272;3,27;3,269;3,263;3,268;3,262;3,256;3,26;3,252;3,245;3,25;3,248;3,231;3,231;3,242;3,234;3,238;3,221;3,223;3,211;3,199;3,217;3,19;3,209;3,218;3,215;3,199;3,207;3,217;3,186;3,21;3,208;3,187;3,191;3,199;3,178;3,189;3,182;3,179;3,157;3,171;3,152;3,153;3,139;3,144;
F04;Sample X16;0,247;0,247;0,253;0,247;0,246;0,251;0,255;0,26;0,268;0,28;0,284;0,298;0,308;0,318;0,333;0,345;0,367;0,389;0,419;0,45;0,477;0,503;0,55;0,594;0,633;0,677;0,712;0,739;0,815;0,871;0,933;1,011;1,073;1,149;1,255;1,277;1,357;1,511;1,534;1,643;1,741;1,848;1,853;2,024;2,093;2,139;2,172;2,239;2,25;2,385;2,379;2,358;2,357;2,414;2,467;2,499;2,543;2,591;2,634;2,668;2,702;2,736;2,747;2,788;2,811;2,846;2,877;2,906;2,9;2,958;2,963;2,986;3,034;3,033;3,041;3,069;3,087;3,101;3,125;3,147;3,17;3,182;3,177;3,211;3,236;3,273;3,258;3,266;3,267;3,266;3,266;3,273;3,256;3,259;3,271;3,264;3,264;3,261;3,268;3,267;3,268;3,261;3,25;3,253;3,256;3,245;3,256;3,243;3,237;3,225;3,232;3,224;3,216;3,224;3,223;3,218;3,208;3,223;3,22;3,204;3,207;3,185;3,207;3,212;3,219;3,195;3,225;3,216;3,203;3,223;3,218;3,203;3,224;3,23;3,201;3,217;3,205;3,209;3,184;3,191;3,183;3,19;3,163;3,192;
F05;Sample X17;0,257;0,254;0,254;0,257;0,255;0,259;0,263;0,27;0,279;0,285;0,293;0,306;0,317;0,328;0,344;0,354;0,377;0,399;0,433;0,456;0,484;0,515;0,56;0,595;0,634;0,678;0,707;0,737;0,828;0,874;0,941;1,022;1,116;1,191;1,276;1,332;1,383;1,516;1,534;1,669;1,735;1,863;1,843;1,977;2,064;2,083;2,163;2,254;2,304;2,405;2,43;2,413;2,424;2,428;2,485;2,547;2,599;2,635;2,686;2,705;2,75;2,771;2,805;2,824;2,846;2,878;2,912;2,946;2,954;3,003;3,013;3,024;3,071;3,065;3,071;3,112;3,143;3,142;3,179;3,195;3,213;3,227;3,235;3,255;3,298;3,32;3,327;3,343;3,325;3,335;3,319;3,342;3,307;3,303;3,309;3,305;3,3;3,292;3,296;3,299;3,287;3,279;3,276;3,264;3,269;3,258;3,275;3,251;3,249;3,249;3,239;3,236;3,233;3,243;3,241;3,226;3,237;3,241;3,241;3,208;3,231;3,204;3,214;3,228;3,235;3,22;3,241;3,248;3,231;3,255;3,244;3,223;3,241;3,245;3,233;3,239;3,236;3,232;3,201;3,219;3,199;3,198;3,179;3,208;
F06;Sample X18;0,255;0,253;0,254;0,256;0,257;0,26;0,265;0,272;0,28;0,292;0,299;0,314;0,33;0,342;0,359;0,375;0,4;0,429;0,461;0,496;0,526;0,567;0,616;0,65;0,683;0,71;0,794;0,863;0,92;0,977;1,069;1,159;1,233;1,335;1,416;1,487;1,581;1,701;1,734;1,857;1,939;2,062;2,003;2,09;2,124;2,22;2,286;2,418;2,482;2,479;2,474;2,528;2,566;2,599;2,634;2,675;2,705;2,756;2,814;2,824;2,857;2,874;2,921;2,965;2,951;2,991;3,008;3,06;3,063;3,091;3,126;3,111;3,167;3,169;3,177;3,202;3,235;3,243;3,277;3,29;3,314;3,314;3,343;3,376;3,412;3,425;3,423;3,49;3,392;3,405;3,393;3,403;3,381;3,375;3,428;3,421;3,378;3,362;3,37;3,366;3,362;3,356;3,344;3,344;3,342;3,333;3,341;3,337;3,321;3,318;3,319;3,31;3,297;3,315;3,316;3,308;3,296;3,306;3,305;3,272;3,302;3,278;3,265;3,299;3,302;3,282;3,311;3,309;3,288;3,318;3,313;3,295;3,311;3,31;3,309;3,314;3,309;3,299;3,267;3,29;3,264;3,272;3,252;3,271;
F07;Sample X19;0,248;0,246;0,255;0,248;0,248;0,25;0,256;0,265;0,269;0,281;0,289;0,303;0,314;0,326;0,342;0,355;0,377;0,399;0,429;0,464;0,488;0,521;0,565;0,597;0,627;0,654;0,711;0,767;0,817;0,876;0,927;1,009;1,086;1,142;1,208;1,298;1,39;1,473;1,472;1,66;1,775;1,855;1,836;1,926;2,01;2,099;2,141;2,197;2,306;2,383;2,462;2,459;2,551;2,551;2,589;2,581;2,612;2,644;2,726;2,744;2,78;2,789;2,823;2,849;2,875;2,898;2,929;2,969;2,979;3,01;3,046;3,03;3,08;3,085;3,103;3,122;3,154;3,168;3,185;3,192;3,229;3,232;3,232;3,249;3,284;3,297;3,33;3,339;3,335;3,383;3,378;3,424;3,378;3,4;3,402;3,382;3,373;3,346;3,367;3,352;3,352;3,324;3,326;3,319;3,309;3,307;3,314;3,313;3,296;3,288;3,296;3,289;3,278;3,29;3,276;3,277;3,262;3,269;3,276;3,256;3,261;3,248;3,24;3,267;3,264;3,242;3,285;3,28;3,254;3,284;3,287;3,245;3,275;3,284;3,263;3,259;3,258;3,24;3,213;3,247;3,208;3,215;3,195;3,23;
F08;Sample X20;0,26;0,26;0,26;0,261;0,261;0,264;0,267;0,276;0,284;0,291;0,297;0,309;0,322;0,327;0,347;0,361;0,375;0,395;0,426;0,451;0,478;0,505;0,544;0,565;0,598;0,633;0,648;0,713;0,752;0,801;0,858;0,919;0,964;1,014;1,055;1,131;1,193;1,266;1,322;1,397;1,486;1,551;1,595;1,681;1,764;1,814;1,902;1,982;2,085;2,119;2,173;2,283;2,345;2,385;2,441;2,452;2,567;2,599;2,63;2,638;2,676;2,684;2,738;2,754;2,815;2,826;2,823;2,897;2,912;2,928;2,967;2,93;2,99;2,968;2,98;2,988;3,033;3,034;3,071;3,068;3,105;3,116;3,093;3,117;3,165;3,171;3,207;3,224;3,217;3,253;3,238;3,283;3,248;3,293;3,322;3,318;3,336;3,303;3,331;3,352;3,359;3,363;3,384;3,401;3,39;3,371;3,367;3,373;3,343;3,341;3,346;3,324;3,317;3,32;3,318;3,304;3,287;3,31;3,32;3,269;3,271;3,272;3,25;3,268;3,303;3,25;3,304;3,301;3,265;3,299;3,295;3,241;3,284;3,304;3,276;3,277;3,269;3,255;3,212;3,231;3,206;3,211;3,18;3,212;
F09;Sample X21;0,251;0,25;0,252;0,252;0,254;0,254;0,257;0,262;0,268;0,28;0,283;0,296;0,306;0,315;0,328;0,334;0,352;0,374;0,395;0,425;0,445;0,464;0,501;0,52;0,552;0,585;0,611;0,619;0,669;0,704;0,762;0,808;0,854;0,896;0,925;0,993;1,036;1,09;1,128;1,198;1,256;1,301;1,35;1,412;1,47;1,512;1,58;1,625;1,689;1,746;1,774;1,847;1,877;1,938;2,014;2,015;2,078;2,097;2,144;2,194;2,254;2,277;2,332;2,357;2,387;2,42;2,428;2,474;2,501;2,528;2,548;2,536;2,608;2,585;2,597;2,62;2,666;2,664;2,679;2,681;2,718;2,702;2,678;2,72;2,747;2,751;2,76;2,795;2,781;2,803;2,744;2,795;2,776;2,785;2,801;2,818;2,809;2,78;2,785;2,801;2,832;2,802;2,802;2,829;2,807;2,847;2,847;2,87;2,873;2,884;2,888;2,876;2,868;2,863;2,87;2,871;2,859;2,885;2,896;2,876;2,865;2,872;2,85;2,935;2,926;2,866;2,944;2,936;2,928;2,946;2,97;2,904;2,945;2,98;2,974;2,96;2,973;2,962;2,933;2,974;2,923;2,95;2,939;2,973;
F10;Sample X22;0,239;0,24;0,242;0,242;0,243;0,244;0,249;0,254;0,259;0,27;0,273;0,288;0,295;0,3;0,314;0,325;0,341;0,356;0,433;0,41;0,428;0,453;0,48;0,502;0,537;0,567;0,59;0,603;0,646;0,689;0,729;0,78;0,826;0,853;0,882;0,956;0,994;1,059;1,07;1,155;1,204;1,238;1,296;1,344;1,409;1,435;1,507;1,53;1,569;1,628;1,675;1,726;1,746;1,797;1,856;1,869;1,94;1,905;1,964;2,012;2,049;2,087;2,132;2,148;2,188;2,207;2,228;2,279;2,288;2,308;2,314;2,279;2,347;2,322;2,302;2,314;2,364;2,325;2,362;2,354;2,398;2,364;2,36;2,381;2,409;2,378;2,392;2,443;2,394;2,407;2,36;2,4;2,393;2,404;2,404;2,4;2,388;2,336;2,365;2,348;2,36;2,324;2,317;2,314;2,296;2,321;2,324;2,319;2,299;2,328;2,337;2,273;2,261;2,242;2,274;2,242;2,241;2,235;2,234;2,21;2,21;2,225;2,193;2,203;2,22;2,164;2,222;2,196;2,187;2,193;2,194;2,126;2,173;2,2;2,165;2,154;2,137;2,132;2,083;2,143;2,063;2,083;2,047;2,062;
F11;Sample X23;0,237;0,236;0,236;0,238;0,239;0,241;0,245;0,249;0,256;0,267;0,271;0,285;0,295;0,301;0,314;0,324;0,342;0,364;0,386;0,409;0,427;0,455;0,483;0,51;0,547;0,574;0,591;0,63;0,673;0,714;0,757;0,801;0,859;0,893;0,934;0,994;1,046;1,103;1,127;1,202;1,263;1,304;1,365;1,41;1,47;1,509;1,583;1,615;1,655;1,712;1,764;1,839;1,849;1,896;1,942;1,97;2,038;2,03;2,066;2,118;2,153;2,187;2,243;2,269;2,284;2,32;2,323;2,374;2,39;2,391;2,411;2,393;2,465;2,448;2,402;2,433;2,478;2,465;2,48;2,474;2,529;2,487;2,455;2,476;2,498;2,491;2,485;2,539;2,471;2,498;2,439;2,486;2,468;2,486;2,479;2,463;2,472;2,419;2,449;2,431;2,434;2,39;2,408;2,402;2,403;2,4;2,397;2,386;2,375;2,408;2,418;2,349;2,344;2,33;2,386;2,336;2,345;2,316;2,321;2,319;2,289;2,298;2,289;2,272;2,328;2,236;2,293;2,267;2,286;2,271;2,272;2,215;2,279;2,289;2,266;2,261;2,256;2,229;2,196;2,247;2,169;2,206;2,162;2,162;
F12;Sample X24;1,49;1,44;1,439;1,417;1,411;1,413;1,416;1,42;1,417;1,437;1,418;1,436;1,435;1,459;1,446;1,447;1,458;1,47;1,46;1,475;1,476;1,488;1,491;1,502;1,513;1,518;1,552;1,539;1,568;1,578;1,595;1,614;1,645;1,668;1,707;1,769;1,831;1,905;1,972;2,047;2,099;2,14;2,159;2,154;2,184;2,243;2,392;2,336;2,431;2,443;2,511;2,512;2,582;2,559;2,586;2,604;2,682;2,648;2,679;2,697;2,772;2,772;2,878;2,863;2,854;2,876;2,881;2,922;2,935;2,96;2,966;2,97;2,994;2,986;2,991;2,992;3,02;3,02;3,027;3,03;3,052;3,049;3,053;3,064;3,09;3,101;3,093;3,11;3,102;3,127;3,125;3,152;3,142;3,156;3,166;3,173;3,184;3,183;3,198;3,213;3,232;3,221;3,235;3,245;3,244;3,253;3,268;3,26;3,259;3,275;3,288;3,286;3,294;3,296;3,308;3,317;3,316;3,315;3,332;3,335;3,329;3,35;3,345;3,334;3,365;3,345;3,354;3,377;3,374;3,389;3,384;3,359;3,377;3,392;3,39;3,387;3,391;3,384;3,357;3,365;3,329;3,346;3,317;3,325;
G01;Sample X13;0,251;0,251;0,253;0,252;0,256;0,258;0,266;0,274;0,284;0,294;0,305;0,318;0,334;0,344;0,363;0,385;0,408;0,437;0,469;0,508;0,548;0,596;0,639;0,686;0,734;0,779;0,862;0,925;1,009;1,11;1,189;1,266;1,359;1,463;1,558;1,624;1,687;1,805;1,823;1,92;1,944;1,998;2,064;2,263;2,298;2,36;2,414;2,47;2,535;2,556;2,598;2,711;2,753;2,768;2,789;2,828;2,847;2,877;2,922;2,917;2,934;2,977;2,989;3,033;3,034;3,044;3,09;3,13;3,119;3,153;3,204;3,192;3,241;3,228;3,272;3,291;3,32;3,287;3,296;3,306;3,308;3,299;3,313;3,329;3,322;3,326;3,33;3,355;3,344;3,365;3,362;3,357;3,346;3,341;3,342;3,337;3,343;3,335;3,315;3,333;3,32;3,318;3,31;3,312;3,299;3,296;3,317;3,292;3,292;3,292;3,288;3,284;3,283;3,293;3,282;3,3;3,282;3,291;3,282;3,287;3,283;3,279;3,281;3,271;3,272;3,27;3,272;3,3;3,271;3,306;3,272;3,258;3,248;3,268;3,257;3,253;3,252;3,255;3,23;3,247;3,23;3,226;3,231;3,219;
G02;Sample X14;0,252;0,249;0,264;0,252;0,252;0,255;0,262;0,266;0,276;0,29;0,295;0,309;0,322;0,333;0,347;0,365;0,388;0,411;0,443;0,475;0,511;0,552;0,595;0,635;0,684;0,729;0,765;0,824;0,902;0,989;1,053;1,114;1,176;1,255;1,401;1,467;1,534;1,665;1,721;1,838;1,896;1,984;1,963;2,054;2,107;2,239;2,293;2,278;2,329;2,416;2,456;2,507;2,542;2,604;2,662;2,696;2,734;2,76;2,778;2,817;2,836;2,864;2,872;2,915;2,926;2,94;2,981;3,021;3,027;3,069;3,088;3,097;3,141;3,135;3,174;3,188;3,191;3,203;3,225;3,26;3,283;3,263;3,253;3,288;3,28;3,304;3,292;3,306;3,318;3,32;3,33;3,345;3,333;3,34;3,332;3,335;3,34;3,332;3,323;3,332;3,318;3,33;3,323;3,311;3,312;3,298;3,313;3,288;3,294;3,285;3,294;3,3;3,285;3,297;3,283;3,28;3,275;3,284;3,272;3,265;3,283;3,259;3,261;3,268;3,258;3,248;3,244;3,259;3,245;3,259;3,236;3,241;3,231;3,233;3,215;3,224;3,218;3,218;3,207;3,208;3,203;3,194;3,184;3,184;
G03;Sample X15;0,258;0,252;0,254;0,255;0,255;0,26;0,265;0,271;0,278;0,288;0,295;0,31;0,321;0,332;0,347;0,364;0,385;0,412;0,44;0,472;0,503;0,544;0,595;0,625;0,672;0,725;0,756;0,792;0,876;0,946;1,007;1,091;1,114;1,193;1,309;1,393;1,463;1,594;1,641;1,743;1,823;1,946;1,942;2,022;2,083;2,118;2,246;2,302;2,298;2,309;2,369;2,428;2,471;2,53;2,569;2,604;2,667;2,691;2,732;2,758;2,778;2,811;2,811;2,859;2,864;2,888;2,925;2,949;2,956;2,997;3,017;3,026;3,079;3,08;3,103;3,125;3,131;3,146;3,167;3,181;3,235;3,222;3,227;3,247;3,236;3,256;3,263;3,271;3,272;3,292;3,284;3,299;3,297;3,289;3,307;3,301;3,318;3,304;3,304;3,312;3,296;3,313;3,3;3,291;3,297;3,29;3,305;3,277;3,282;3,274;3,27;3,275;3,269;3,273;3,257;3,259;3,25;3,252;3,25;3,243;3,251;3,238;3,241;3,238;3,244;3,23;3,222;3,24;3,231;3,233;3,225;3,208;3,214;3,211;3,214;3,203;3,204;3,201;3,185;3,187;3,178;3,178;3,175;3,178;
G04;Sample X16;0,248;0,248;0,248;0,25;0,25;0,252;0,259;0,264;0,272;0,282;0,29;0,304;0,316;0,323;0,341;0,351;0,375;0,396;0,426;0,457;0,486;0,522;0,567;0,605;0,645;0,688;0,724;0,753;0,848;0,898;0,964;1,053;1,1;1,179;1,294;1,34;1,411;1,544;1,576;1,67;1,736;1,828;1,862;1,999;2,05;2,037;2,135;2,276;2,362;2,359;2,358;2,413;2,43;2,478;2,525;2,552;2,591;2,633;2,69;2,703;2,748;2,773;2,797;2,828;2,84;2,864;2,906;2,941;2,939;2,971;2,992;3,012;3,059;3,065;3,075;3,11;3,123;3,131;3,155;3,17;3,223;3,211;3,222;3,268;3,265;3,29;3,284;3,292;3,287;3,284;3,295;3,318;3,304;3,302;3,322;3,315;3,314;3,316;3,322;3,319;3,316;3,316;3,311;3,307;3,323;3,299;3,311;3,306;3,289;3,291;3,293;3,291;3,283;3,298;3,291;3,283;3,281;3,284;3,275;3,259;3,281;3,252;3,263;3,27;3,277;3,261;3,271;3,273;3,259;3,277;3,279;3,264;3,261;3,273;3,252;3,26;3,261;3,257;3,231;3,245;3,224;3,221;3,221;3,231;
G05;Sample X17;0,255;0,253;0,257;0,256;0,256;0,257;0,264;0,27;0,276;0,287;0,293;0,308;0,317;0,33;0,344;0,357;0,379;0,402;0,427;0,459;0,491;0,526;0,564;0,604;0,647;0,689;0,713;0,776;0,844;0,895;0,966;1,063;1,118;1,211;1,304;1,363;1,447;1,522;1,573;1,668;1,738;1,823;1,86;1,964;1,988;2,008;2,133;2,189;2,391;2,412;2,404;2,437;2,44;2,482;2,523;2,577;2,606;2,66;2,695;2,723;2,752;2,785;2,814;2,829;2,854;2,886;2,911;2,951;2,951;2,997;3,016;3,033;3,078;3,075;3,086;3,111;3,143;3,148;3,175;3,196;3,217;3,229;3,25;3,285;3,328;3,324;3,331;3,343;3,326;3,34;3,332;3,344;3,333;3,338;3,338;3,335;3,336;3,321;3,337;3,331;3,326;3,317;3,311;3,307;3,308;3,297;3,311;3,304;3,292;3,289;3,283;3,293;3,279;3,285;3,289;3,282;3,279;3,279;3,273;3,265;3,291;3,251;3,268;3,282;3,275;3,262;3,281;3,291;3,264;3,294;3,277;3,274;3,283;3,285;3,273;3,281;3,276;3,272;3,255;3,266;3,251;3,251;3,245;3,269;
G06;Sample X18;0,251;0,25;0,251;0,253;0,253;0,256;0,262;0,27;0,277;0,291;0,299;0,315;0,329;0,341;0,357;0,377;0,397;0,426;0,452;0,489;0,524;0,564;0,609;0,65;0,683;0,713;0,797;0,865;0,914;0,977;1,066;1,167;1,257;1,35;1,42;1,502;1,558;1,655;1,724;1,798;1,871;1,941;1,971;2,039;2,072;2,091;2,344;2,421;2,464;2,455;2,466;2,499;2,554;2,591;2,652;2,685;2,716;2,767;2,802;2,821;2,854;2,889;2,915;2,929;2,954;2,985;3,012;3,05;3,054;3,082;3,111;3,115;3,172;3,16;3,187;3,204;3,226;3,249;3,264;3,289;3,314;3,324;3,346;3,382;3,396;3,408;3,401;3,406;3,401;3,406;3,405;3,425;3,405;3,391;3,401;3,386;3,39;3,386;3,392;3,389;3,378;3,368;3,362;3,368;3,367;3,349;3,354;3,355;3,347;3,34;3,335;3,336;3,321;3,348;3,35;3,322;3,319;3,326;3,328;3,302;3,326;3,3;3,32;3,32;3,335;3,303;3,325;3,336;3,313;3,318;3,324;3,306;3,319;3,336;3,309;3,329;3,328;3,325;3,306;3,319;3,299;3,297;3,295;3,306;
G07;Sample X19;0,254;0,251;0,251;0,252;0,255;0,257;0,261;0,269;0,278;0,287;0,296;0,31;0,322;0,333;0,35;0,371;0,392;0,409;0,441;0,469;0,5;0,536;0,567;0,613;0,635;0,66;0,73;0,779;0,839;0,888;0,956;1,034;1,092;1,156;1,237;1,338;1,418;1,507;1,554;1,657;1,739;1,814;1,856;1,932;1,998;2,061;2,132;2,15;2,236;2,413;2,468;2,488;2,555;2,575;2,606;2,602;2,636;2,704;2,742;2,76;2,776;2,808;2,846;2,863;2,895;2,926;2,955;2,99;3,002;3,035;3,053;3,064;3,116;3,126;3,129;3,138;3,196;3,173;3,208;3,223;3,229;3,258;3,265;3,292;3,328;3,343;3,339;3,359;3,368;3,414;3,416;3,44;3,409;3,41;3,413;3,39;3,391;3,395;3,402;3,383;3,391;3,375;3,378;3,368;3,358;3,346;3,359;3,34;3,331;3,333;3,333;3,349;3,324;3,333;3,345;3,331;3,308;3,309;3,319;3,305;3,314;3,29;3,296;3,301;3,317;3,29;3,306;3,327;3,303;3,307;3,32;3,297;3,316;3,311;3,296;3,304;3,306;3,307;3,282;3,294;3,278;3,28;3,26;3,281;
G08;Sample X20;0,251;0,252;0,252;0,253;0,253;0,256;0,26;0,266;0,274;0,283;0,295;0,304;0,313;0,323;0,337;0,355;0,373;0,393;0,419;0,441;0,468;0,5;0,534;0,566;0,596;0,627;0,646;0,711;0,746;0,795;0,854;0,917;0,956;1,009;1,053;1,139;1,186;1,263;1,308;1,402;1,472;1,543;1,602;1,694;1,764;1,819;1,909;1,972;2,064;2,091;2,162;2,233;2,308;2,341;2,417;2,421;2,576;2,623;2,639;2,643;2,655;2,688;2,724;2,746;2,798;2,825;2,837;2,876;2,89;2,904;2,925;2,935;2,97;2,962;2,971;2,998;3,018;3,029;3,035;3,056;3,053;3,097;3,105;3,139;3,165;3,18;3,165;3,193;3,197;3,25;3,242;3,284;3,264;3,279;3,3;3,288;3,315;3,319;3,338;3,349;3,369;3,378;3,395;3,388;3,39;3,361;3,348;3,361;3,354;3,341;3,337;3,347;3,325;3,327;3,34;3,327;3,302;3,333;3,332;3,303;3,312;3,29;3,291;3,29;3,319;3,281;3,293;3,3;3,278;3,278;3,301;3,285;3,291;3,292;3,266;3,28;3,284;3,268;3,249;3,255;3,243;3,243;3,218;3,241;
G09;Sample X21;0,248;0,245;0,253;0,251;0,249;0,252;0,258;0,261;0,268;0,278;0,282;0,294;0,302;0,314;0,324;0,334;0,354;0,371;0,391;0,413;0,438;0,461;0,489;0,523;0,548;0,585;0,597;0,618;0,67;0,711;0,761;0,799;0,842;0,889;0,92;0,989;1,031;1,078;1,117;1,189;1,237;1,276;1,359;1,411;1,465;1,51;1,568;1,627;1,67;1,736;1,773;1,849;1,881;1,954;1,99;2,028;2,083;2,125;2,169;2,217;2,213;2,28;2,323;2,356;2,386;2,414;2,428;2,473;2,494;2,537;2,538;2,554;2,602;2,6;2,614;2,637;2,671;2,656;2,678;2,687;2,664;2,694;2,717;2,755;2,765;2,779;2,734;2,746;2,766;2,795;2,778;2,812;2,799;2,801;2,793;2,77;2,787;2,798;2,815;2,824;2,907;2,841;2,839;2,825;2,845;2,825;2,807;2,853;2,852;2,84;2,879;2,869;2,863;2,87;2,901;2,896;2,875;2,903;2,897;2,894;2,893;2,887;2,909;2,899;2,958;2,9;2,924;2,929;2,914;2,918;2,958;2,939;2,967;2,975;2,952;2,971;2,992;2,969;2,965;2,998;2,97;2,995;2,981;2,988;
G10;Sample X22;0,246;0,243;0,246;0,303;0,244;0,248;0,256;0,26;0,263;0,273;0,278;0,289;0,298;0,309;0,32;0,33;0,348;0,367;0,387;0,411;0,432;0,454;0,484;0,509;0,543;0,577;0,594;0,619;0,665;0,702;0,75;0,775;0,827;0,86;0,916;0,966;1,017;1,054;1,091;1,154;1,211;1,235;1,324;1,38;1,438;1,452;1,522;1,568;1,591;1,662;1,707;1,739;1,79;1,838;1,859;1,914;1,953;1,985;2,034;2,051;2,058;2,115;2,157;2,201;2,235;2,252;2,281;2,309;2,315;2,335;2,344;2,343;2,385;2,389;2,378;2,388;2,417;2,398;2,387;2,418;2,369;2,413;2,434;2,45;2,442;2,462;2,394;2,403;2,415;2,449;2,412;2,45;2,441;2,413;2,424;2,379;2,381;2,402;2,4;2,421;2,393;2,392;2,4;2,35;2,39;2,334;2,304;2,344;2,326;2,325;2,314;2,354;2,334;2,331;2,352;2,309;2,266;2,299;2,292;2,274;2,275;2,258;2,289;2,246;2,284;2,24;2,231;2,224;2,201;2,189;2,241;2,212;2,203;2,212;2,2;2,207;2,196;2,193;2,167;2,142;2,144;2,157;2,139;2,126;
G11;Sample X23;0,244;0,242;0,244;0,245;0,247;0,248;0,253;0,257;0,263;0,271;0,279;0,289;0,301;0,309;0,323;0,376;0,353;0,369;0,394;0,42;0,447;0,488;0,49;0,523;0,555;0,585;0,605;0,654;0,737;0,734;0,765;0,815;0,875;0,913;0,974;1,029;1,075;1,126;1,174;1,282;1,282;1,323;1,415;1,462;1,516;1,537;1,622;1,675;1,736;1,776;1,81;1,902;1,957;1,981;1,965;2,097;2,12;2,116;2,195;2,127;2,201;2,236;2,319;2,312;2,364;2,396;2,413;2,395;2,495;2,479;2,558;2,476;2,534;2,443;2,558;2,562;2,587;2,551;2,506;2,567;2,51;2,52;2,506;2,591;2,594;2,582;2,508;2,494;2,564;2,546;2,554;2,598;2,411;2,567;2,534;2,513;2,498;2,526;2,513;2,561;2,545;2,515;2,518;2,488;2,549;2,426;2,41;2,422;2,468;2,393;2,474;2,498;2,437;2,487;2,447;2,462;2,31;2,419;2,445;2,426;2,406;2,399;2,448;2,425;2,388;2,396;2,356;2,373;2,371;2,353;2,384;2,33;2,401;2,28;2,383;2,4;2,394;2,384;2,322;2,331;2,356;2,39;2,3;2,347;
G12;Sample X24;1,476;1,429;1,428;1,399;1,387;1,397;1,388;1,404;1,395;1,409;1,39;1,417;1,405;1,42;1,422;1,432;1,437;1,448;1,447;1,458;1,463;1,475;1,484;1,486;1,49;1,526;1,519;1,535;1,538;1,546;1,572;1,598;1,623;1,659;1,707;1,765;1,823;1,877;1,951;2,064;2,033;2,056;2,148;2,122;2,189;2,241;2,289;2,304;2,359;2,404;2,439;2,491;2,521;2,541;2,583;2,602;2,637;2,652;2,66;2,674;2,732;2,828;2,823;2,873;2,86;2,865;2,9;2,928;2,929;2,964;2,965;2,969;2,971;2,966;2,981;2,993;3,013;3,011;3,019;3,02;3,033;3,028;3,056;3,058;3,068;3,097;3,083;3,105;3,11;3,121;3,135;3,147;3,143;3,158;3,174;3,169;3,191;3,206;3,214;3,23;3,234;3,238;3,255;3,248;3,265;3,254;3,264;3,281;3,282;3,28;3,293;3,306;3,308;3,307;3,313;3,318;3,309;3,308;3,314;3,318;3,311;3,306;3,321;3,3;3,308;3,285;3,258;3,285;3,244;3,241;3,25;3,258;3,233;3,243;3,22;3,197;3,19;3,179;3,18;3,134;3,147;3,128;3,128;3,112;
H01;Blank B;0,22;0,216;0,217;0,217;0,214;0,214;0,358;0,214;0,218;0,219;0,576;0,245;0,22;0,495;0,22;0,224;0,278;0,22;0,312;0,228;0,342;0,265;0,223;0,223;0,239;0,234;0,223;0,318;0,251;0,369;0,219;0,243;0,223;0,234;0,24;0,232;0,242;0,235;0,238;0,244;0,223;0,234;0,221;0,228;0,219;0,258;0,223;0,353;0,232;0,234;0,228;0,342;0,231;0,224;0,268;0,227;0,291;0,216;0,227;0,222;0,224;0,219;0,22;0,234;0,225;0,223;0,231;0,219;0,229;0,229;0,218;0,24;0,225;0,222;0,22;0,256;0,224;0,227;0,217;0,217;0,222;0,22;0,218;0,237;0,22;0,927;0,222;0,217;0,221;0,232;0,221;0,315;0,223;1,409;0,228;0,219;0,227;0,232;0,246;0,225;0,218;0,234;0,218;0,222;0,219;0,218;0,22;0,219;0,219;0,231;0,221;0,229;0,219;0,221;0,217;0,22;0,219;0,22;0,217;0,222;0,22;0,218;0,227;0,219;0,265;0,222;0,326;0,233;0,272;0,235;0,636;0,242;0,227;0,225;0,22;0,219;0,221;0,223;0,224;0,221;0,223;0,227;0,226;0,224;
H02;Blank B;0,224;0,22;0,224;0,224;0,22;0,22;0,219;0,22;0,22;0,223;0,22;0,223;0,223;0,22;0,219;0,224;0,219;0,223;0,219;0,223;0,22;0,222;0,219;0,22;0,22;0,221;0,22;0,22;0,221;0,22;0,22;0,222;0,221;0,219;0,218;0,219;0,219;0,22;0,219;0,22;0,22;0,22;0,219;0,22;0,22;0,219;0,22;0,219;0,22;0,219;0,219;0,22;0,22;0,22;0,22;0,219;0,22;0,219;0,219;0,22;0,22;0,221;0,22;0,219;0,22;0,219;0,219;0,22;0,222;0,221;0,22;0,22;0,221;0,221;0,22;0,221;0,221;0,22;0,221;0,222;0,221;0,222;0,22;0,222;0,221;0,223;0,221;0,221;0,221;0,222;0,222;0,223;0,222;0,225;0,224;0,224;0,224;0,224;0,225;0,223;0,225;0,224;0,224;0,225;0,226;0,225;0,226;0,226;0,228;0,23;0,23;0,229;0,23;0,232;0,231;0,234;0,234;0,236;0,235;0,236;0,238;0,236;0,237;0,236;0,235;0,236;0,237;0,239;0,238;0,237;0,24;0,24;0,238;0,241;0,241;0,242;0,24;0,242;0,241;0,242;0,241;0,24;0,24;0,24;
H03;Blank B;0,224;0,222;0,222;0,222;0,221;0,219;0,22;0,22;0,22;0,221;0,22;0,221;0,22;0,22;0,219;0,219;0,219;0,219;0,219;0,22;0,22;0,221;0,218;0,219;0,218;0,22;0,219;0,219;0,219;0,22;0,219;0,22;0,219;0,219;0,218;0,217;0,218;0,218;0,218;0,219;0,218;0,219;0,218;0,219;0,219;0,219;0,219;0,217;0,218;0,219;0,218;0,217;0,218;0,218;0,218;0,218;0,218;0,218;0,218;0,217;0,218;0,22;0,218;0,218;0,218;0,217;0,217;0,219;0,218;0,217;0,218;0,223;0,217;0,217;0,217;0,218;0,219;0,217;0,217;0,217;0,218;0,219;0,217;0,218;0,217;0,219;0,218;0,218;0,22;0,217;0,218;0,219;0,22;0,219;0,217;0,218;0,218;0,217;0,218;0,217;0,216;0,217;0,217;0,218;0,217;0,217;0,218;0,217;0,218;0,216;0,218;0,218;0,217;0,217;0,218;0,216;0,217;0,216;0,216;0,216;0,217;0,216;0,217;0,219;0,216;0,216;0,217;0,219;0,218;0,219;0,216;0,217;0,217;0,216;0,217;0,216;0,217;0,217;0,217;0,215;0,216;0,216;0,217;0,216;
H04;Blank B;0,221;0,219;0,22;0,22;0,219;0,216;0,218;0,217;0,217;0,22;0,218;0,219;0,22;0,217;0,218;0,216;0,216;0,216;0,216;0,219;0,217;0,219;0,217;0,217;0,215;0,218;0,216;0,216;0,217;0,217;0,216;0,217;0,217;0,215;0,216;0,216;0,215;0,216;0,215;0,216;0,216;0,216;0,216;0,217;0,216;0,216;0,215;0,214;0,215;0,216;0,216;0,215;0,216;0,216;0,215;0,215;0,216;0,215;0,216;0,215;0,215;0,217;0,216;0,215;0,215;0,215;0,215;0,215;0,216;0,215;0,215;0,217;0,215;0,216;0,216;0,216;0,216;0,215;0,216;0,215;0,216;0,216;0,216;0,215;0,215;0,216;0,216;0,216;0,217;0,216;0,217;0,217;0,217;0,217;0,217;0,215;0,216;0,215;0,215;0,216;0,214;0,216;0,215;0,216;0,216;0,217;0,217;0,215;0,216;0,215;0,217;0,216;0,216;0,216;0,215;0,216;0,216;0,215;0,215;0,215;0,215;0,215;0,215;0,216;0,214;0,213;0,215;0,216;0,214;0,217;0,215;0,215;0,215;0,215;0,215;0,214;0,215;0,215;0,215;0,214;0,214;0,214;0,212;0,215;
H05;Blank B;0,228;0,226;0,226;0,244;0,225;0,224;0,224;0,223;0,224;0,224;0,223;0,225;0,224;0,223;0,223;0,222;0,222;0,223;0,222;0,225;0,222;0,225;0,223;0,221;0,222;0,224;0,223;0,222;0,224;0,222;0,223;0,224;0,222;0,223;0,222;0,222;0,222;0,224;0,223;0,222;0,222;0,223;0,223;0,224;0,222;0,227;0,233;0,223;0,222;0,223;0,223;0,223;0,223;0,224;0,223;0,223;0,223;0,222;0,222;0,222;0,224;0,223;0,223;0,223;0,224;0,222;0,221;0,223;0,223;0,224;0,222;0,223;0,223;0,221;0,222;0,223;0,225;0,223;0,225;0,224;0,222;0,227;0,223;0,223;0,224;0,224;0,224;0,224;0,224;0,225;0,225;0,226;0,225;0,225;0,225;0,224;0,225;0,224;0,225;0,225;0,225;0,225;0,224;0,225;0,225;0,225;0,226;0,225;0,225;0,224;0,226;0,225;0,225;0,225;0,224;0,224;0,225;0,224;0,223;0,223;0,225;0,223;0,224;0,225;0,224;0,224;0,223;0,224;0,223;0,224;0,224;0,224;0,223;0,224;0,223;0,223;0,223;0,225;0,224;0,225;0,223;0,223;0,222;0,223;
H06;Blank B;0,211;0,209;0,209;0,21;0,209;0,207;0,207;0,208;0,208;0,209;0,207;0,209;0,208;0,208;0,207;0,207;0,206;0,206;0,206;0,209;0,207;0,206;0,206;0,205;0,206;0,208;0,206;0,207;0,207;0,206;0,206;0,207;0,208;0,207;0,206;0,205;0,206;0,206;0,206;0,206;0,206;0,207;0,206;0,207;0,206;0,205;0,207;0,206;0,205;0,207;0,206;0,206;0,207;0,206;0,206;0,204;0,206;0,206;0,206;0,206;0,205;0,208;0,207;0,205;0,206;0,205;0,205;0,206;0,206;0,205;0,206;0,207;0,205;0,204;0,206;0,206;0,206;0,206;0,206;0,206;0,206;0,206;0,206;0,206;0,205;0,206;0,207;0,206;0,207;0,206;0,208;0,207;0,208;0,207;0,206;0,205;0,206;0,206;0,206;0,207;0,205;0,206;0,206;0,206;0,206;0,207;0,207;0,207;0,206;0,205;0,207;0,207;0,206;0,206;0,206;0,206;0,206;0,205;0,206;0,205;0,206;0,206;0,207;0,205;0,205;0,205;0,205;0,207;0,205;0,206;0,206;0,205;0,205;0,205;0,205;0,205;0,205;0,206;0,205;0,204;0,204;0,205;0,204;0,204;
H07;Blank B;0,226;0,25;0,222;0,221;0,22;0,219;0,22;0,221;0,223;0,22;0,222;0,221;0,22;0,221;0,217;0,22;0,219;0,219;0,218;0,22;0,22;0,224;0,22;0,22;0,224;0,222;0,223;0,221;0,225;0,221;0,224;0,225;0,22;0,224;0,228;0,224;0,226;0,229;0,225;0,23;0,231;0,226;0,221;0,222;0,226;0,223;0,227;0,227;0,225;0,219;0,225;0,229;0,229;0,235;0,243;0,231;0,242;0,232;0,234;0,235;0,229;0,221;0,236;0,233;0,239;0,237;0,232;0,231;0,236;0,239;0,229;0,239;0,24;0,237;0,226;0,233;0,231;0,226;0,227;0,226;0,228;0,233;0,217;0,228;0,226;0,227;0,236;0,237;0,219;0,223;0,229;0,228;0,22;0,244;0,238;0,245;0,239;0,232;0,25;0,233;0,227;0,226;0,255;0,243;0,217;0,225;0,247;0,236;0,248;0,246;0,244;0,246;0,253;0,217;0,262;0,219;0,229;0,223;0,219;0,248;0,224;0,229;0,223;0,242;0,229;0,23;0,229;0,229;0,251;0,229;0,241;0,242;0,242;0,231;0,229;0,233;0,223;0,223;0,225;0,222;0,224;0,226;0,228;0,216;
H08;Blank B;0,222;0,22;0,222;0,222;0,221;0,219;0,219;0,219;0,219;0,222;0,219;0,221;0,221;0,22;0,219;0,218;0,217;0,218;0,217;0,22;0,217;0,22;0,217;0,217;0,217;0,218;0,217;0,217;0,219;0,217;0,218;0,219;0,221;0,217;0,217;0,216;0,217;0,218;0,219;0,218;0,218;0,218;0,217;0,218;0,217;0,217;0,217;0,216;0,216;0,216;0,217;0,216;0,217;0,218;0,217;0,216;0,217;0,216;0,217;0,216;0,215;0,219;0,217;0,217;0,217;0,216;0,216;0,218;0,218;0,217;0,216;0,216;0,216;0,216;0,219;0,217;0,217;0,216;0,215;0,216;0,216;0,217;0,215;0,215;0,215;0,215;0,216;0,216;0,219;0,215;0,216;0,216;0,218;0,218;0,216;0,217;0,217;0,216;0,218;0,215;0,216;0,215;0,216;0,216;0,216;0,215;0,217;0,215;0,217;0,215;0,217;0,218;0,218;0,216;0,216;0,216;0,215;0,214;0,215;0,215;0,214;0,214;0,216;0,216;0,214;0,215;0,214;0,218;0,216;0,218;0,215;0,216;0,215;0,215;0,214;0,214;0,214;0,214;0,214;0,213;0,213;0,214;0,212;0,211;
H09;Blank B;0,216;0,216;0,219;0,218;0,217;0,215;0,215;0,215;0,216;0,216;0,214;0,217;0,217;0,214;0,215;0,214;0,213;0,214;0,214;0,218;0,213;0,215;0,214;0,214;0,213;0,215;0,214;0,214;0,219;0,214;0,214;0,215;0,217;0,214;0,214;0,213;0,214;0,214;0,214;0,213;0,214;0,214;0,213;0,214;0,213;0,215;0,214;0,213;0,213;0,213;0,213;0,213;0,213;0,213;0,213;0,213;0,213;0,213;0,213;0,212;0,213;0,215;0,213;0,213;0,213;0,212;0,212;0,214;0,213;0,213;0,213;0,213;0,212;0,212;0,212;0,214;0,214;0,213;0,212;0,212;0,213;0,215;0,213;0,213;0,212;0,213;0,213;0,213;0,215;0,212;0,214;0,213;0,214;0,213;0,213;0,212;0,213;0,212;0,213;0,213;0,212;0,213;0,212;0,213;0,215;0,214;0,214;0,213;0,213;0,212;0,214;0,213;0,214;0,215;0,212;0,213;0,213;0,213;0,213;0,213;0,214;0,212;0,215;0,212;0,212;0,213;0,212;0,216;0,212;0,215;0,212;0,212;0,212;0,213;0,212;0,213;0,213;0,213;0,213;0,213;0,212;0,213;0,212;0,212;
H10;Blank B;0,215;0,214;0,216;0,215;0,216;0,213;0,214;0,214;0,214;0,216;0,214;0,216;0,215;0,214;0,213;0,213;0,213;0,213;0,213;0,216;0,213;0,213;0,215;0,214;0,214;0,214;0,213;0,214;0,214;0,214;0,213;0,214;0,215;0,214;0,214;0,214;0,213;0,214;0,214;0,213;0,213;0,214;0,214;0,214;0,214;0,213;0,214;0,213;0,214;0,213;0,213;0,214;0,214;0,214;0,214;0,218;0,214;0,213;0,214;0,212;0,212;0,241;0,214;0,212;0,213;0,212;0,213;0,214;0,215;0,213;0,213;0,214;0,213;0,213;0,212;0,214;0,214;0,212;0,213;0,213;0,212;0,212;0,213;0,213;0,212;0,213;0,213;0,213;0,214;0,213;0,214;0,213;0,214;0,215;0,213;0,213;0,213;0,213;0,213;0,214;0,212;0,212;0,212;0,214;0,215;0,213;0,214;0,212;0,215;0,213;0,213;0,214;0,215;0,214;0,216;0,213;0,214;0,213;0,213;0,213;0,214;0,213;0,213;0,244;0,213;0,213;0,213;0,215;0,213;0,215;0,213;0,213;0,213;0,213;0,212;0,212;0,213;0,213;0,213;0,213;0,212;0,213;0,212;0,213;
H11;Blank B;0,215;0,214;0,213;0,215;0,213;0,212;0,213;0,214;0,213;0,213;0,213;0,213;0,213;0,213;0,213;0,212;0,212;0,212;0,212;0,213;0,213;0,214;0,212;0,213;0,213;0,214;0,212;0,213;0,213;0,212;0,212;0,213;0,214;0,212;0,213;0,212;0,213;0,213;0,213;0,213;0,214;0,214;0,213;0,214;0,214;0,212;0,212;0,212;0,213;0,213;0,213;0,213;0,214;0,214;0,213;0,212;0,214;0,215;0,212;0,212;0,214;0,213;0,214;0,213;0,214;0,212;0,212;0,214;0,213;0,212;0,213;0,214;0,213;0,212;0,213;0,228;0,214;0,213;0,213;0,214;0,213;0,212;0,213;0,213;0,213;0,212;0,213;0,212;0,212;0,213;0,214;0,214;0,212;0,215;0,214;0,244;0,212;0,212;0,213;0,212;0,212;0,213;0,213;0,216;0,213;0,213;0,214;0,212;0,214;0,213;0,213;0,238;0,214;0,213;0,213;0,213;0,214;0,213;0,212;0,213;0,214;0,213;0,216;0,213;0,212;0,213;0,213;0,214;0,213;0,213;0,214;0,212;0,214;0,214;0,213;0,213;0,213;0,214;0,213;0,213;0,212;0,213;0,213;0,212;
