User: USER;Path: C:\Program Files (x86)\BMG\CLARIOstar\User\Data\;Test run no.: 415
Test name: OD600-AGAx;Date: 06.07.2018;Time: 10:07:56
Used kinetic range(s): Range 1;
ID1: 06.07.2018_10:07:56_OD600-AGAx;ID2: Wizard script `ODmVenus 24h`;
Absorbance

Well;Content; Raw Data (497-15 2); Raw Data (497-15 2); Raw Data (497-15 2); Raw Data (497-15 2); Raw Data (497-15 2); Raw Data (497-15 2); Raw Data (497-15 2); Raw Data (497-15 2); Raw Data (497-15 2); Raw Data (497-15 2); Raw Data (497-15 2); Raw Data (497-15 2); Raw Data (497-15 2); Raw Data (497-15 2); Raw Data (497-15 2); Raw Data (497-15 2); Raw Data (497-15 2); Raw Data (497-15 2); Raw Data (497-15 2); Raw Data (497-15 2); Raw Data (497-15 2); Raw Data (497-15 2); Raw Data (497-15 2); Raw Data (497-15 2); Raw Data (497-15 2); Raw Data (497-15 2); Raw Data (497-15 2); Raw Data (497-15 2); Raw Data (497-15 2); Raw Data (497-15 2); Raw Data (497-15 2); Raw Data (497-15 2); Raw Data (497-15 2); Raw Data (497-15 2); Raw Data (497-15 2); Raw Data (497-15 2); Raw Data (497-15 2); Raw Data (497-15 2); Raw Data (497-15 2); Raw Data (497-15 2); Raw Data (497-15 2); Raw Data (497-15 2); Raw Data (497-15 2); Raw Data (497-15 2); Raw Data (497-15 2); Raw Data (497-15 2); Raw Data (497-15 2); Raw Data (497-15 2); Raw Data (497-15 2); Raw Data (497-15 2); Raw Data (497-15 2); Raw Data (497-15 2); Raw Data (497-15 2); Raw Data (497-15 2); Raw Data (497-15 2); Raw Data (497-15 2); Raw Data (497-15 2); Raw Data (497-15 2); Raw Data (497-15 2); Raw Data (497-15 2); Raw Data (497-15 2); Raw Data (497-15 2); Raw Data (497-15 2); Raw Data (497-15 2); Raw Data (497-15 2); Raw Data (497-15 2); Raw Data (497-15 2); Raw Data (497-15 2); Raw Data (497-15 2); Raw Data (497-15 2); Raw Data (497-15 2); Raw Data (497-15 2); Raw Data (497-15 2); Raw Data (497-15 2); Raw Data (497-15 2); Raw Data (497-15 2); Raw Data (497-15 2); Raw Data (497-15 2); Raw Data (497-15 2); Raw Data (497-15 2); Raw Data (497-15 2); Raw Data (497-15 2); Raw Data (497-15 2); Raw Data (497-15 2); Raw Data (497-15 2); Raw Data (497-15 2); Raw Data (497-15 2); Raw Data (497-15 2); Raw Data (497-15 2); Raw Data (497-15 2); Raw Data (497-15 2); Raw Data (497-15 2); Raw Data (497-15 2); Raw Data (497-15 2); Raw Data (497-15 2); Raw Data (497-15 2); Raw Data (497-15 2); Raw Data (497-15 2); Raw Data (497-15 2); Raw Data (497-15 2); Raw Data (497-15 2); Raw Data (497-15 2); Raw Data (497-15 2); Raw Data (497-15 2); Raw Data (497-15 2); Raw Data (497-15 2); Raw Data (497-15 2); Raw Data (497-15 2); Raw Data (497-15 2); Raw Data (497-15 2); Raw Data (497-15 2); Raw Data (497-15 2); Raw Data (497-15 2); Raw Data (497-15 2); Raw Data (497-15 2); Raw Data (497-15 2); Raw Data (497-15 2); Raw Data (497-15 2); Raw Data (497-15 2); Raw Data (497-15 2); Raw Data (497-15 2); Raw Data (497-15 2); Raw Data (497-15 2); Raw Data (497-15 2); Raw Data (497-15 2); Raw Data (497-15 2); Raw Data (497-15 2); Raw Data (497-15 2); Raw Data (497-15 2); Raw Data (497-15 2); Raw Data (497-15 2); Raw Data (497-15 2); Raw Data (497-15 2); Raw Data (497-15 2); Raw Data (497-15 2); Raw Data (497-15 2); Raw Data (497-15 2); Raw Data (497-15 2); Raw Data (497-15 2); Raw Data (497-15 2); Raw Data (497-15 2); Raw Data (497-15 2); Raw Data (497-15 2); Raw Data (497-15 2);
;Time;0 h ;0 h 10 min;0 h 20 min;0 h 30 min;0 h 40 min;0 h 50 min;1 h ;1 h 10 min;1 h 20 min;1 h 30 min;1 h 40 min;1 h 50 min;2 h ;2 h 10 min;2 h 20 min;2 h 30 min;2 h 40 min;2 h 50 min;3 h ;3 h 10 min;3 h 20 min;3 h 30 min;3 h 40 min;3 h 50 min;4 h ;4 h 10 min;4 h 20 min;4 h 30 min;4 h 40 min;4 h 50 min;5 h ;5 h 10 min;5 h 20 min;5 h 30 min;5 h 40 min;5 h 50 min;6 h ;6 h 10 min;6 h 20 min;6 h 30 min;6 h 40 min;6 h 50 min;7 h ;7 h 10 min;7 h 20 min;7 h 30 min;7 h 40 min;7 h 50 min;8 h ;8 h 10 min;8 h 20 min;8 h 30 min;8 h 40 min;8 h 50 min;9 h ;9 h 10 min;9 h 20 min;9 h 30 min;9 h 40 min;9 h 50 min;10 h ;10 h 10 min;10 h 20 min;10 h 30 min;10 h 40 min;10 h 50 min;11 h ;11 h 10 min;11 h 20 min;11 h 30 min;11 h 40 min;11 h 50 min;12 h ;12 h 10 min;12 h 20 min;12 h 30 min;12 h 40 min;12 h 50 min;13 h ;13 h 10 min;13 h 20 min;13 h 30 min;13 h 40 min;13 h 50 min;14 h ;14 h 10 min;14 h 20 min;14 h 30 min;14 h 40 min;14 h 50 min;15 h ;15 h 10 min;15 h 20 min;15 h 30 min;15 h 40 min;15 h 50 min;16 h ;16 h 10 min;16 h 20 min;16 h 30 min;16 h 40 min;16 h 50 min;17 h ;17 h 10 min;17 h 20 min;17 h 30 min;17 h 40 min;17 h 50 min;18 h ;18 h 10 min;18 h 20 min;18 h 30 min;18 h 40 min;18 h 50 min;19 h ;19 h 10 min;19 h 20 min;19 h 30 min;19 h 40 min;19 h 50 min;20 h ;20 h 10 min;20 h 20 min;20 h 30 min;20 h 40 min;20 h 50 min;21 h ;21 h 10 min;21 h 20 min;21 h 30 min;21 h 40 min;21 h 50 min;22 h ;22 h 10 min;22 h 20 min;22 h 30 min;22 h 40 min;22 h 50 min;23 h ;23 h 10 min;23 h 20 min;23 h 30 min;23 h 40 min;23 h 50 min;
A01;Sample X1;7393;7207;7102;6993;6526;6667;5646;5876;6369;6380;5955;6709;6765;6089;7060;7588;6877;7030;7131;9105;8998;9065;9024;8892;8940;8833;8719;8676;8551;8405;8249;8175;8056;7919;7778;7670;7626;7556;7515;7444;7349;7299;7162;7146;7055;7023;6927;6936;6915;6905;6838;6829;6806;6831;6879;6864;6908;6923;6967;7011;7052;7096;7128;7189;7249;7339;7371;7426;7540;7619;7658;7754;7878;7913;8025;8129;8152;8286;8563;8780;9170;9315;9495;9760;9923;10229;10489;10767;11053;11378;11637;11903;12217;12589;12759;12990;13412;13454;13669;13663;13778;13771;13665;13657;13707;13739;13793;13857;13861;13823;13795;13744;13750;13835;13833;13731;13750;13742;13672;13742;13763;13643;13598;13603;13582;13591;13664;13576;13523;13521;13528;13500;13530;13500;13492;13397;13461;13437;13430;13506;13362;13342;13309;13285;
A02;Sample X2;8978;8890;8894;8885;8848;8820;8806;8825;8850;8868;8862;8896;8910;8975;8964;8998;9021;9064;9083;9087;9117;9093;9057;8988;8982;8933;8815;8775;8695;8578;8442;8274;8080;8060;7971;7824;7722;7601;7558;7475;7402;7355;7221;7228;7220;7127;7082;7107;7050;6981;6980;6994;6970;6940;6939;6967;7060;7045;7103;7127;7194;7184;7234;7321;7361;7442;7533;7574;7631;7785;7805;7912;7999;8083;8224;8324;8418;8518;8654;8758;8957;9088;9332;9494;9727;10020;10281;10575;10842;11186;11426;11730;11997;12295;12551;12801;13169;13413;13750;13952;14179;14311;14458;14561;14715;14745;14848;14989;14977;15025;15017;15129;15101;15124;15174;15167;15132;15231;15167;15258;15256;15254;15230;15214;15201;15282;15336;15244;15345;15337;15363;15426;15403;15355;15432;15344;15408;15427;15419;15596;15332;15411;15406;15467;
A03;Sample X3;8887;8851;8811;8783;8802;8723;8764;8759;8789;8793;8816;8820;8873;8876;8912;8937;9002;8981;9042;9056;9058;9034;9003;8950;8890;8798;8791;8715;8590;8512;8397;8258;8058;7951;7868;7708;7587;7454;7370;7238;7159;7112;7006;6983;6924;6891;6857;6858;6819;6800;6793;6822;6749;6752;6762;6741;6832;6803;6884;6949;6933;6990;7035;7109;7160;7234;7304;7375;7420;7542;7578;7663;7787;7887;7940;8043;8157;8316;8381;8537;8640;8782;8896;9049;9296;9527;9724;9958;10255;10596;10901;11179;11455;11742;12036;12345;12579;12843;13065;13243;13508;13739;13956;14108;14341;14475;14623;14789;14822;14911;14970;15053;15050;15152;15195;15193;15286;15353;15292;15351;15430;15395;15417;15433;15432;15547;15524;15521;15658;15649;15689;15660;15677;15725;15774;15757;15770;15775;15784;15906;15783;15809;15912;15860;
A04;Sample X4;9322;9297;9291;9302;9243;9162;9249;9255;9229;9286;9276;9275;9310;9312;9305;9314;9323;9309;9304;9251;9223;9188;9101;9051;8968;8850;8734;8636;8528;8375;8263;8102;7940;7756;7480;7529;7414;7390;7211;7132;7037;6982;6909;6873;6729;6713;6619;6606;6670;6617;6620;6611;6583;6619;6600;6654;6635;6696;6689;6712;6776;6852;6925;6970;7031;7098;7187;7288;7336;7440;7518;7603;7687;7719;7823;7919;8025;8110;8183;8304;8459;8553;8697;8812;8923;9059;9187;9279;9456;9615;9750;9952;10071;10301;10560;10772;11040;11331;11512;11829;12128;12399;12668;12940;13248;13458;13711;13957;14170;14310;14478;14705;14880;14980;15116;15242;15365;15542;15663;15767;15893;15975;16074;16197;16257;16292;16453;16533;16547;16611;16725;16718;16870;16820;16874;16859;16969;17018;17030;17149;17042;17157;17174;17205;
A05;Sample X5;8681;8658;8623;8601;8588;8563;8563;8553;8599;8637;8607;8653;8674;8701;8714;8708;8759;8759;8754;8797;8728;8742;8672;8627;8583;8530;8438;8377;8295;8170;8091;7962;7834;7630;7470;7452;7363;7278;7187;7106;6992;6948;6893;6786;6710;6681;6653;6634;6610;6596;6640;6661;6605;6635;6642;6648;6675;6687;6717;6804;6826;6850;6910;6944;7010;7081;7125;7159;7236;7331;7368;7452;7508;7582;7672;7768;7845;8004;8043;8155;8286;8386;8513;8603;8707;8857;9010;9121;9336;9606;9871;10156;10461;10764;11058;11349;11642;11855;12147;12380;12602;12869;13011;13181;13413;13549;13704;13876;13961;14077;14128;14270;14373;14501;14570;14591;14725;14798;14804;14896;14952;14964;15022;15048;15036;15091;15207;15213;15281;15337;15334;15371;15389;15443;15450;15427;15500;15545;15548;15620;15580;15619;15676;15645;
A06;Sample X6;8685;8672;8631;8617;8612;8571;8555;8582;8648;8641;8587;8674;8656;8717;8708;8701;8726;8727;8757;8709;8723;8622;8612;8506;8453;8417;8286;8197;8125;8027;7931;7797;7685;7481;7322;7234;7164;7138;7007;6890;6862;6768;6735;6642;6575;6519;6488;6437;6442;6440;6453;6479;6470;6480;6484;6530;6533;6540;6533;6621;6680;6723;6741;6768;6829;6878;6944;6951;7034;7088;7178;7250;7315;7391;7475;7583;7642;7752;7822;7913;8022;8122;8240;8357;8439;8600;8722;8822;8980;9133;9372;9635;9915;10206;10538;10840;11137;11423;11720;11905;12176;12422;12586;12797;13001;13093;13287;13455;13580;13651;13725;13915;14042;14048;14168;14168;14298;14408;14457;14512;14594;14579;14656;14752;14739;14821;14919;14962;15009;15026;15059;15081;15108;15176;15200;15157;15217;15227;15328;15362;15336;15302;15407;15361;
A07;Sample X7;8663;8658;8642;8602;8613;8641;8599;8642;8645;8630;8663;8680;8694;8718;8724;8693;8693;8694;8667;8621;8555;8511;8471;8425;8330;8271;8211;8117;8027;7928;7852;7743;7665;7499;7373;7168;7040;6995;6986;6928;6799;6742;6697;6660;6556;6537;6415;6368;6404;6349;6329;6379;6346;6388;6402;6438;6486;6475;6457;6516;6578;6604;6636;6670;6728;6794;6797;6806;6911;6967;6993;7068;7158;7201;7287;7366;7418;7538;7577;7705;7764;7861;7920;8019;8120;8187;8389;8456;8561;8706;8838;9018;9084;9330;9579;9773;10122;10498;10822;10999;11335;11613;11859;12122;12410;12571;12780;12989;13171;13299;13366;13565;13627;13753;13842;13920;13977;14093;14117;14247;14367;14384;14407;14466;14511;14615;14667;14752;14837;14848;14859;14936;14939;15109;15109;15017;15099;15151;15221;15260;15219;15245;15351;15285;
A08;Sample X8;8554;8555;8521;8550;8571;8505;8518;8536;8569;8578;8547;8595;8609;8579;8573;8532;8558;8533;8568;8536;8467;8434;8445;8414;8373;8348;8320;8242;8207;8158;8131;8095;8026;7964;7904;7883;7815;7775;7727;7649;7607;7534;7512;7476;7387;7302;7214;7251;7197;7096;7032;7059;6964;7002;6969;6946;6955;6983;6883;6969;7015;7052;7089;7189;7235;7249;7274;7251;7331;7348;7385;7434;7463;7555;7551;7558;7560;7723;7718;7797;7852;7925;7931;7972;8028;8048;8224;8287;8265;8362;8457;8532;8548;8709;8776;8744;8848;9026;9116;9119;9230;9374;9514;9707;9846;9957;10124;10273;10449;10567;10798;11119;11305;11551;11804;12086;12298;12471;12633;12896;13052;13155;13218;13378;13345;13480;13583;13678;13833;13829;13754;13849;13872;14051;14071;13984;14060;14107;14301;14224;14227;14255;14339;14263;
A09;Sample X9;8885;8867;8830;8848;8853;8783;8777;8807;8812;8806;8824;8798;8800;8795;8797;8772;8713;8784;8752;8729;8702;8673;8651;8594;8631;8624;8614;8591;8579;8580;8538;8511;8489;8496;8456;8417;8414;8383;8407;8364;8346;8319;8313;8291;8273;8255;8214;8211;8197;8191;8176;8182;8175;8180;8151;8148;8117;8158;8062;8093;8101;8134;8145;8168;8177;8206;8157;8088;8160;8091;8119;8155;8119;8154;8181;8211;8155;8253;8274;8281;8307;8376;8300;8306;8278;8299;8388;8350;8324;8322;8376;8351;8339;8430;8334;8382;8412;8434;8420;8388;8409;8392;8450;8496;8502;8528;8526;8551;8607;8559;8559;8611;8670;8674;8618;8629;8664;8658;8755;8797;8798;8881;8857;8929;8807;8866;8849;8949;8998;8992;8958;8962;8986;8976;9023;9090;9108;9079;9170;9097;9196;9233;9248;9277;
A10;Sample X10;9526;9547;9577;9578;9592;9555;9543;9575;9604;9561;9547;9523;9520;9455;9408;9306;9237;9246;9250;9084;9010;8924;8907;8877;8752;8796;8698;8653;8617;8525;8545;8441;8404;8414;8307;8262;8195;8202;8154;8195;8141;8065;8082;8001;7982;7948;7996;7982;7955;7996;7916;7848;7907;7950;7899;7924;7897;7850;7867;7876;7851;7791;7860;7857;7876;7886;7856;7879;7904;7938;7892;7966;7892;7962;8074;8035;8097;8000;8050;8044;8073;8092;8187;8184;8163;8249;8252;8248;8290;8338;8284;8294;8355;8417;8394;8560;8571;8525;8503;8683;8690;8770;8763;8717;8730;8760;8807;8827;8867;8865;9007;8966;9060;9141;9006;9109;9184;9127;9339;9247;9294;9374;9395;9433;9427;9456;9481;9609;9647;9653;9681;9747;9765;9713;9804;9950;10064;10066;10065;10021;10330;10372;10290;10380;
A11;Sample X11;9209;9132;9131;9128;9113;9060;9056;9076;9064;9035;9060;8993;9037;9012;8969;8966;8985;8953;8961;8925;8922;8910;8939;8889;8891;8894;8916;8910;8882;8892;8896;8857;8904;8823;8856;8902;8857;8874;8872;8871;8862;8855;8867;8878;8872;8847;8817;8773;8820;8784;8835;8812;8762;8812;8760;8825;8804;8815;8784;8754;8804;8814;8765;8865;8837;8866;8839;8784;8800;8745;8759;8831;8803;8865;8853;8870;8843;8984;8937;8984;8944;9010;8994;8973;8961;9005;9104;9063;9031;9026;9128;9105;9092;9187;9216;9146;9133;9202;9220;9220;9250;9208;9272;9368;9324;9365;9428;9399;9457;9434;9402;9482;9529;9502;9556;9532;9555;9595;9633;9744;9733;9735;9734;9818;9799;9810;9804;9894;9975;9885;9986;9986;10089;10124;10111;10190;10147;10243;10318;10341;10315;10351;10397;10405;
A12;Sample X12;6018;6164;6285;6358;6455;6533;6616;6676;6741;6778;6805;6823;6846;6854;6860;6859;6896;6903;6910;6906;6952;6960;6993;6994;7040;7047;7089;7126;7156;7206;7293;7340;7379;7415;7521;7590;7697;7775;7862;7940;8011;8089;8165;8204;8355;8380;8374;8427;8575;8652;8834;8981;9063;9276;9371;9493;9670;9786;9967;10102;10298;10469;10626;10800;10946;11110;11266;11319;11482;11810;12153;12663;13128;13540;13868;14440;14800;15419;15709;16082;16406;16638;16849;16980;17190;17362;17532;17775;17834;18138;18258;18399;18398;18693;18773;18721;18887;19219;19321;19237;19468;19499;19642;19859;20070;20200;20301;20468;20623;20648;20627;20851;20739;20740;21270;21563;21392;21748;21241;21846;21760;21861;21791;21946;21696;22246;22292;22316;22555;22598;22573;22789;22587;23015;23211;22820;22938;23070;23483;23464;23053;23141;23385;23051;
B01;Sample X1;8766;8697;8633;8657;8644;8605;8600;8606;8672;8640;8644;8671;8706;8773;8761;8835;8878;8901;8849;8858;8906;8839;8851;8774;8741;8676;8610;8530;8400;8276;8150;7946;7846;7773;7628;7530;7408;7369;7252;7210;7150;7071;7000;6982;6919;6885;6868;6824;6833;6773;6746;6768;6744;6698;6756;6792;6838;6804;6869;6908;6951;7013;7055;7137;7191;7249;7333;7412;7472;7593;7627;7762;7830;7916;7998;8106;8229;8344;8446;8572;8741;8835;9116;9263;9501;9757;9985;10265;10548;10855;11066;11415;11599;11901;12187;12472;12751;13022;13374;13599;13764;14003;14126;14214;14394;14506;14527;14707;14759;14753;14832;14925;14929;15019;14986;14937;14992;15055;15021;15039;15126;15016;15071;15106;15111;15120;15179;15217;15252;15257;15248;15297;15311;15281;15308;15309;15334;15367;15388;15523;15384;15361;15372;15495;
B02;Sample X2;8687;8622;8553;8561;8529;8500;8519;8546;8518;8548;8554;8613;8624;8638;8697;8697;8752;8772;8794;8796;8815;8774;8792;8719;8704;8641;8547;8466;8422;8323;8220;8070;7868;7795;7633;7513;7416;7341;7252;7130;7046;7027;6933;6877;6851;6803;6789;6771;6737;6737;6688;6705;6695;6679;6672;6676;6702;6721;6732;6794;6826;6886;6912;6976;6998;7072;7128;7191;7257;7369;7419;7489;7564;7641;7749;7849;7954;8025;8128;8258;8412;8517;8672;8826;9032;9230;9472;9699;10019;10329;10593;10868;11115;11424;11691;11911;12227;12484;12680;12954;13225;13485;13651;13829;13974;14069;14279;14356;14421;14480;14497;14593;14666;14697;14735;14748;14777;14855;14836;14914;14919;14902;14965;14931;14980;15047;15063;15100;15134;15138;15136;15175;15220;15216;15241;15248;15320;15326;15351;15362;15397;15399;15379;15353;
B03;Sample X3;8509;8477;8414;8420;8406;8351;8374;8386;8444;8439;8447;8481;8473;8554;8556;8581;8605;8636;8627;8639;8657;8642;8618;8596;8535;8501;8420;8368;8268;8190;8105;7981;7869;7634;7547;7424;7298;7241;7094;7003;6930;6915;6848;6735;6690;6708;6657;6637;6628;6628;6612;6645;6583;6640;6584;6623;6629;6664;6736;6722;6788;6821;6851;6891;6964;6966;7021;7091;7180;7248;7309;7391;7498;7529;7625;7744;7839;7914;8011;8127;8241;8323;8448;8592;8727;8893;9007;9242;9499;9761;10022;10355;10604;10939;11140;11417;11722;12006;12206;12425;12674;12890;12986;13191;13416;13596;13794;13952;14103;14149;14255;14300;14415;14460;14496;14533;14562;14655;14689;14750;14734;14752;14843;14830;14868;14837;14971;14966;15066;15074;15069;15091;15112;15195;15194;15229;15253;15303;15248;15386;15322;15339;15389;15424;
B04;Sample X4;8557;8541;8461;8472;8478;8451;8460;8454;8477;8485;8475;8529;8543;8603;8602;8616;8664;8637;8701;8670;8629;8609;8587;8553;8498;8459;8426;8260;8238;8129;8071;7929;7831;7613;7465;7373;7291;7175;7061;7006;6883;6820;6799;6711;6605;6561;6554;6528;6468;6487;6498;6576;6524;6541;6552;6556;6574;6537;6621;6680;6667;6746;6752;6794;6871;6921;6960;7027;7077;7175;7228;7301;7377;7418;7510;7627;7702;7803;7857;8003;8094;8187;8260;8420;8517;8633;8730;8884;9032;9204;9385;9672;9925;10218;10491;10788;11122;11384;11674;11868;12122;12336;12561;12729;12945;13081;13233;13395;13580;13595;13726;13862;13956;14155;14180;14275;14310;14406;14481;14525;14584;14578;14672;14620;14753;14741;14826;14851;14916;14906;14968;15000;15089;15066;15105;15120;15173;15173;15227;15278;15294;15304;15296;15383;
B05;Sample X5;8558;8542;8478;8469;8484;8425;8463;8485;8473;8510;8496;8536;8546;8584;8631;8612;8609;8624;8635;8624;8614;8588;8573;8524;8443;8389;8330;8228;8168;8061;8008;7854;7778;7621;7430;7366;7232;7159;7033;6956;6882;6774;6714;6655;6576;6502;6467;6471;6465;6396;6412;6442;6478;6478;6480;6511;6531;6534;6583;6620;6648;6693;6744;6789;6840;6892;6935;6978;7013;7120;7178;7248;7314;7367;7465;7519;7601;7734;7789;7872;7954;8046;8163;8293;8355;8522;8576;8706;8847;9006;9176;9373;9582;9867;10174;10516;10813;11134;11404;11623;11853;12150;12319;12504;12719;12909;13006;13211;13334;13400;13473;13661;13786;13831;13887;13965;14061;14137;14204;14235;14303;14292;14414;14434;14476;14569;14618;14630;14709;14762;14836;14829;14917;14896;14947;14970;15048;15055;15132;15106;15113;15173;15207;15267;
B06;Sample X6;8512;8480;8443;8456;8427;8387;8407;8424;8458;8474;8460;8509;8522;8562;8546;8579;8557;8588;8538;8547;8518;8500;8418;8355;8309;8240;8162;8086;7989;7909;7814;7696;7582;7450;7232;7152;7051;6996;6868;6817;6704;6625;6572;6520;6418;6355;6304;6301;6263;6226;6200;6266;6298;6317;6299;6325;6323;6336;6392;6436;6431;6470;6553;6575;6595;6661;6722;6775;6790;6883;6916;6998;7079;7108;7237;7251;7356;7431;7568;7590;7673;7803;7910;7983;8007;8160;8276;8363;8504;8657;8816;8917;9142;9383;9696;10005;10320;10655;10912;11151;11354;11685;11898;12061;12288;12428;12644;12739;12923;12989;13107;13251;13339;13425;13408;13541;13620;13723;13770;13744;13893;13799;13952;13914;14025;14089;14151;14171;14201;14218;14355;14375;14395;14425;14519;14492;14512;14612;14628;14634;14692;14737;14761;14791;
B07;Sample X7;8424;8359;8360;8339;8350;8291;8297;8350;8330;8368;8394;8381;8406;8424;8443;8455;8441;8434;8410;8412;8351;8290;8278;8204;8144;8084;8012;7947;7862;7770;7678;7637;7549;7417;7278;7149;7004;6891;6891;6788;6656;6572;6527;6494;6407;6372;6289;6228;6178;6211;6195;6173;6187;6264;6275;6328;6287;6322;6345;6386;6389;6426;6443;6489;6493;6577;6581;6631;6679;6724;6780;6835;6914;6945;7074;7103;7133;7245;7329;7369;7367;7535;7643;7721;7700;7863;7939;8004;8190;8344;8428;8530;8637;8823;8958;9215;9506;9891;10181;10476;10698;11021;11298;11492;11771;11895;12080;12293;12455;12553;12661;12864;13000;13067;13074;13265;13190;13379;13469;13439;13529;13516;13613;13656;13692;13773;13867;13879;13863;13897;13968;14051;14105;14068;14124;14150;14195;14231;14283;14255;14354;14379;14434;14471;
B08;Sample X8;8398;8386;8340;8319;8345;8304;8302;8301;8338;8310;8336;8365;8350;8334;8307;8320;8288;8287;8299;8245;8261;8258;8202;8163;8148;8142;8106;8059;8035;7987;7997;7977;7937;7863;7830;7789;7750;7799;7700;7693;7673;7629;7617;7570;7555;7484;7463;7439;7393;7392;7370;7356;7358;7313;7323;7239;7200;7207;7224;7193;7157;7155;7151;7087;7088;7144;7095;7149;7131;7116;7140;7156;7159;7128;7189;7226;7261;7322;7369;7398;7388;7465;7486;7543;7486;7571;7578;7525;7658;7710;7700;7766;7760;7755;7775;7902;7888;7955;8001;8017;8016;8151;8130;8162;8281;8235;8269;8401;8491;8460;8519;8669;8798;8872;8848;8999;9028;9213;9312;9249;9477;9452;9642;9712;9776;9937;10036;10257;10354;10460;10719;10907;11010;11059;11259;11347;11477;11544;11667;11678;11869;11863;11972;11990;
B09;Sample X9;8385;8377;8311;8319;8296;8253;8275;8288;8288;8314;8296;8308;8321;8306;8270;8273;8269;8255;8244;8252;8208;8217;8209;8173;8162;8154;8142;8119;8099;8051;8025;8048;8003;7964;7967;7938;7939;7963;7895;7874;7863;7835;7826;7817;7782;7756;7712;7753;7761;7717;7725;7703;7681;7684;7690;7703;7680;7652;7695;7684;7671;7626;7653;7643;7652;7645;7676;7674;7678;7660;7636;7671;7650;7644;7708;7724;7732;7699;7724;7687;7706;7741;7784;7787;7718;7820;7826;7748;7800;7840;7838;7851;7829;7827;7837;7872;7867;7851;7845;7891;7845;7907;7900;7912;7896;7873;7933;7930;8021;7963;7980;8012;8079;8051;8045;8065;8057;8122;8134;8183;8150;8170;8179;8270;8223;8250;8245;8319;8315;8373;8364;8350;8371;8344;8427;8418;8408;8481;8501;8445;8541;8524;8574;8556;
B10;Sample X10;8460;8426;8421;8399;8445;8364;8359;8379;8367;8409;8403;8411;8356;8397;8346;8312;8316;8303;8299;8308;8325;8281;8254;8191;8232;8224;8219;8191;8190;8171;8156;8233;8176;8115;8121;8088;8063;8119;8085;8065;8090;8036;8027;8047;7981;7987;7957;7954;7998;7942;7945;7961;7905;7928;7956;7963;7899;7935;7937;7938;7935;7904;7947;7927;7929;7914;7923;7925;7925;7959;7960;7941;7951;7918;7969;7997;8013;7988;7984;7972;7986;7996;8039;8047;8005;8062;8101;8022;8116;8134;8131;8158;8170;8121;8165;8236;8199;8224;8245;8246;8249;8284;8282;8282;8311;8299;8331;8348;8394;8409;8391;8439;8489;8491;8431;8496;8483;8525;8584;8608;8568;8677;8613;8688;8640;8668;8651;8733;8787;8880;8829;8808;8858;8862;8891;8966;8964;8981;9045;9022;9152;9140;9121;9148;
B11;Sample X11;8486;8478;8417;8423;8418;8320;8350;8370;8371;8385;8339;8324;8365;8293;8313;8310;8277;8266;8242;8286;8286;8271;8261;8196;8232;8215;8273;8250;8224;8218;8251;8268;8291;8231;8251;8199;8256;8252;8251;8251;8238;8236;8253;8212;8221;8197;8192;8202;8225;8217;8199;8235;8225;8244;8258;8225;8181;8216;8251;8233;8235;8160;8249;8207;8213;8194;8253;8229;8278;8228;8234;8232;8256;8282;8256;8292;8318;8328;8348;8286;8241;8363;8392;8383;8296;8433;8429;8334;8428;8521;8525;8472;8486;8491;8562;8544;8559;8585;8547;8578;8565;8689;8669;8631;8679;8676;8643;8728;8747;8717;8762;8838;8879;8920;8881;8911;8893;8976;8966;9012;9072;8995;9098;9097;9107;9174;9247;9248;9272;9286;9391;9361;9491;9478;9508;9560;9589;9625;9661;9690;9764;9817;9837;9828;
B12;Sample X12;5825;5975;6065;6149;6258;6301;6399;6464;6524;6518;6578;6623;6600;6624;6658;6624;6652;6659;6666;6670;6704;6714;6742;6726;6769;6799;6853;6853;6850;6913;6955;7016;7070;7097;7179;7239;7331;7387;7471;7582;7655;7765;7865;7935;8024;8093;8145;8206;8263;8451;8560;8714;8878;8995;9186;9301;9397;9583;9753;9894;9984;10150;10347;10493;10630;10816;10945;11122;11248;11401;11643;12009;12423;12798;13293;13818;14238;14694;15108;15478;15554;15932;16267;16457;16439;16889;16917;17063;17317;17537;17595;17845;17880;18082;18147;18315;18413;18637;18799;18835;18921;19221;19248;19231;19575;19485;19470;19817;20014;19846;20017;20372;20564;20687;20608;20887;20769;21123;21200;21049;21435;21024;21624;21406;21634;22010;21843;21948;21781;21712;22309;22567;22508;22435;22765;22870;23015;23185;23242;23021;23318;23360;23435;23525;
C01;Sample X1;8538;8475;8433;8435;8455;8378;8436;8421;8439;8433;8451;8517;8565;8587;8625;8632;8650;8697;8688;8690;8675;8673;8634;8583;8550;8434;8377;8331;8192;8100;8023;7848;7704;7559;7459;7309;7243;7142;7098;7000;6948;6864;6828;6802;6789;6726;6649;6689;6691;6634;6609;6597;6595;6597;6584;6633;6668;6685;6709;6765;6809;6836;6900;6951;6958;7031;7090;7155;7247;7341;7435;7507;7584;7638;7775;7865;7972;8042;8170;8305;8428;8502;8673;8833;9013;9244;9461;9713;9942;10218;10497;10751;11046;11297;11594;11840;12123;12313;12535;12749;12943;13231;13408;13563;13796;13950;14107;14226;14370;14401;14424;14553;14624;14681;14658;14701;14800;14851;14826;14914;14895;14912;14975;14980;15040;15019;15087;15101;15139;15092;15134;15163;15238;15249;15267;15307;15315;15357;15386;15458;15407;15397;15468;15431;
C02;Sample X2;8509;8444;8406;8392;8391;8354;8318;8343;8406;8401;8409;8439;8471;8479;8504;8534;8564;8586;8591;8622;8622;8571;8609;8522;8481;8439;8389;8279;8247;8151;8019;7929;7785;7624;7514;7444;7317;7191;7128;7036;6964;6894;6844;6727;6706;6702;6674;6630;6586;6587;6572;6607;6636;6600;6619;6596;6606;6646;6704;6705;6745;6762;6830;6836;6915;6950;6997;7099;7149;7234;7281;7399;7450;7520;7617;7677;7802;7877;7973;8060;8206;8313;8478;8501;8670;8811;8979;9199;9455;9760;9997;10296;10601;10867;11167;11414;11685;11964;12190;12418;12599;12824;12975;13136;13359;13547;13687;13859;13944;14048;14069;14259;14289;14343;14375;14421;14463;14530;14570;14606;14655;14610;14667;14680;14762;14768;14809;14896;14920;14935;14989;14971;15090;15036;15077;15101;15165;15186;15174;15217;15234;15254;15313;15311;
C03;Sample X3;8529;8491;8435;8446;8426;8393;8402;8444;8415;8481;8530;8491;8504;8560;8597;8581;8648;8644;8652;8691;8683;8658;8663;8561;8545;8504;8428;8363;8280;8266;8145;8043;7895;7746;7594;7475;7390;7297;7210;7112;7021;6940;6885;6809;6736;6674;6671;6703;6564;6574;6644;6665;6672;6646;6651;6627;6658;6679;6737;6754;6793;6809;6865;6918;6949;6977;7050;7088;7164;7222;7253;7344;7432;7479;7549;7639;7728;7822;7912;7981;8119;8158;8310;8364;8484;8625;8746;8869;9066;9328;9575;9897;10131;10474;10778;11082;11385;11651;11839;12120;12357;12560;12682;12902;13035;13176;13329;13457;13561;13627;13789;13864;13995;14048;14100;14166;14210;14275;14328;14324;14434;14392;14483;14533;14582;14572;14612;14698;14719;14739;14791;14759;14829;14812;14869;14934;14969;14958;14963;14999;15059;15074;15144;15133;
C04;Sample X4;8488;8453;8410;8412;8415;8313;8339;8360;8381;8426;8411;8452;8471;8493;8514;8535;8546;8562;8565;8606;8555;8528;8543;8442;8437;8361;8282;8256;8138;8083;7996;7913;7776;7600;7473;7318;7263;7128;7099;6952;6871;6802;6760;6678;6611;6553;6501;6481;6490;6439;6401;6437;6444;6491;6493;6541;6530;6511;6577;6578;6668;6669;6727;6788;6787;6836;6882;6931;6986;7088;7115;7159;7234;7278;7383;7447;7541;7605;7704;7768;7895;7919;8083;8183;8243;8358;8460;8548;8677;8852;8955;9077;9305;9572;9842;10156;10424;10702;11014;11266;11546;11767;11962;12196;12356;12536;12731;12845;12941;13087;13213;13312;13407;13494;13545;13617;13723;13777;13857;13843;13899;13925;13987;14013;14096;14104;14191;14258;14327;14351;14435;14399;14485;14489;14557;14547;14633;14673;14691;14665;14713;14760;14752;14771;
C05;Sample X5;8616;8571;8530;8534;8532;8480;8503;8496;8537;8547;8546;8580;8602;8616;8646;8657;8654;8685;8671;8697;8653;8683;8636;8545;8550;8468;8420;8355;8252;8206;8060;7991;7868;7721;7597;7417;7339;7210;7205;7015;6936;6870;6813;6756;6669;6597;6537;6536;6574;6507;6433;6519;6514;6561;6546;6617;6622;6626;6671;6683;6782;6801;6815;6822;6886;6928;6939;7003;7059;7132;7175;7217;7250;7334;7424;7475;7577;7628;7746;7775;7935;7958;8076;8140;8239;8362;8443;8603;8671;8868;8968;9096;9229;9614;9903;10221;10580;10864;11117;11355;11678;11944;12124;12376;12517;12686;12896;13064;13161;13256;13369;13435;13574;13623;13641;13720;13770;13807;13948;13892;13988;13972;14021;14020;14150;14193;14208;14302;14360;14370;14383;14394;14560;14509;14511;14586;14602;14678;14674;14707;14751;14805;14804;14838;
C06;Sample X6;8504;8459;8447;8393;8410;8350;8350;8377;8410;8439;8432;8449;8463;8494;8467;8467;8480;8514;8449;8459;8466;8423;8388;8307;8263;8211;8124;8057;8005;7921;7800;7773;7643;7482;7465;7270;7143;6989;6996;6785;6698;6678;6587;6588;6485;6435;6318;6255;6269;6237;6216;6196;6136;6189;6248;6274;6302;6315;6314;6341;6358;6418;6432;6467;6490;6523;6553;6600;6630;6711;6794;6780;6830;6861;6961;7037;7115;7174;7253;7278;7441;7468;7532;7630;7706;7791;7929;8011;8119;8248;8343;8452;8503;8706;8848;8989;9269;9562;9848;10170;10499;10847;11093;11383;11564;11805;12014;12225;12374;12510;12650;12787;12897;12957;12998;13037;13059;13234;13340;13251;13328;13366;13503;13444;13526;13555;13600;13711;13783;13771;13772;13790;13900;13860;13907;13996;14022;14076;14019;14030;14107;14087;14183;14187;
C07;Sample X7;8408;8419;8434;8411;8387;8336;8332;8361;8412;8421;8429;8440;8449;8525;8469;8496;8478;8496;8449;8451;8426;8391;8285;8214;8201;8119;8067;8024;7936;7859;7785;7730;7666;7453;7384;7194;7098;6967;6908;6765;6663;6656;6536;6542;6475;6391;6289;6278;6222;6205;6193;6218;6143;6220;6233;6298;6276;6313;6319;6379;6367;6423;6461;6468;6502;6531;6582;6590;6637;6714;6759;6781;6831;6829;6967;7006;7091;7137;7218;7245;7381;7420;7490;7519;7678;7682;7807;7930;8054;8165;8212;8309;8354;8587;8737;8881;9070;9254;9508;9815;10204;10512;10802;11112;11331;11593;11847;11998;12171;12335;12515;12651;12773;12842;12818;12913;13037;13150;13212;13163;13250;13271;13370;13324;13485;13500;13547;13659;13761;13770;13779;13735;13866;13782;13851;13948;13962;14010;13959;13974;14061;14019;14102;14142;
C08;Sample X8;8513;8480;8468;8432;8447;8358;8372;8393;8421;8441;8437;8437;8427;8447;8422;8381;8399;8396;8355;8354;8368;8320;8269;8250;8247;8270;8201;8213;8157;8129;8068;8137;8112;8016;7995;7904;7873;7914;7887;7812;7759;7772;7696;7638;7614;7573;7538;7548;7519;7492;7485;7426;7401;7401;7338;7354;7285;7248;7270;7260;7219;7160;7181;7173;7172;7165;7120;7124;7126;7141;7198;7123;7196;7098;7182;7250;7270;7313;7399;7402;7465;7502;7497;7487;7653;7546;7667;7698;7735;7807;7768;7711;7715;7812;7867;7954;8018;7907;7902;7944;8059;8068;8129;8266;8254;8348;8435;8405;8505;8547;8647;8722;8803;8809;8798;8917;8960;9036;9210;9208;9277;9361;9467;9557;9663;9848;9922;10185;10382;10515;10697;10755;11019;11074;11201;11412;11533;11585;11626;11660;11780;11799;11884;12012;
C09;Sample X9;8391;8350;8349;8311;8314;8245;8303;8308;8297;8341;8339;8327;8341;8343;8309;8256;8276;8254;8262;8284;8266;8239;8212;8130;8184;8174;8130;8167;8105;8116;8049;8129;8124;8017;8014;7943;7936;7969;7958;7878;7871;7884;7809;7748;7747;7765;7707;7686;7739;7670;7684;7669;7669;7650;7642;7632;7642;7638;7610;7648;7622;7641;7610;7570;7610;7616;7603;7590;7631;7602;7619;7585;7606;7548;7601;7633;7689;7625;7677;7673;7685;7669;7674;7674;7735;7690;7744;7731;7750;7798;7760;7664;7683;7743;7752;7779;7799;7744;7731;7773;7743;7799;7815;7801;7930;7877;7910;7862;7902;7871;7953;7952;7949;7955;7975;8005;8045;7971;8049;8091;8044;8180;8117;8148;8100;8151;8181;8218;8283;8243;8219;8229;8267;8247;8300;8334;8322;8329;8381;8404;8388;8428;8436;8439;
C10;Sample X10;8352;8312;8289;8293;8264;8245;8263;8278;8240;8272;8268;8239;8247;8263;8243;8233;8216;8186;8189;8227;8219;8227;8125;8134;8131;8153;8108;8128;8077;8145;8070;8130;8118;8027;8025;8017;7990;8055;7984;7956;7951;7971;7962;7913;7901;7900;7849;7817;7896;7826;7837;7836;7850;7851;7804;7832;7862;7802;7830;7819;7792;7823;7787;7779;7806;7809;7777;7735;7842;7797;7804;7789;7803;7770;7822;7854;7847;7849;7904;7848;7890;7858;7902;7906;7972;7904;7942;7943;7988;7966;7976;7923;7934;7968;8062;8060;8085;8059;8044;8071;8089;8084;8117;8119;8173;8173;8208;8168;8157;8202;8260;8211;8282;8294;8290;8304;8317;8279;8349;8455;8344;8472;8397;8476;8391;8444;8481;8545;8611;8548;8547;8590;8597;8659;8677;8697;8696;8742;8796;8859;8853;8857;8874;8892;
C11;Sample X11;6688;6818;6820;6860;6895;6856;6860;6857;6879;6862;6843;6866;6864;6894;6865;6849;6907;6852;6839;6871;6876;6872;6812;6857;6869;6917;6890;6928;6879;6870;6906;6932;6900;6903;6905;6883;6909;6906;6900;6920;6914;6921;6911;6916;6881;6874;6892;6915;6879;6904;6888;6881;6890;6927;6921;6914;6879;6917;6920;6958;6895;6892;6931;6893;6885;6896;6892;6885;6923;6955;6941;6925;6926;6870;6930;6950;6956;7008;7017;6975;7036;7042;6994;6997;7059;7060;7111;7113;7106;7153;7150;7099;7074;7136;7136;7181;7224;7205;7174;7189;7245;7262;7274;7251;7264;7329;7312;7323;7364;7360;7439;7443;7457;7454;7413;7416;7459;7466;7553;7548;7571;7574;7585;7586;7591;7633;7694;7733;7795;7801;7786;7795;7841;7854;7909;7932;7959;7980;8050;8068;8120;8168;8163;8172;
C12;Sample X12;4969;5115;5237;5338;5401;5461;5532;5604;5640;5720;5723;5755;5780;5802;5764;5779;5823;5815;5805;5851;5851;5883;5874;5858;5920;5930;5975;6014;6059;6091;6101;6146;6207;6229;6304;6336;6393;6472;6560;6639;6712;6803;6899;6955;7026;7126;7183;7279;7276;7408;7516;7657;7759;7918;7985;8194;8319;8471;8571;8792;8865;8983;9076;9199;9368;9476;9617;9680;9841;10014;10110;10206;10571;10786;11164;11394;11790;12234;12633;12968;13353;13608;13933;14136;14311;14569;14729;14908;15125;15437;15434;15625;15656;15851;16000;16099;16299;16343;16390;16572;16699;16871;16868;17066;17045;17252;17348;17486;17528;17680;17807;17952;18039;18174;17964;18132;18174;18460;18703;18464;18680;18597;18891;18700;19033;19232;19166;19451;19523;19613;19755;19762;19873;19754;19809;20198;20239;20353;20189;20048;20402;20414;20770;20869;
D01;Sample X1;8125;8083;8061;8026;8057;8001;8032;8042;8044;8064;8122;8117;8135;8203;8242;8258;8279;8280;8275;8281;8319;8316;8264;8192;8161;8061;7982;7935;7871;7783;7640;7536;7406;7266;7169;7036;6940;6809;6758;6650;6584;6545;6415;6407;6439;6376;6325;6330;6307;6258;6254;6251;6227;6252;6248;6256;6285;6312;6311;6387;6416;6453;6483;6517;6566;6644;6656;6710;6811;6908;6957;7019;7144;7212;7263;7343;7412;7510;7573;7653;7739;7828;7933;8028;8197;8364;8521;8760;9006;9277;9450;9736;9989;10272;10495;10734;10987;11207;11401;11589;11708;11971;12041;12177;12353;12451;12597;12744;12835;12894;13012;13055;13183;13241;13278;13351;13409;13485;13466;13465;13519;13489;13553;13561;13650;13631;13714;13710;13742;13806;13865;13831;13879;13895;13891;13942;13956;13990;13996;14046;14129;14076;14082;14158;
D02;Sample X2;8318;8305;8278;8274;8272;8221;8269;8244;8296;8309;8352;8327;8384;8377;8416;8450;8492;8497;8480;8532;8573;8521;8525;8437;8404;8403;8286;8273;8132;8081;7982;7953;7802;7597;7562;7400;7278;7175;7104;6980;6887;6845;6774;6680;6644;6606;6586;6568;6551;6541;6542;6568;6551;6598;6567;6554;6608;6593;6609;6649;6700;6757;6780;6816;6824;6891;6920;6969;7070;7141;7180;7242;7331;7408;7470;7538;7658;7709;7847;7896;7980;8128;8239;8328;8446;8543;8654;8868;9092;9378;9596;9942;10186;10554;10843;11089;11337;11611;11864;12047;12267;12494;12588;12786;12923;13028;13184;13333;13420;13542;13643;13690;13773;13853;13900;13997;14055;14126;14115;14209;14193;14238;14271;14298;14392;14331;14448;14451;14534;14566;14550;14555;14682;14655;14660;14682;14765;14781;14782;14909;14836;14857;14868;14888;
D03;Sample X3;8654;8575;8556;8550;8557;8531;8491;8532;8524;8551;8593;8595;8628;8711;8645;8678;8734;8742;8758;8779;8802;8780;8740;8683;8650;8623;8529;8441;8375;8310;8228;8174;8044;7816;7747;7571;7505;7363;7315;7182;7048;7039;6971;6888;6792;6761;6699;6705;6716;6673;6665;6755;6751;6732;6784;6748;6741;6790;6811;6837;6908;6922;6978;6998;7032;7088;7104;7136;7174;7286;7320;7377;7456;7501;7588;7631;7736;7807;7944;7967;8107;8167;8287;8366;8510;8574;8689;8807;8922;9052;9258;9535;9737;10098;10376;10735;10989;11283;11546;11803;11999;12273;12436;12633;12841;12984;13183;13254;13418;13502;13594;13708;13769;13845;13928;14004;14076;14098;14160;14192;14233;14273;14346;14371;14425;14441;14525;14600;14621;14652;14687;14696;14799;14805;14837;14892;14866;14924;14923;15052;15028;15059;15050;15089;
D04;Sample X4;8706;8643;8627;8630;8558;8553;8589;8590;8595;8626;8639;8669;8703;8756;8739;8760;8771;8794;8787;8798;8804;8829;8757;8662;8673;8614;8506;8465;8373;8280;8172;8120;7995;7792;7744;7534;7503;7335;7263;7156;7042;6977;6919;6839;6776;6710;6655;6677;6640;6605;6522;6584;6638;6671;6670;6697;6701;6659;6750;6773;6810;6810;6883;6931;6977;6995;7022;7071;7116;7188;7237;7281;7377;7423;7500;7562;7671;7719;7810;7874;7995;8053;8142;8231;8356;8455;8502;8636;8734;8899;8966;9087;9298;9551;9824;10179;10457;10782;11041;11337;11601;11861;12156;12323;12550;12739;12893;13023;13159;13235;13403;13493;13557;13672;13725;13769;13869;13870;13938;14009;14073;14112;14080;14127;14201;14199;14320;14310;14402;14395;14394;14426;14534;14531;14547;14616;14637;14653;14676;14780;14760;14803;14816;14880;
D05;Sample X5;8532;8512;8479;8439;8415;8405;8413;8428;8440;8477;8479;8471;8520;8571;8574;8600;8627;8637;8594;8640;8589;8607;8532;8521;8477;8440;8350;8260;8242;8136;7996;8021;7874;7683;7591;7401;7333;7221;7137;7027;6912;6905;6799;6729;6639;6593;6509;6536;6481;6485;6416;6437;6469;6569;6549;6587;6601;6567;6638;6633;6658;6757;6781;6794;6847;6865;6909;6977;6986;7063;7109;7143;7235;7274;7353;7389;7477;7561;7619;7670;7806;7890;7973;8050;8119;8255;8351;8445;8528;8670;8728;8903;9089;9377;9676;9962;10295;10625;10939;11205;11498;11710;11951;12131;12353;12485;12702;12830;12943;13038;13122;13202;13301;13337;13461;13478;13573;13617;13652;13726;13796;13753;13835;13869;13899;13888;13983;14048;14074;14105;14082;14089;14171;14211;14192;14211;14275;14307;14330;14436;14376;14416;14429;14444;
D06;Sample X6;7881;7838;7779;7779;7747;7711;7758;7729;7761;7759;7767;7830;7837;7871;7875;7890;7940;7937;7955;7939;7947;7937;7875;7847;7846;7790;7712;7692;7664;7594;7497;7506;7410;7301;7269;7180;6983;6922;6918;6800;6737;6625;6538;6468;6429;6401;6289;6261;6206;6173;6209;6190;6193;6155;6188;6213;6288;6235;6310;6344;6398;6459;6466;6508;6509;6549;6565;6621;6624;6683;6742;6806;6869;6905;6941;7005;7073;7149;7216;7294;7339;7435;7537;7566;7682;7706;7835;7919;8014;8147;8261;8425;8559;8863;9150;9504;9779;10103;10430;10621;10895;11165;11320;11502;11697;11834;11949;12111;12174;12298;12344;12464;12508;12513;12601;12631;12729;12743;12787;12807;12851;12840;12890;12927;12963;12911;13072;13028;13117;13091;13129;13124;13185;13183;13207;13256;13272;13258;13282;13368;13277;13380;13394;13396;
D07;Sample X7;8145;8115;8061;8061;8038;8036;8055;8021;8048;8089;8144;8172;8146;8214;8192;8207;8194;8205;8219;8190;8177;8117;8053;8062;8008;7987;7874;7849;7774;7722;7637;7609;7524;7405;7324;7179;6990;6921;6966;6871;6751;6661;6576;6538;6466;6432;6356;6273;6236;6244;6283;6246;6214;6258;6295;6314;6367;6338;6392;6424;6448;6506;6535;6544;6572;6597;6655;6698;6723;6749;6783;6841;6896;6934;6986;7045;7139;7166;7246;7285;7376;7442;7594;7591;7692;7772;7865;7943;8025;8140;8269;8380;8478;8696;8846;9074;9371;9710;10004;10272;10606;10867;11111;11340;11639;11725;11968;12078;12232;12363;12463;12595;12658;12710;12862;12859;12942;12987;13031;13096;13118;13133;13252;13202;13265;13248;13351;13381;13440;13394;13472;13449;13555;13552;13556;13552;13629;13608;13639;13668;13686;13776;13767;13780;
D08;Sample X8;8493;8465;8450;8413;8384;8364;8402;8377;8373;8408;8403;8426;8418;8415;8398;8381;8396;8352;8368;8357;8326;8287;8294;8227;8218;8195;8161;8159;8154;8108;8029;8061;8001;7922;7904;7979;7854;7802;7807;7713;7679;7678;7621;7659;7568;7529;7467;7442;7449;7425;7388;7352;7327;7288;7265;7255;7238;7153;7180;7141;7110;7096;7105;7107;7071;7094;7204;7031;7075;7054;7036;7049;7068;7064;7122;7159;7178;7221;7303;7308;7355;7415;7604;7484;7502;7499;7518;7561;7575;7633;7658;7638;7675;7717;7761;7803;7792;7913;7898;7941;7996;8100;8076;8122;8352;8237;8278;8340;8419;8480;8552;8634;8644;8641;8804;8899;8943;8979;9087;9161;9244;9367;9557;9482;9550;9666;9789;9922;10036;10233;10383;10572;10744;10879;11000;11084;11217;11255;11434;11542;11521;11624;11731;11748;
D09;Sample X9;8312;8284;8254;8235;8232;8185;8203;8244;8208;8260;8216;8243;8182;8255;8219;8216;8215;8163;8186;8187;8155;8129;8095;8096;8123;8049;8046;8023;7997;8009;7972;7996;7978;7890;7859;7962;7840;7812;7845;7760;7744;7723;7715;7702;7696;7661;7576;7605;7663;7591;7560;7544;7559;7537;7566;7628;7530;7522;7509;7497;7532;7509;7509;7514;7538;7503;7753;7437;7488;7479;7481;7486;7474;7502;7540;7593;7524;7519;7515;7518;7550;7518;7928;7589;7608;7594;7605;7585;7562;7596;7652;7642;7608;7609;7599;7644;7699;7687;7628;7649;7638;7810;7662;7695;8257;7720;7731;7712;7762;7715;7747;7981;7877;7840;7797;7923;7880;7848;7852;7958;8007;7999;8272;7980;7943;8056;8022;8040;8040;8039;8048;8192;8110;8094;8130;8121;8115;8158;8270;8245;8227;8250;8346;8305;
D10;Sample X10;8132;8190;8181;8154;8144;8129;8124;8148;8143;8146;8199;8157;8156;8192;8184;8178;8154;8134;8092;8109;8105;8086;8053;8049;8044;8053;8001;8032;8008;8034;7944;7950;7941;7917;7916;8005;7879;7867;7887;7836;7824;7816;7839;7826;7784;7777;7695;7711;7743;7713;7722;7692;7704;7702;7707;7739;7657;7704;7681;7652;7698;7686;7642;7657;7712;7664;7929;7632;7679;7677;7669;7678;7652;7696;7729;7795;7716;7710;7714;7722;7674;7696;8068;7759;7767;7772;7816;7765;7751;7782;7841;7812;7819;7818;7842;7876;7899;7916;7893;7906;7900;8047;7909;7924;8274;7916;7964;7962;7972;8001;7990;8147;8042;8060;8008;8118;8105;8116;8043;8150;8240;8192;8494;8245;8138;8236;8203;8224;8268;8351;8323;8451;8360;8362;8384;8386;8429;8465;8593;8563;8549;8591;8713;8593;
D11;Sample X11;8063;8029;8037;8044;8046;8024;7970;8011;8004;8032;8031;8063;8009;8031;7992;7975;7972;7970;7961;7952;7947;7954;7889;7925;7929;7922;7909;7923;7937;7923;7913;7935;7908;7867;7889;7943;7890;7882;7888;7821;7822;7825;7832;7845;7811;7792;7780;7802;7808;7807;7776;7739;7770;7792;7766;7800;7780;7741;7785;7791;7790;7797;7719;7789;7768;7775;8043;7748;7783;7766;7731;7749;7778;7787;7837;7856;7804;7816;7797;7858;7807;7803;8181;7854;7903;7871;7869;7859;7842;7902;7983;7921;7926;7951;7949;7997;8014;8064;8027;8042;8022;8178;8066;8073;8346;8089;8125;8156;8213;8137;8179;8329;8188;8177;8226;8286;8330;8325;8308;8356;8419;8375;8695;8451;8410;8487;8466;8523;8530;8575;8574;8667;8639;8634;8703;8717;8756;8813;8889;8898;8884;8923;9021;8915;
D12;Sample X12;5062;5167;5246;5357;5447;5484;5548;5629;5663;5701;5748;5777;5795;5805;5785;5810;5824;5832;5826;5854;5869;5862;5897;5888;5943;5941;5990;6042;6048;6090;6111;6157;6201;6241;6269;6360;6438;6458;6565;6644;6698;6758;6885;6963;7090;7134;7217;7298;7363;7461;7561;7702;7804;7985;8134;8304;8413;8610;8696;8851;8980;9057;9242;9411;9468;9643;9791;9826;9965;10138;10210;10435;10504;10723;10942;11174;11392;11737;12127;12499;12891;13191;13538;13808;14025;14332;14502;14697;14921;15186;15256;15474;15595;15659;15810;16065;15982;16314;16405;16459;16601;16720;16823;16962;16952;17145;17236;17393;17458;17490;17597;17657;17771;17787;17927;18012;18218;18276;18340;18461;18536;18592;18748;18724;19020;19062;19230;19194;19234;19331;19480;19360;19671;19623;19765;19803;19871;19810;19840;20129;20030;20233;20160;20196;
E01;Sample X13;8338;8315;8289;8316;8235;8203;8198;8153;8108;8080;8005;7969;7934;7855;7780;7747;7644;7516;7414;7319;7223;7064;6952;6800;6638;6539;6371;6281;6162;6004;5897;5711;5668;5648;5493;5420;5339;5244;5175;5121;5050;4989;4958;4884;4880;4854;4789;4768;4794;4741;4723;4711;4673;4693;4683;4657;4579;4597;4590;4595;4583;4563;4559;4570;4547;4557;4550;4545;4561;4559;4543;4522;4549;4540;4540;4543;4538;4562;4563;4537;4569;4556;4566;4576;4535;4556;4525;4540;4534;4547;4558;4580;4556;4581;4580;4585;4623;4629;4626;4630;4663;4661;4667;4672;4707;4669;4740;4766;4746;4791;4784;4784;4813;4843;4838;4855;4866;4906;4936;4934;4968;4962;5000;5008;4996;5031;5079;5083;5119;5113;5110;5113;5164;5163;5190;5176;5214;5232;5236;5260;5269;5312;5316;5316;
E02;Sample X14;8896;8865;8843;8857;8839;8780;8755;8694;8705;8637;8586;8552;8483;8458;8347;8314;8210;8072;7976;7927;7772;7665;7516;7351;7242;7069;6934;6762;6671;6523;6421;6403;6057;5985;5914;5839;5725;5621;5576;5481;5372;5330;5295;5136;5117;5110;5080;5026;4983;4972;4923;4940;4881;4866;4856;4823;4800;4772;4760;4770;4743;4713;4733;4739;4706;4690;4696;4692;4699;4677;4667;4691;4698;4672;4680;4688;4685;4666;4692;4684;4678;4700;4699;4708;4697;4684;4686;4671;4674;4702;4702;4694;4690;4735;4695;4727;4724;4736;4730;4741;4742;4783;4790;4803;4825;4821;4857;4854;4871;4867;4920;4908;4938;4941;4959;4962;5023;5022;5027;5062;5082;5099;5121;5123;5119;5162;5184;5204;5244;5232;5238;5259;5299;5294;5305;5310;5349;5345;5370;5403;5415;5438;5443;5464;
E03;Sample X15;8465;8439;8405;8355;8385;8316;8315;8258;8254;8225;8145;8116;8087;8044;7951;7931;7887;7793;7716;7621;7527;7442;7307;7192;7083;6961;6848;6746;6620;6532;6420;6287;6188;5988;5901;5883;5792;5687;5601;5530;5447;5377;5315;5219;5158;5179;5118;5060;4941;4933;4907;4943;4874;4893;4887;4840;4821;4783;4822;4784;4798;4790;4772;4751;4758;4725;4745;4719;4754;4743;4701;4714;4710;4697;4730;4728;4730;4703;4725;4723;4713;4717;4722;4728;4729;4714;4717;4701;4722;4751;4756;4731;4752;4780;4783;4788;4812;4816;4798;4832;4817;4834;4852;4849;4885;4863;4934;4915;4933;4935;4965;4966;4989;5005;5001;5026;5057;5079;5085;5113;5117;5127;5136;5155;5153;5177;5206;5234;5242;5274;5260;5269;5288;5318;5313;5333;5336;5374;5390;5380;5424;5447;5451;5441;
E04;Sample X16;8592;8513;8466;8455;8430;8359;8363;8340;8312;8265;8216;8183;8138;8111;8048;8010;7955;7857;7790;7709;7622;7519;7441;7306;7185;7101;6975;6871;6739;6676;6549;6432;6281;6137;6005;5991;5897;5781;5692;5613;5575;5473;5414;5322;5254;5232;5223;5162;5075;4981;4949;4974;4945;4922;4936;4889;4879;4825;4854;4824;4830;4829;4804;4815;4808;4806;4765;4775;4797;4778;4773;4762;4756;4745;4793;4765;4784;4772;4749;4758;4765;4784;4772;4784;4779;4776;4803;4783;4782;4799;4796;4792;4788;4833;4818;4845;4860;4864;4843;4888;4888;4904;4910;4941;4970;4922;5002;4998;5000;5001;5031;5041;5059;5071;5068;5104;5100;5100;5137;5160;5174;5178;5197;5190;5184;5219;5256;5269;5298;5285;5285;5317;5337;5311;5352;5352;5373;5399;5423;5460;5428;5445;5480;5510;
E05;Sample X17;8912;8923;8883;8890;8859;8801;8777;8706;8715;8674;8609;8556;8500;8495;8399;8364;8226;8123;8067;7972;7847;7661;7583;7420;7302;7142;7009;6888;6722;6628;6487;6349;6324;6096;5861;5829;5738;5631;5508;5438;5363;5306;5182;5154;5092;5023;4996;4942;4862;4837;4811;4843;4757;4753;4698;4681;4690;4672;4595;4611;4604;4591;4556;4556;4558;4562;4512;4547;4537;4537;4520;4543;4547;4519;4527;4550;4554;4556;4536;4533;4564;4542;4556;4568;4568;4578;4561;4570;4584;4578;4585;4564;4593;4584;4580;4597;4631;4657;4641;4630;4641;4671;4649;4679;4685;4700;4742;4756;4753;4764;4791;4830;4827;4826;4830;4862;4873;4871;4919;4919;4918;4929;4989;4971;4990;4991;5014;5036;5058;5065;5071;5090;5093;5120;5141;5141;5135;5148;5183;5192;5220;5235;5211;5249;
E06;Sample X18;8554;8568;8530;8482;8465;8405;8395;8335;8302;8285;8214;8212;8184;8122;7975;7987;7911;7822;7690;7613;7518;7371;7274;7160;7031;6873;6785;6625;6521;6432;6287;6257;6009;5891;5700;5729;5673;5582;5458;5395;5371;5321;5242;5155;5171;5151;5082;5008;4862;4909;4865;4869;4834;4842;4816;4794;4777;4768;4736;4740;4767;4728;4725;4720;4731;4703;4718;4725;4735;4729;4700;4707;4698;4694;4716;4711;4736;4743;4731;4703;4724;4729;4756;4730;4745;4730;4765;4750;4765;4763;4789;4791;4777;4797;4828;4826;4855;4890;4875;4882;4933;4919;4913;4949;4971;4945;5026;5000;5064;5034;5061;5097;5082;5117;5129;5137;5133;5139;5182;5196;5199;5230;5212;5220;5205;5236;5258;5289;5297;5294;5314;5299;5326;5314;5342;5349;5381;5403;5393;5403;5398;5420;5422;5447;
E07;Sample X19;8920;8894;8914;8907;8889;8816;8771;8773;8744;8691;8650;8576;8515;8437;8325;8285;8159;8044;7924;7829;7685;7480;7372;7237;7102;6946;6833;6724;6550;6399;6297;6176;5999;5960;5794;5589;5403;5355;5249;5237;5152;5095;5003;4970;4917;4880;4838;4784;4691;4695;4670;4646;4535;4501;4466;4491;4476;4383;4380;4389;4376;4332;4332;4334;4312;4307;4323;4311;4296;4315;4304;4296;4336;4309;4332;4343;4367;4311;4358;4329;4361;4374;4407;4385;4384;4402;4416;4429;4435;4439;4437;4413;4421;4441;4447;4484;4486;4482;4460;4477;4506;4521;4525;4556;4571;4556;4612;4626;4647;4665;4711;4709;4721;4737;4716;4789;4786;4814;4812;4868;4861;4898;4913;4932;4897;4952;4997;4991;5028;5052;5077;5056;5041;5079;5110;5083;5128;5142;5181;5169;5213;5224;5258;5237;
E08;Sample X20;8517;8503;8484;8443;8435;8378;8375;8314;8316;8265;8240;8199;8145;8079;8058;8000;7935;7857;7740;7724;7626;7507;7382;7317;7241;7116;7001;6993;6833;6761;6626;6558;6475;6370;6286;6210;6141;6030;5884;5806;5708;5624;5572;5491;5419;5400;5345;5310;5203;5223;5220;5159;5088;5055;5041;5014;4975;4924;4896;4922;4894;4867;4842;4807;4832;4791;4792;4761;4764;4759;4759;4742;4731;4725;4747;4753;4762;4759;4753;4761;4776;4751;4806;4782;4759;4790;4773;4792;4790;4820;4793;4788;4818;4825;4821;4843;4869;4862;4874;4892;4889;4915;4895;4900;4916;4903;4944;4935;4962;4992;5011;5002;5031;5042;5039;5067;5107;5109;5165;5147;5180;5188;5208;5225;5256;5236;5258;5294;5312;5322;5296;5330;5333;5377;5403;5383;5405;5402;5408;5459;5479;5483;5498;5502;
E09;Sample X21;8337;8314;8278;8254;8276;8185;8164;8159;8140;8094;8043;8046;8006;7985;7889;7894;7839;7742;7707;7678;7558;7455;7418;7304;7282;7145;7060;7009;6929;6894;6758;6710;6604;6516;6481;6448;6368;6303;6223;6134;6072;6036;5941;5918;5837;5819;5759;5718;5678;5652;5586;5563;5511;5479;5460;5450;5406;5375;5347;5340;5317;5311;5253;5231;5272;5236;5243;5227;5221;5215;5194;5206;5190;5170;5176;5184;5172;5166;5171;5150;5180;5149;5220;5173;5199;5150;5196;5173;5173;5182;5192;5130;5174;5174;5178;5227;5234;5225;5210;5207;5212;5221;5214;5242;5295;5234;5261;5241;5322;5274;5295;5301;5313;5302;5295;5327;5326;5324;5352;5378;5362;5360;5391;5350;5341;5367;5398;5401;5415;5450;5426;5414;5428;5448;5471;5493;5491;5482;5529;5515;5527;5541;5530;5545;
E10;Sample X22;8696;8613;8572;8553;8512;8441;8457;8433;8430;8416;8335;8291;8276;8225;8135;8142;8106;7993;7918;7887;7814;7709;7639;7562;7484;7371;7276;7216;7120;7089;6980;6873;6823;6725;6638;6626;6563;6439;6412;6292;6259;6210;6122;6024;6013;5969;5912;5901;5859;5827;5760;5757;5697;5704;5644;5650;5610;5579;5509;5549;5524;5511;5490;5472;5490;5465;5490;5421;5412;5416;5395;5420;5420;5400;5449;5447;5436;5473;5435;5478;5464;5464;5485;5475;5499;5500;5513;5505;5487;5539;5543;5543;5548;5571;5564;5585;5615;5624;5658;5632;5638;5686;5694;5698;5748;5739;5758;5770;5818;5831;5843;5856;5835;5850;5862;5901;5927;5897;5919;5963;5970;5967;6011;5993;5953;5975;6032;6008;6059;6083;6054;6082;6022;6095;6122;6088;6092;6123;6171;6168;6165;6157;6211;6187;
E11;Sample X23;8533;8505;8449;8456;8433;8345;8358;8308;8272;8300;8240;8177;8108;8102;8040;7988;7958;7878;7753;7759;7667;7576;7506;7436;7360;7234;7137;7089;7018;6914;6831;6762;6692;6576;6540;6481;6369;6322;6275;6177;6102;6040;5981;5979;5907;5890;5828;5769;5748;5689;5656;5647;5599;5577;5564;5551;5512;5489;5459;5464;5478;5468;5415;5431;5465;5426;5447;5349;5411;5389;5411;5441;5435;5426;5428;5445;5439;5458;5458;5473;5435;5463;5496;5475;5493;5486;5524;5520;5540;5543;5608;5566;5544;5610;5592;5616;5650;5667;5700;5700;5705;5699;5688;5724;5770;5760;5762;5792;5824;5825;5839;5847;5855;5874;5893;5906;5919;5923;5928;5974;6003;5944;5997;5967;5984;6004;6041;6068;6062;6090;6080;6113;6107;6135;6178;6110;6140;6144;6197;6171;6176;6236;6220;6236;
E12;Sample X24;5044;5051;5095;5104;5134;5111;5155;5184;5228;5226;5236;5268;5262;5317;5298;5320;5352;5366;5385;5429;5424;5403;5447;5422;5476;5496;5525;5543;5489;5569;5562;5605;5620;5603;5621;5650;5695;5656;5679;5685;5679;5725;5680;5679;5727;5711;5748;5749;5726;5740;5743;5763;5742;5755;5717;5739;5741;5770;5766;5761;5782;5794;5780;5752;5768;5773;5770;5738;5769;5779;5774;5744;5745;5736;5784;5758;5759;5767;5814;5779;5834;5783;5819;5837;5863;5835;5870;5833;5904;5903;5901;5929;5905;5938;5950;5979;5986;6018;6017;6018;6043;6025;6085;6043;6094;6083;6125;6135;6152;6189;6194;6220;6251;6254;6254;6269;6282;6300;6338;6345;6397;6399;6392;6416;6449;6441;6473;6531;6527;6538;6555;6599;6650;6627;6651;6694;6707;6690;6761;6762;6790;6818;6830;6864;
F01;Sample X13;8435;8395;8385;8334;8317;8214;8211;8182;8149;8144;8072;8027;7997;7941;7895;7805;7762;7649;7586;7500;7379;7253;7161;7030;6879;6767;6615;6547;6438;6319;6138;5994;5924;5926;5755;5696;5611;5560;5469;5440;5421;5351;5353;5269;5193;5065;4994;5060;5071;5016;5008;4995;4976;4910;4924;4892;4929;4898;4900;4892;4885;4874;4878;4871;4878;4876;4853;4839;4853;4844;4827;4834;4858;4832;4853;4837;4831;4841;4850;4799;4821;4821;4828;4817;4827;4811;4825;4829;4848;4879;4858;4881;4890;4895;4874;4891;4940;4922;4963;4931;4965;4959;5014;5014;4999;5063;5050;5087;5095;5104;5134;5128;5157;5147;5167;5164;5164;5212;5200;5234;5232;5252;5261;5286;5268;5286;5342;5346;5353;5356;5378;5378;5428;5397;5429;5437;5466;5488;5499;5478;5524;5515;5529;5551;
F02;Sample X14;8478;8402;8398;8362;8305;8275;8284;8243;8213;8193;8149;8046;8065;8051;7932;7930;7853;7754;7672;7604;7493;7395;7295;7178;7042;6928;6808;6705;6615;6508;6313;6325;6060;5978;5910;5883;5790;5668;5554;5519;5456;5397;5332;5226;5233;5255;4988;5012;4918;4983;4958;4989;4951;4952;4900;4875;4906;4867;4855;4858;4858;4865;4851;4836;4861;4833;4829;4809;4797;4797;4813;4794;4812;4784;4806;4772;4798;4816;4774;4777;4784;4773;4788;4772;4785;4776;4766;4767;4795;4810;4796;4809;4779;4824;4828;4864;4867;4865;4856;4869;4888;4919;4923;4916;4937;4945;4985;5003;5031;5055;5062;5036;5077;5091;5101;5095;5139;5129;5154;5153;5202;5188;5183;5230;5216;5242;5256;5298;5304;5311;5313;5348;5368;5374;5402;5387;5421;5449;5449;5487;5496;5509;5520;5536;
F03;Sample X15;8486;8438;8387;8394;8347;8284;8277;8247;8230;8209;8189;8099;8082;8049;7978;7904;7844;7761;7707;7657;7552;7418;7372;7245;7133;7034;6916;6741;6656;6584;6460;6330;6195;5955;5914;5936;5884;5766;5649;5586;5542;5454;5385;5244;5232;5265;5188;5076;4932;4989;4969;4966;4947;4949;4919;4855;4879;4866;4849;4856;4852;4828;4821;4820;4827;4826;4806;4779;4812;4788;4811;4778;4782;4782;4790;4762;4779;4793;4803;4764;4771;4799;4764;4758;4768;4742;4739;4778;4783;4811;4786;4813;4787;4834;4825;4840;4860;4847;4897;4880;4908;4924;4917;4941;4936;4963;4993;5004;5038;5017;5066;5067;5106;5098;5092;5120;5125;5136;5148;5177;5180;5178;5216;5212;5235;5259;5259;5270;5294;5298;5311;5313;5362;5361;5378;5397;5393;5431;5427;5452;5457;5483;5492;5505;
F04;Sample X16;8542;8491;8436;8414;8368;8332;8351;8303;8326;8270;8220;8165;8108;8119;8047;7972;7922;7861;7771;7691;7597;7525;7391;7309;7227;7103;6960;6861;6771;6696;6556;6426;6378;6075;5966;5971;5923;5824;5715;5654;5558;5484;5469;5287;5261;5292;5267;5216;5076;5012;4933;4997;4947;4945;4947;4886;4861;4836;4863;4848;4824;4822;4831;4819;4822;4827;4795;4793;4787;4794;4808;4782;4807;4779;4798;4808;4812;4800;4817;4800;4793;4825;4801;4803;4806;4806;4786;4782;4806;4813;4821;4824;4834;4838;4838;4862;4907;4901;4885;4903;4916;4947;4959;4970;5004;4964;5037;5030;5056;5068;5102;5085;5107;5113;5135;5156;5162;5163;5193;5190;5197;5214;5238;5246;5251;5267;5279;5287;5336;5341;5353;5367;5359;5370;5400;5399;5458;5452;5439;5468;5480;5501;5517;5508;
F05;Sample X17;8505;8436;8401;8405;8428;8308;8294;8322;8254;8212;8182;8144;8074;8059;8025;7964;7905;7853;7771;7674;7639;7508;7398;7317;7195;7072;6949;6871;6729;6662;6531;6369;6226;6031;5918;5823;5856;5769;5682;5598;5536;5485;5430;5334;5284;5315;5248;5225;5119;4984;4937;4946;4928;4925;4913;4891;4876;4866;4868;4832;4846;4837;4833;4829;4849;4825;4838;4792;4819;4802;4816;4823;4816;4771;4861;4810;4826;4811;4826;4825;4820;4815;4843;4820;4833;4821;4827;4837;4841;4850;4847;4850;4879;4881;4881;4912;4922;4952;4972;4955;4976;4985;4976;5013;5038;5055;5071;5076;5120;5108;5136;5152;5191;5148;5158;5155;5187;5197;5228;5246;5250;5268;5261;5280;5264;5313;5319;5306;5360;5351;5361;5379;5391;5363;5398;5410;5424;5444;5424;5474;5479;5489;5508;5519;
F06;Sample X18;8305;8343;8307;8299;8309;8191;8223;8188;8159;8098;8071;8050;8011;7985;7871;7808;7738;7663;7538;7479;7396;7249;7157;7042;6907;6803;6725;6635;6424;6355;6165;6090;5943;5738;5668;5684;5602;5509;5404;5375;5321;5255;5242;5206;5162;5101;5043;4851;4854;4829;4827;4855;4790;4795;4747;4765;4749;4732;4730;4731;4726;4724;4697;4726;4719;4720;4723;4708;4698;4712;4706;4711;4716;4710;4732;4720;4744;4713;4715;4696;4723;4700;4735;4730;4726;4741;4753;4733;4776;4773;4813;4783;4793;4833;4818;4865;4882;4885;4873;4918;4931;4938;4949;4952;4983;5002;5031;5025;5062;5090;5101;5099;5143;5126;5119;5127;5177;5168;5200;5199;5198;5201;5208;5237;5223;5258;5270;5273;5299;5302;5321;5302;5325;5317;5365;5333;5384;5378;5395;5393;5398;5441;5439;5447;
F07;Sample X19;8463;8401;8384;8398;8346;8307;8297;8246;8203;8204;8145;8083;8039;8035;7953;7914;7859;7758;7681;7646;7493;7436;7310;7250;7123;7001;6927;6859;6700;6598;6502;6379;6280;6130;6089;5807;5710;5722;5662;5581;5479;5426;5402;5375;5299;5256;5216;5246;5163;5095;4998;4954;4878;4878;4874;4860;4857;4812;4802;4809;4805;4796;4775;4804;4756;4811;4797;4773;4772;4776;4759;4761;4796;4760;4803;4795;4784;4841;4798;4786;4819;4815;4853;4802;4830;4829;4867;4869;4843;4891;4865;4845;4857;4883;4889;4930;4930;4948;4962;4973;4982;5020;5011;5039;5029;5079;5134;5106;5162;5142;5170;5170;5212;5222;5201;5230;5271;5259;5312;5278;5325;5341;5320;5351;5331;5342;5411;5407;5404;5422;5457;5436;5447;5452;5464;5489;5541;5526;5523;5533;5535;5566;5569;5586;
F08;Sample X20;8342;8317;8289;8256;8227;8181;8168;8140;8123;8093;8070;7998;7954;7949;7890;7821;7785;7697;7642;7566;7483;7408;7315;7244;7163;7050;6928;6913;6825;6734;6617;6521;6460;6400;6283;6216;6153;6003;5931;5836;5735;5655;5568;5499;5472;5439;5390;5362;5315;5265;5213;5169;5175;5120;5092;5060;5038;5001;4994;4988;4958;4924;4907;4904;4881;4880;4851;4856;4855;4837;4819;4850;4840;4839;4871;4868;4870;4869;4867;4863;4859;4845;4884;4874;4882;4863;4883;4902;4905;4890;4914;4922;4880;4920;4894;4930;4947;4955;4938;4961;4990;5001;4984;4988;5001;5010;5051;5058;5099;5107;5131;5141;5173;5150;5181;5234;5250;5228;5260;5286;5296;5318;5331;5329;5344;5381;5392;5409;5433;5397;5427;5434;5485;5474;5499;5498;5523;5523;5556;5574;5552;5594;5566;5599;
F09;Sample X21;8209;8145;8109;8106;8114;8021;8005;7969;7990;7957;7892;7888;7816;7800;7786;7736;7673;7652;7537;7490;7408;7352;7288;7218;7132;7046;6952;6891;6832;6779;6710;6638;6531;6470;6414;6372;6295;6198;6148;6055;5993;5952;5892;5849;5786;5773;5724;5666;5642;5581;5566;5529;5481;5462;5418;5407;5352;5349;5319;5318;5314;5271;5229;5233;5202;5216;5226;5173;5174;5173;5165;5175;5168;5103;5142;5130;5099;5096;5127;5127;5150;5101;5169;5123;5131;5142;5161;5139;5158;5176;5207;5163;5162;5209;5201;5231;5245;5226;5214;5240;5268;5235;5239;5260;5257;5244;5265;5276;5268;5271;5322;5306;5326;5323;5278;5303;5344;5350;5349;5362;5361;5371;5364;5358;5375;5397;5405;5424;5432;5404;5437;5421;5456;5458;5462;5477;5492;5504;5484;5524;5522;5533;5550;5525;
F10;Sample X22;8540;8490;8477;8448;8454;8377;8336;8321;8333;8286;8235;8229;8167;8160;8055;8051;7986;7917;7840;7791;7775;7657;7563;7505;7436;7342;7250;7177;7109;7059;6961;6882;6789;6704;6673;6649;6580;6423;6431;6310;6262;6219;6150;6105;6044;6024;5974;5945;5927;5868;5848;5814;5805;5755;5698;5703;5689;5644;5624;5611;5600;5591;5534;5545;5557;5530;5535;5468;5489;5488;5489;5511;5503;5491;5519;5527;5520;5567;5545;5520;5541;5569;5613;5595;5605;5584;5605;5612;5582;5621;5658;5654;5638;5665;5719;5722;5738;5730;5756;5731;5759;5794;5807;5793;5820;5849;5856;5855;5913;5859;5894;5923;5916;5907;5927;5945;5973;5974;5990;6000;6012;6021;6047;6046;6040;6075;6095;6092;6101;6108;6136;6148;6175;6171;6187;6219;6213;6235;6240;6250;6267;6277;6298;6269;
F11;Sample X23;8509;8458;8403;8420;8375;8320;8311;8288;8282;8212;8192;8126;8094;8076;7979;7953;7910;7833;7800;7735;7634;7514;7512;7446;7325;7241;7122;7086;7033;6949;6861;6779;6679;6595;6580;6501;6411;6318;6310;6205;6124;6073;6005;5984;5960;5930;5839;5833;5784;5761;5732;5704;5676;5641;5647;5579;5606;5546;5549;5511;5518;5483;5493;5485;5498;5510;5516;5453;5491;5496;5488;5484;5477;5480;5527;5512;5512;5485;5511;5526;5498;5503;5520;5539;5547;5546;5568;5569;5607;5624;5616;5644;5646;5635;5654;5673;5666;5742;5716;5742;5750;5752;5766;5796;5863;5823;5857;5867;5875;5883;5915;5895;5905;5908;5940;5940;5996;5946;5984;6045;6001;6032;6056;6040;6035;6077;6089;6127;6135;6120;6181;6141;6181;6157;6193;6192;6200;6205;6271;6254;6268;6285;6289;6261;
F12;Sample X24;4858;4882;4895;4921;4945;4943;4982;4972;5020;5041;5077;5097;5085;5123;5143;5159;5166;5185;5202;5232;5202;5231;5235;5261;5292;5272;5326;5320;5354;5354;5389;5393;5423;5400;5423;5456;5487;5479;5502;5465;5517;5525;5493;5511;5546;5534;5523;5594;5550;5583;5559;5579;5542;5569;5542;5567;5500;5560;5577;5542;5538;5586;5535;5548;5551;5540;5543;5521;5521;5521;5527;5529;5543;5548;5565;5588;5576;5601;5604;5584;5632;5587;5645;5655;5689;5661;5674;5674;5709;5700;5690;5706;5695;5726;5749;5761;5804;5777;5808;5814;5847;5848;5844;5836;5900;5879;5926;5904;5940;5963;5974;6005;5998;6005;6056;6033;6081;6092;6104;6171;6160;6149;6161;6204;6223;6244;6291;6266;6308;6299;6313;6337;6392;6376;6429;6440;6458;6449;6511;6535;6547;6586;6569;6579;
G01;Sample X13;8348;8321;8284;8262;8258;8172;8150;8138;8086;8066;8016;7981;7909;7881;7806;7729;7665;7591;7498;7386;7267;7129;7050;6880;6737;6628;6520;6349;6234;6054;5850;5897;5769;5688;5642;5544;5499;5416;5429;5407;5343;5252;5240;4931;4849;5047;5033;5031;4997;4946;4934;4915;4910;4907;4883;4890;4870;4879;4863;4865;4856;4854;4838;4853;4867;4850;4824;4837;4806;4815;4816;4826;4823;4799;4820;4789;4824;4783;4796;4806;4822;4779;4788;4774;4790;4795;4818;4819;4798;4827;4838;4832;4863;4875;4870;4892;4903;4909;4926;4925;4974;4999;4991;4977;4996;5011;5039;5035;5035;5050;5062;5046;5078;5101;5082;5081;5102;5084;5120;5116;5138;5150;5156;5125;5155;5138;5193;5182;5188;5203;5241;5205;5242;5239;5238;5244;5286;5257;5275;5299;5288;5301;5298;5323;
G02;Sample X14;8411;8337;8293;8347;8352;8264;8273;8238;8220;8183;8126;8065;7999;8008;7931;7870;7820;7739;7627;7570;7501;7379;7280;7146;6994;6896;6743;6636;6516;6379;6208;6073;5899;5895;5832;5708;5683;5595;5486;5448;5424;5376;5337;5214;5237;5009;4941;4936;5004;5059;5009;4986;4974;4909;4927;4908;4868;4880;4900;4896;4870;4849;4822;4858;4844;4853;4853;4854;4836;4833;4837;4846;4853;4838;4848;4829;4835;4837;4838;4838;4824;4809;4850;4825;4781;4812;4837;4823;4840;4820;4840;4839;4860;4868;4887;4891;4898;4925;4928;4973;4970;4985;5009;5004;5041;5049;5080;5094;5094;5108;5102;5125;5112;5149;5178;5166;5185;5201;5226;5234;5247;5232;5262;5279;5260;5278;5307;5337;5348;5329;5366;5368;5394;5413;5425;5447;5451;5457;5471;5510;5513;5520;5524;5544;
G03;Sample X15;8458;8387;8350;8373;8329;8269;8269;8201;8196;8160;8110;8095;8040;8010;7953;7872;7815;7755;7645;7595;7488;7371;7282;7162;7044;6959;6792;6670;6592;6478;6299;6234;6022;5890;5863;5815;5755;5665;5558;5487;5419;5375;5327;5252;5252;5249;5017;4921;4954;4949;4975;4987;4961;4926;4901;4877;4865;4830;4836;4838;4827;4816;4788;4802;4786;4795;4785;4776;4776;4778;4775;4789;4787;4749;4801;4789;4773;4759;4794;4762;4792;4754;4788;4732;4757;4762;4773;4755;4772;4788;4796;4788;4802;4820;4846;4838;4870;4851;4863;4858;4905;4921;4924;4937;4941;4962;5042;5019;5027;5027;5064;5057;5066;5088;5079;5084;5110;5125;5127;5141;5144;5139;5173;5195;5201;5245;5236;5223;5272;5293;5298;5284;5330;5319;5329;5332;5377;5384;5399;5406;5420;5424;5454;5480;
G04;Sample X16;8550;8452;8446;8424;8439;8353;8302;8313;8257;8247;8200;8172;8123;8096;8041;7974;7931;7842;7769;7692;7588;7482;7353;7281;7148;6994;6918;6792;6692;6616;6475;6379;6167;6007;5893;5945;5802;5743;5670;5590;5505;5471;5415;5313;5312;5298;5213;5200;4985;4943;4972;5033;4984;4956;4937;4882;4874;4886;4897;4863;4871;4838;4843;4855;4814;4819;4798;4826;4803;4803;4800;4787;4786;4805;4821;4787;4842;4820;4821;4791;4789;4801;4798;4800;4772;4782;4785;4818;4801;4861;4843;4853;4862;4846;4856;4857;4886;4920;4915;4896;4920;4968;4955;4989;4992;4993;5020;5054;5059;5064;5088;5101;5113;5119;5148;5159;5176;5158;5188;5199;5197;5220;5261;5211;5254;5270;5285;5301;5316;5329;5346;5351;5363;5368;5375;5384;5409;5393;5446;5463;5466;5506;5478;5503;
G05;Sample X17;8473;8439;8404;8369;8369;8308;8299;8206;8231;8194;8137;8127;8045;8032;7973;7909;7860;7784;7712;7622;7546;7434;7355;7221;7113;6988;6855;6777;6676;6558;6422;6343;6102;5961;5871;5914;5813;5689;5630;5545;5456;5399;5363;5287;5262;5243;5209;5130;4969;4946;4901;5004;4938;4897;4912;4851;4828;4836;4852;4838;4839;4811;4818;4803;4814;4811;4817;4797;4774;4780;4811;4784;4776;4749;4812;4818;4792;4811;4810;4795;4795;4814;4805;4811;4808;4792;4799;4826;4800;4831;4840;4817;4834;4869;4873;4904;4913;4924;4935;4931;4958;4976;4998;5016;4993;5024;5069;5083;5093;5129;5125;5140;5144;5143;5196;5146;5197;5209;5235;5225;5229;5257;5255;5292;5255;5271;5328;5348;5368;5355;5386;5346;5405;5391;5388;5421;5443;5427;5443;5492;5505;5509;5485;5502;
G06;Sample X18;8389;8346;8325;8303;8235;8212;8185;8162;8151;8121;8062;8038;7960;7941;7856;7815;7725;7680;7554;7453;7378;7213;7145;6996;6868;6769;6676;6554;6440;6318;6213;5946;5863;5724;5630;5641;5542;5456;5423;5334;5278;5264;5232;5176;5157;5086;5057;4834;4871;4834;4846;4842;4835;4808;4759;4755;4757;4752;4763;4727;4767;4722;4733;4731;4727;4740;4708;4742;4718;4745;4720;4718;4714;4737;4730;4724;4746;4747;4759;4732;4766;4741;4768;4760;4752;4758;4787;4790;4771;4811;4815;4837;4841;4849;4879;4919;4921;4901;4935;4967;4984;4975;5009;5015;5049;5059;5101;5119;5141;5118;5170;5179;5190;5191;5178;5200;5236;5248;5231;5269;5275;5285;5307;5300;5319;5278;5358;5345;5367;5355;5375;5376;5391;5424;5415;5444;5446;5457;5453;5474;5477;5510;5506;5516;
G07;Sample X19;8520;8488;8485;8462;8431;8360;8325;8313;8305;8239;8185;8160;8147;8073;8022;7952;7871;7810;7715;7623;7565;7436;7304;7220;7097;7025;6939;6855;6729;6635;6501;6376;6267;6157;6018;5858;5740;5695;5644;5599;5496;5417;5368;5326;5307;5232;5215;5214;5123;5041;5004;4978;4911;4897;4898;4881;4874;4833;4849;4839;4862;4830;4839;4813;4831;4820;4824;4827;4809;4801;4805;4820;4843;4804;4833;4827;4863;4836;4847;4855;4845;4842;4866;4863;4875;4855;4888;4907;4902;4916;4875;4893;4906;4941;4923;4967;4988;4996;4982;5031;5047;5074;5086;5099;5110;5124;5152;5183;5227;5224;5230;5223;5273;5292;5278;5288;5333;5337;5347;5370;5389;5424;5412;5435;5423;5447;5465;5509;5481;5510;5525;5533;5569;5524;5577;5550;5582;5579;5588;5618;5644;5666;5660;5660;
G08;Sample X20;8401;8400;8380;8362;8344;8240;8234;8213;8203;8180;8100;8080;8028;8017;7935;7867;7859;7811;7697;7639;7556;7468;7366;7267;7189;7092;6979;6969;6873;6780;6671;6598;6492;6449;6351;6241;6161;6060;5979;5865;5821;5646;5623;5572;5523;5477;5414;5394;5327;5299;5254;5242;5193;5141;5121;5114;5096;5072;5066;5034;5033;4996;4966;4985;4943;4926;4921;4901;4924;4947;4907;4895;4912;4884;4908;4910;4916;4903;4945;4926;4923;4941;4945;4959;4955;4961;4953;4943;4985;4974;4982;4960;4963;5007;4990;5014;5046;5014;5022;5064;5068;5058;5086;5065;5098;5100;5112;5162;5182;5186;5204;5248;5238;5254;5254;5299;5322;5315;5369;5378;5385;5410;5404;5436;5459;5448;5480;5498;5505;5545;5564;5541;5595;5565;5581;5592;5629;5622;5641;5634;5657;5715;5705;5731;
G09;Sample X21;8453;8376;8362;8348;8334;8280;8240;8249;8222;8149;8121;8104;8066;8080;7958;7926;7894;7838;7771;7719;7659;7552;7475;7402;7323;7262;7144;7073;7058;6963;6893;6815;6715;6676;6587;6545;6441;6394;6312;6255;6210;6119;6070;5972;5930;5914;5838;5850;5782;5762;5741;5666;5642;5626;5603;5563;5545;5503;5519;5479;5470;5423;5399;5378;5379;5377;5366;5378;5365;5347;5346;5347;5329;5299;5278;5294;5311;5274;5303;5279;5307;5277;5311;5316;5318;5294;5321;5338;5320;5342;5343;5336;5316;5326;5348;5393;5388;5376;5358;5402;5378;5403;5383;5394;5406;5408;5445;5454;5475;5462;5478;5495;5481;5469;5480;5503;5498;5502;5516;5559;5529;5555;5540;5546;5530;5552;5573;5591;5579;5579;5587;5575;5631;5615;5638;5631;5655;5674;5679;5689;5679;5740;5709;5702;
G10;Sample X22;8589;8545;8487;8480;8460;8397;8409;8349;8347;8339;8268;8259;8191;8174;8127;8065;7978;7925;7873;7811;7752;7693;7585;7508;7423;7339;7222;7138;7111;7051;6986;6911;6798;6774;6686;6615;6497;6487;6412;6339;6251;6213;6163;6102;6044;6010;5936;5917;5927;5869;5828;5804;5764;5741;5715;5708;5671;5660;5628;5607;5569;5605;5580;5551;5547;5534;5552;5543;5534;5507;5529;5518;5531;5541;5571;5550;5574;5585;5548;5567;5576;5547;5623;5589;5599;5586;5604;5622;5652;5660;5647;5659;5684;5689;5719;5735;5752;5749;5775;5821;5783;5805;5828;5822;5851;5842;5904;5920;5948;5917;5937;5954;5982;5978;5978;6005;6036;6034;6009;6088;6054;6091;6080;6101;6112;6122;6170;6134;6209;6167;6233;6208;6246;6249;6242;6246;6273;6269;6305;6289;6342;6364;6355;6322;
G11;Sample X23;8410;8402;8349;8344;8308;8228;8232;8218;8196;8143;8100;8057;8049;8019;7954;7849;7829;7772;7685;7616;7527;7419;7414;7312;7234;7140;7015;6993;6924;6850;6772;6709;6610;6561;6478;6413;6342;6262;6238;6150;6050;6033;5956;5958;5889;5735;5803;5785;5713;5697;5651;5610;5636;5592;5548;5536;5559;5522;5523;5469;5479;5502;5506;5453;5486;5445;5477;5466;5476;5489;5478;5470;5498;5458;5482;5485;5500;5513;5513;5521;5549;5522;5593;5558;5586;5596;5571;5593;5607;5631;5644;5633;5661;5691;5683;5722;5693;5724;5675;5806;5763;5814;5816;5812;5840;5818;5860;5655;5883;5903;5928;5908;5937;5955;5970;5990;6029;5893;5993;6004;6054;6077;6060;6097;6070;6097;6132;6115;6143;6137;6146;6133;6192;6159;6212;6219;6220;6241;6183;6276;6240;6234;6235;6238;
G12;Sample X24;5054;5076;5080;5106;5116;5146;5147;5164;5169;5205;5237;5268;5293;5295;5334;5330;5363;5376;5361;5365;5420;5408;5430;5430;5473;5485;5490;5496;5504;5538;5559;5580;5592;5588;5591;5626;5652;5650;5647;5676;5693;5696;5747;5692;5742;5725;5698;5756;5746;5752;5749;5749;5764;5777;5762;5748;5793;5766;5804;5795;5767;5750;5743;5758;5732;5749;5714;5714;5707;5730;5733;5753;5775;5759;5806;5827;5791;5821;5805;5795;5811;5817;5849;5871;5881;5867;5903;5889;5912;5915;5917;5903;5908;5925;5967;5963;5983;5979;5980;5994;5966;6003;5982;5969;6011;5989;6011;6055;6081;6091;6094;6049;6100;6119;6121;6143;6172;6155;6156;6206;6188;6207;6184;6204;6242;6309;6298;6306;6327;6324;6352;6376;6432;6423;6452;6463;6460;6484;6480;6542;6497;6558;6555;6545;
H01;Blank B;7451;7429;7361;7370;7373;7300;7119;7251;7247;7230;6781;7142;7122;6841;7008;7081;6992;7084;6954;6784;7027;6986;6716;6678;6633;6860;6764;6828;6594;6748;6898;6707;6736;6833;6835;6729;6655;6356;6648;6486;6635;6780;6537;6589;6677;6499;6722;6601;6224;6622;6627;5686;6527;6262;6491;6473;6405;6516;5428;6530;6527;6545;6476;6347;6087;6463;6346;5783;6336;6265;6082;6325;5195;6223;6372;6317;6315;6200;6033;6261;6187;6165;6190;6162;6122;6086;6194;6076;6190;6083;6115;5993;6092;6012;6048;6039;6042;6052;6034;6023;5941;5988;5927;5968;5948;5917;5575;5957;5633;5837;5901;5874;5844;5859;5843;5816;5790;5777;5778;5687;5753;5679;5706;5685;5668;5673;5599;5474;5574;5623;5634;5591;5594;5523;5577;5549;5545;5546;5520;5460;5400;5409;5423;5455;
H02;Blank B;7621;7639;7587;7581;7569;7532;7523;7483;7404;7467;7452;7472;7420;7402;7351;7347;7313;7321;7255;7241;7210;7171;7202;7174;7167;7133;7138;7159;7109;7111;7104;7106;7083;7075;7043;7051;7046;7039;7009;6983;6972;6985;6964;6942;6934;6909;6885;6931;6872;6885;6881;6862;6825;6831;6823;6787;6787;6754;6784;6764;6740;6764;6742;6741;6731;6697;6661;6664;6652;6637;6650;6642;6600;6616;6640;6599;6574;6571;6552;6522;6574;6544;6538;6506;6521;6507;6447;6493;6456;6468;6433;6388;6404;6404;6401;6376;6373;6363;6321;6318;6307;6171;6285;6264;6265;6250;6222;6223;6227;6211;6153;6173;6176;6121;6118;6083;6077;6103;6049;6055;6051;5988;5996;5960;5959;5991;5986;5972;5944;5914;5922;5941;5931;5862;5889;5892;5849;5871;5850;5874;5804;5823;5800;5796;
H03;Blank B;7758;7733;7703;7713;7668;7626;7622;7637;7612;7598;7584;7603;7617;7624;7587;7558;7577;7599;7559;7587;7560;7486;7555;7510;7505;7522;7501;7507;7489;7500;7537;7514;7489;7463;7450;7484;7468;7456;7426;7436;7440;7438;7438;7435;7410;7374;7385;7405;7344;7349;7356;7366;7305;7364;7329;7318;7359;7311;7319;7316;7320;7326;7302;7290;7306;7312;7263;7264;7271;7278;7240;7253;7221;7219;7242;7250;7249;7211;7202;7184;7208;7191;7228;7195;7193;7172;7158;7166;7170;7148;7160;7129;7120;7127;7099;7111;7114;7097;7110;7084;7077;7114;7099;7077;7067;7075;7068;7056;7090;7049;7036;7064;7057;7049;7014;6999;7019;7011;6992;7017;6973;6962;6974;6953;6962;6961;6953;6979;6948;6955;6961;6925;6967;6925;6942;6951;6933;6934;6933;6953;6896;6892;6885;6879;
H04;Blank B;8090;8053;8035;8026;8030;7975;7968;7955;7967;7973;7973;7966;7971;7998;7944;7942;7944;7957;7924;7897;7914;7877;7903;7909;7890;7915;7897;7900;7886;7868;7885;7906;7877;7865;7883;7852;7912;7854;7848;7892;7828;7862;7852;7852;7836;7845;7852;7847;7840;7839;7852;7832;7796;7864;7810;7824;7818;7823;7817;7782;7815;7796;7800;7787;7804;7810;7786;7806;7787;7814;7775;7784;7802;7767;7830;7763;7758;7789;7768;7755;7811;7741;7742;7778;7757;7749;7755;7745;7758;7749;7747;7757;7690;7741;7718;7731;7727;7717;7685;7736;7686;7699;7691;7696;7689;7702;7669;7697;7698;7690;7676;7700;7669;7666;7679;7660;7658;7634;7639;7649;7627;7603;7639;7603;7612;7605;7596;7600;7607;7626;7599;7619;7626;7596;7609;7603;7596;7596;7618;7609;7604;7590;7592;7623;
H05;Blank B;8154;8157;8188;8170;8185;8157;8155;8161;8191;8148;8146;8160;8163;8177;8176;8184;8175;8196;8154;8199;8162;8146;8178;8173;8179;8184;8183;8143;8198;8216;8188;8184;8166;8202;8191;8207;8196;8197;8172;8157;8189;8165;8190;8168;8223;8214;8204;8222;8192;8229;8203;8206;8197;8185;8201;8203;8224;8235;8228;8211;8242;8222;8256;8237;8254;8287;8227;8212;8250;8280;8271;8247;8276;8273;8258;8268;8268;8284;8305;8272;8276;8258;8281;8298;8251;8262;8264;8248;8272;8326;8270;8262;8245;8251;8253;8299;8292;8256;8268;8253;8259;8280;8247;8241;8269;8256;8299;8258;8305;8220;8281;8267;8290;8251;8229;8223;8293;8219;8277;8264;8255;8245;8251;8261;8260;8233;8281;8259;8272;8293;8290;8246;8274;8275;8277;8265;8290;8272;8291;8329;8286;8300;8302;8260;
H06;Blank B;7887;7848;7819;7830;7813;7754;7756;7799;7747;7727;7737;7734;7728;7711;7708;7713;7677;7682;7676;7698;7674;7693;7669;7655;7637;7656;7689;7690;7627;7615;7609;7647;7638;7591;7630;7633;7636;7593;7620;7604;7603;7635;7599;7617;7625;7595;7596;7590;7594;7582;7627;7609;7601;7585;7564;7588;7617;7588;7584;7571;7581;7598;7585;7539;7587;7596;7575;7522;7595;7564;7532;7573;7552;7539;7540;7565;7562;7576;7572;7534;7581;7579;7570;7593;7572;7550;7558;7573;7547;7590;7555;7547;7514;7571;7510;7544;7566;7564;7525;7499;7500;7547;7514;7498;7499;7484;7507;7549;7533;7505;7484;7501;7497;7481;7484;7482;7478;7464;7502;7464;7451;7431;7451;7447;7461;7426;7444;7435;7437;7411;7414;7465;7462;7430;7429;7435;7437;7445;7460;7493;7432;7438;7408;7416;
H07;Blank B;7893;7847;7844;7865;7824;7801;7784;7745;7746;7744;7783;7759;7731;7734;7724;7716;7691;7710;7697;7697;7690;7701;7686;7690;7663;7680;7662;7648;7676;7671;7645;7655;7628;7650;7640;7646;7658;7658;7607;7618;7644;7647;7656;7643;7604;7592;7602;7621;7618;7592;7625;7603;7594;7603;7600;7608;7610;7567;7600;7619;7610;7609;7614;7616;7581;7602;7561;7567;7599;7593;7559;7589;7583;7587;7646;7576;7553;7584;7583;7588;7588;7577;7610;7593;7571;7587;7590;7596;7584;7585;7570;7593;7508;7565;7553;7576;7583;7539;7563;7574;7551;7562;7527;7523;7540;7547;7496;7543;7521;7518;7503;7504;7516;7516;7506;7495;7482;7519;7493;7492;7499;7482;7482;7495;7472;7458;7488;7483;7486;7483;7495;7464;7520;7467;7484;7493;7453;7506;7481;7487;7432;7452;7410;7407;
H08;Blank B;7776;7749;7697;7703;7671;7634;7640;7633;7618;7630;7594;7619;7588;7612;7600;7571;7594;7594;7598;7564;7562;7552;7573;7530;7541;7529;7571;7530;7519;7578;7552;7564;7512;7519;7527;7506;7516;7537;7534;7492;7488;7509;7504;7510;7501;7501;7446;7484;7486;7475;7465;7461;7460;7479;7507;7492;7498;7445;7452;7488;7475;7455;7468;7472;7455;7497;7469;7454;7461;7462;7418;7454;7435;7410;7473;7462;7481;7451;7468;7432;7481;7455;7469;7458;7460;7453;7442;7453;7466;7440;7447;7452;7418;7471;7443;7443;7467;7451;7464;7442;7404;7422;7441;7413;7435;7409;7439;7447;7426;7415;7425;7401;7422;7438;7409;7419;7403;7378;7352;7379;7411;7392;7379;7348;7345;7361;7369;7335;7370;7316;7383;7367;7402;7329;7357;7369;7368;7335;7360;7386;7362;7348;7328;7318;
H09;Blank B;7741;7757;7740;7704;7702;7663;7636;7662;7684;7663;7644;7654;7636;7634;7631;7631;7618;7598;7602;7603;7587;7575;7569;7562;7565;7574;7612;7597;7545;7555;7552;7575;7552;7554;7566;7548;7549;7516;7551;7544;7539;7518;7538;7529;7536;7466;7505;7511;7491;7492;7517;7480;7497;7497;7493;7488;7501;7478;7509;7503;7488;7462;7503;7481;7477;7471;7488;7465;7472;7456;7442;7453;7475;7442;7479;7470;7462;7468;7491;7452;7447;7457;7478;7474;7470;7489;7462;7454;7466;7495;7449;7456;7445;7474;7441;7458;7477;7453;7465;7483;7427;7450;7453;7415;7431;7414;7434;7451;7473;7443;7434;7423;7447;7427;7432;7403;7416;7397;7396;7396;7424;7373;7389;7361;7362;7391;7417;7404;7397;7397;7360;7358;7390;7330;7381;7371;7385;7369;7356;7385;7334;7337;7345;7350;
H10;Blank B;7908;7879;7869;7871;7855;7796;7795;7781;7792;7787;7798;7769;7778;7775;7759;7738;7734;7745;7712;7756;7735;7706;7701;7689;7703;7720;7705;7692;7696;7695;7670;7662;7667;7655;7628;7654;7678;7654;7643;7641;7643;7620;7635;7642;7620;7592;7607;7604;7566;7583;7612;7614;7561;7601;7599;7579;7589;7566;7571;7583;7539;7532;7551;7549;7531;7553;7538;7528;7526;7532;7510;7501;7515;7522;7522;7509;7488;7487;7492;7481;7507;7490;7484;7494;7494;7507;7486;7489;7497;7497;7475;7484;7469;7476;7461;7461;7450;7479;7482;7461;7462;7492;7434;7453;7449;7410;7454;7466;7452;7446;7432;7426;7450;7446;7418;7414;7438;7422;7410;7394;7421;7389;7383;7373;7376;7375;7363;7387;7431;7356;7365;7356;7371;7345;7350;7323;7333;7356;7374;7354;7311;7331;7302;7283;
H11;Blank B;7744;7720;7688;7679;7668;7599;7656;7613;7646;7601;7596;7619;7609;7600;7573;7582;7557;7556;7522;7511;7516;7519;7522;7498;7529;7475;7453;7467;7468;7469;7449;7464;7442;7407;7424;7401;7410;7388;7389;7360;7358;7377;7337;7357;7351;7304;7296;7312;7294;7306;7277;7269;7232;7288;7266;7241;7227;7225;7210;7237;7203;7207;7207;7189;7164;7184;7155;7139;7155;7134;7137;7103;7089;7107;7105;7103;7060;7073;7079;7032;7040;7036;7069;7029;7043;7023;7026;7003;7005;6990;6973;6981;6929;6951;6944;6922;6940;6922;6929;6929;6903;6896;6889;6880;6869;6855;6844;6857;6854;6841;6812;6826;6841;6813;6813;6782;6769;6778;6770;6760;6740;6704;6710;6702;6705;6714;6701;6661;6680;6671;6665;6672;6672;6614;6645;6639;6618;6619;6612;6595;6561;6525;6551;6519;
