User: USER;Path: C:\Program Files\BMG\OPTIMA\User\Data\;Test run no.: 8328
Test name: ABS ECOLI;Date: 2018-04-18;Time: 5:15:52 PM
ID1: 20180418_ecoli_topA  1;ID2: Absorbance;
Absorbance

Well Row;;A;A;A;A;A;A;A;A;A;A;A;A;B;B;B;B;B;B;B;B;B;B;B;B;C;C;C;C;C;C;C;C;C;C;C;C;D;D;D;D;D;D;D;D;D;D;D;D;E;E;E;E;E;E;E;E;E;E;E;E;F;F;F;F;F;F;F;F;F;F;F;F;G;G;G;G;G;G;G;G;G;G;G;G;H;H;H;H;H;H;H;H;H;H;H;H
Well Col;;1;2;3;4;5;6;7;8;9;10;11;12;1;2;3;4;5;6;7;8;9;10;11;12;1;2;3;4;5;6;7;8;9;10;11;12;1;2;3;4;5;6;7;8;9;10;11;12;1;2;3;4;5;6;7;8;9;10;11;12;1;2;3;4;5;6;7;8;9;10;11;12;1;2;3;4;5;6;7;8;9;10;11;12;1;2;3;4;5;6;7;8;9;10;11;12
Content;Time [s];Sample X1;Sample X2;Sample X3;Sample X4;Sample X5;Sample X6;Sample X7;Sample X8;Sample X9;Sample X10;Sample X11;Sample X12;Sample X1;Sample X2;Sample X3;Sample X4;Sample X5;Sample X6;Sample X7;Sample X8;Sample X9;Sample X10;Sample X11;Sample X12;Sample X1;Sample X2;Sample X3;Sample X4;Sample X5;Sample X6;Sample X7;Sample X8;Sample X9;Sample X10;Sample X11;Sample X12;Sample X1;Sample X2;Sample X3;Sample X4;Sample X5;Sample X6;Sample X7;Sample X8;Sample X9;Sample X10;Sample X11;Sample X12;Sample X1;Sample X2;Sample X3;Sample X4;Sample X5;Sample X6;Sample X7;Sample X8;Sample X9;Sample X10;Sample X11;Sample X12;Sample X1;Sample X2;Sample X3;Sample X4;Sample X5;Sample X6;Sample X7;Sample X8;Sample X9;Sample X10;Sample X11;Sample X12;Sample X1;Sample X2;Sample X3;Sample X4;Sample X5;Sample X6;Sample X7;Sample X8;Sample X9;Sample X10;Sample X11;Sample X12;Blank B;Blank B;Blank B;Blank B;Blank B;Blank B;Blank B;Blank B;Blank B;Blank B;Blank B;Blank B
Raw Data (584);0;0.601;0.58;0.595;0.593;0.602;0.582;0.626;0.635;0.636;0.631;0.601;0.584;0.586;0.552;0.577;0.581;0.585;0.586;0.606;0.593;0.606;0.592;0.61;0.602;0.574;0.578;0.596;0.598;0.596;0.613;0.635;0.631;0.603;0.592;0.61;0.62;0.609;0.584;0.606;0.595;0.587;0.592;0.639;0.618;0.621;0.604;0.645;0.624;0.616;0.604;0.627;0.642;0.644;0.646;0.661;0.679;0.671;0.647;0.636;0.635;0.599;0.584;0.6;0.595;0.618;0.601;0.605;0.616;0.628;0.607;0.606;0.62;0.584;0.588;0.583;0.596;0.606;0.613;0.596;0.641;0.616;0.591;0.619;0.63;0.478;0.541;0.504;0.507;0.495;0.494;0.521;0.525;0.54;0.517;0.547;0.535
Raw Data (584);611;0.601;0.573;0.595;0.595;0.604;0.599;0.637;0.645;0.639;0.633;0.708;0.608;0.579;0.537;0.56;0.587;0.583;0.574;0.609;0.598;0.593;0.579;0.607;0.608;0.571;0.572;0.584;0.595;0.59;0.62;0.635;0.621;0.59;0.588;0.601;0.622;0.609;0.571;0.604;0.598;0.589;0.596;0.646;0.627;0.613;0.597;0.642;0.618;0.611;0.605;0.622;0.637;0.633;0.641;0.649;0.673;0.664;0.635;0.621;0.62;0.584;0.585;0.598;0.591;0.61;0.593;0.605;0.619;0.628;0.605;0.596;0.614;0.579;0.584;0.578;0.594;0.603;0.592;0.595;0.642;0.605;0.589;0.614;0.611;0.474;0.531;0.49;0.493;0.494;0.49;0.511;0.522;0.529;0.515;0.533;0.52
Raw Data (584);1222;0.626;0.589;0.612;0.621;0.623;0.61;0.659;0.663;0.659;0.65;0.65;0.613;0.6;0.55;0.573;0.585;0.588;0.592;0.62;0.602;0.604;0.587;0.617;0.619;0.6;0.585;0.6;0.609;0.599;0.626;0.649;0.643;0.612;0.604;0.621;0.643;0.632;0.594;0.615;0.612;0.61;0.61;0.676;0.646;0.625;0.616;0.641;0.632;0.623;0.629;0.643;0.665;0.652;0.662;0.666;0.696;0.679;0.664;0.64;0.636;0.615;0.598;0.609;0.622;0.621;0.617;0.625;0.629;0.634;0.624;0.615;0.644;0.597;0.607;0.604;0.611;0.624;0.613;0.61;0.648;0.624;0.61;0.619;0.615;0.491;0.557;0.502;0.509;0.49;0.496;0.511;0.527;0.542;0.523;0.549;0.531
Raw Data (584);1833;0.638;0.598;0.62;0.611;0.626;0.615;0.679;0.665;0.663;0.646;0.705;0.621;0.609;0.566;0.577;0.588;0.59;0.595;0.639;0.611;0.615;0.587;0.623;0.612;0.603;0.589;0.612;0.616;0.599;0.618;0.659;0.653;0.616;0.601;0.625;0.641;0.642;0.592;0.611;0.616;0.604;0.628;0.697;0.648;0.628;0.624;0.653;0.633;0.642;0.636;0.646;0.668;0.662;0.666;0.676;0.706;0.694;0.664;0.644;0.643;0.622;0.621;0.627;0.623;0.628;0.627;0.637;0.643;0.652;0.63;0.619;0.642;0.616;0.613;0.62;0.625;0.633;0.636;0.624;0.66;0.64;0.608;0.635;0.629;0.487;0.547;0.488;0.499;0.506;0.494;0.526;0.523;0.538;0.516;0.541;0.534
Raw Data (584);2444;0.66;0.599;0.617;0.625;0.625;0.619;0.711;0.678;0.662;0.645;0.602;0.629;0.637;0.574;0.578;0.592;0.593;0.598;0.656;0.623;0.621;0.592;0.62;0.618;0.624;0.596;0.611;0.606;0.606;0.631;0.678;0.652;0.617;0.597;0.62;0.631;0.652;0.606;0.613;0.615;0.618;0.617;0.704;0.659;0.639;0.622;0.649;0.639;0.657;0.656;0.672;0.686;0.684;0.698;0.69;0.724;0.7;0.677;0.663;0.652;0.644;0.643;0.65;0.643;0.664;0.645;0.652;0.662;0.675;0.645;0.641;0.649;0.63;0.634;0.642;0.653;0.655;0.653;0.637;0.676;0.657;0.635;0.635;0.644;0.482;0.546;0.494;0.502;0.501;0.493;0.525;0.532;0.53;0.515;0.543;0.531
Raw Data (584);3055;0.701;0.611;0.638;0.639;0.63;0.634;0.738;0.701;0.677;0.652;0.664;0.64;0.668;0.592;0.602;0.609;0.6;0.611;0.706;0.643;0.639;0.609;0.638;0.622;0.661;0.617;0.631;0.63;0.616;0.644;0.725;0.662;0.639;0.608;0.643;0.639;0.7;0.621;0.633;0.638;0.621;0.632;0.748;0.678;0.658;0.629;0.668;0.644;0.683;0.695;0.716;0.716;0.716;0.723;0.727;0.751;0.738;0.712;0.689;0.686;0.676;0.689;0.683;0.679;0.696;0.681;0.688;0.693;0.702;0.675;0.666;0.685;0.654;0.684;0.686;0.686;0.689;0.698;0.675;0.72;0.69;0.668;0.66;0.674;0.497;0.56;0.507;0.514;0.512;0.509;0.533;0.528;0.55;0.523;0.542;0.526
Raw Data (584);3667;0.73;0.617;0.643;0.64;0.623;0.626;0.776;0.703;0.679;0.649;0.667;0.641;0.696;0.6;0.595;0.61;0.604;0.607;0.743;0.651;0.633;0.603;0.64;0.617;0.692;0.618;0.623;0.634;0.614;0.63;0.761;0.671;0.634;0.614;0.646;0.635;0.715;0.623;0.627;0.638;0.627;0.628;0.786;0.68;0.643;0.629;0.672;0.649;0.705;0.713;0.737;0.74;0.751;0.765;0.75;0.775;0.765;0.734;0.713;0.702;0.693;0.708;0.723;0.697;0.715;0.713;0.724;0.718;0.727;0.696;0.689;0.705;0.694;0.706;0.712;0.712;0.723;0.723;0.694;0.74;0.721;0.683;0.695;0.72;0.492;0.549;0.506;0.507;0.512;0.493;0.537;0.524;0.545;0.531;0.545;0.541
Raw Data (584);4278;0.769;0.619;0.639;0.635;0.62;0.626;0.829;0.703;0.669;0.64;0.644;0.637;0.734;0.604;0.613;0.61;0.596;0.601;0.789;0.655;0.634;0.611;0.637;0.625;0.727;0.62;0.626;0.626;0.611;0.625;0.811;0.682;0.638;0.609;0.637;0.634;0.77;0.637;0.631;0.639;0.61;0.618;0.835;0.692;0.66;0.621;0.662;0.639;0.739;0.742;0.769;0.783;0.776;0.803;0.797;0.82;0.802;0.762;0.736;0.754;0.731;0.744;0.759;0.743;0.756;0.749;0.752;0.745;0.757;0.73;0.715;0.743;0.717;0.746;0.739;0.746;0.761;0.765;0.74;0.776;0.749;0.705;0.725;0.761;0.491;0.559;0.503;0.51;0.506;0.507;0.534;0.529;0.541;0.529;0.545;0.54
Raw Data (584);4888;0.84;0.645;0.648;0.643;0.625;0.619;0.896;0.723;0.678;0.653;0.703;0.643;0.787;0.621;0.609;0.627;0.617;0.607;0.851;0.66;0.649;0.612;0.641;0.621;0.778;0.637;0.629;0.642;0.62;0.633;0.868;0.686;0.641;0.622;0.642;0.654;0.811;0.642;0.637;0.65;0.62;0.635;0.898;0.694;0.664;0.636;0.665;0.642;0.783;0.798;0.834;0.838;0.839;0.855;0.844;0.864;0.847;0.806;0.787;0.801;0.779;0.802;0.807;0.8;0.816;0.82;0.795;0.803;0.818;0.767;0.762;0.79;0.769;0.79;0.797;0.799;0.8;0.81;0.784;0.823;0.802;0.76;0.762;0.782;0.496;0.558;0.507;0.503;0.51;0.501;0.537;0.523;0.545;0.53;0.548;0.538
Raw Data (584);5502;0.914;0.663;0.656;0.658;0.626;0.627;0.974;0.73;0.688;0.645;0.65;0.64;0.858;0.637;0.628;0.632;0.617;0.616;0.926;0.682;0.652;0.611;0.65;0.62;0.837;0.652;0.644;0.658;0.617;0.626;0.949;0.704;0.655;0.622;0.648;0.637;0.874;0.66;0.648;0.66;0.617;0.631;0.972;0.709;0.67;0.641;0.672;0.653;0.837;0.859;0.898;0.897;0.901;0.929;0.911;0.928;0.907;0.873;0.841;0.863;0.84;0.868;0.887;0.858;0.88;0.875;0.868;0.865;0.876;0.827;0.816;0.855;0.819;0.855;0.87;0.857;0.879;0.882;0.855;0.883;0.871;0.802;0.821;0.883;0.493;0.542;0.513;0.509;0.51;0.504;0.53;0.523;0.539;0.524;0.547;0.542
Raw Data (584);6112;1.005;0.666;0.668;0.66;0.633;0.633;1.059;0.742;0.698;0.651;0.661;0.646;0.93;0.647;0.611;0.638;0.613;0.623;1.019;0.697;0.658;0.615;0.652;0.63;0.916;0.656;0.646;0.658;0.624;0.635;1.026;0.718;0.659;0.624;0.645;0.646;0.946;0.664;0.645;0.668;0.619;0.63;1.053;0.723;0.667;0.636;0.678;0.648;0.893;0.927;0.98;0.975;0.969;1.011;0.976;1.006;0.98;0.926;0.91;0.94;0.909;0.936;0.96;0.94;0.96;0.959;0.938;0.942;0.945;0.892;0.874;0.916;0.887;0.925;0.931;0.924;0.943;0.953;0.919;0.95;0.928;0.865;0.88;0.938;0.492;0.556;0.515;0.507;0.512;0.505;0.526;0.529;0.54;0.519;0.537;0.538
Raw Data (584);6723;1.103;0.688;0.672;0.672;0.628;0.621;1.153;0.754;0.704;0.649;0.661;0.648;1.019;0.657;0.631;0.642;0.615;0.61;1.11;0.713;0.671;0.612;0.663;0.627;0.998;0.675;0.653;0.656;0.635;0.631;1.128;0.73;0.666;0.632;0.649;0.642;1.027;0.678;0.656;0.665;0.622;0.64;1.156;0.742;0.673;0.633;0.673;0.646;0.98;1.012;1.076;1.043;1.069;1.102;1.063;1.093;1.076;1.015;0.988;1.028;0.987;1.04;1.044;1.023;1.042;1.047;1.025;1.028;1.03;0.967;0.959;1.016;0.966;1.03;1.038;1.01;1.029;1.044;1.009;1.032;1.01;0.945;0.957;0.986;0.491;0.56;0.494;0.505;0.503;0.495;0.521;0.53;0.534;0.521;0.54;0.532
Raw Data (584);7333;1.167;0.706;0.674;0.674;0.625;0.622;1.223;0.778;0.719;0.651;0.633;0.646;1.073;0.683;0.647;0.659;0.615;0.622;1.168;0.735;0.688;0.629;0.66;0.633;1.064;0.689;0.67;0.684;0.615;0.638;1.199;0.764;0.68;0.642;0.645;0.651;1.095;0.706;0.665;0.689;0.626;0.64;1.219;0.775;0.689;0.638;0.686;0.653;1.063;1.11;1.152;1.153;1.161;1.2;1.143;1.187;1.163;1.11;1.077;1.11;1.064;1.115;1.145;1.12;1.151;1.151;1.123;1.119;1.131;1.062;1.045;1.104;1.042;1.108;1.129;1.114;1.143;1.141;1.091;1.13;1.108;1.034;1.042;1.093;0.488;0.546;0.511;0.516;0.513;0.501;0.54;0.531;0.546;0.525;0.539;0.537
Raw Data (584);7943;1.226;0.739;0.69;0.686;0.642;0.632;1.291;0.808;0.727;0.657;0.675;0.657;1.153;0.706;0.657;0.67;0.623;0.629;1.254;0.76;0.696;0.641;0.678;0.642;1.131;0.708;0.689;0.695;0.64;0.649;1.267;0.782;0.68;0.634;0.664;0.649;1.179;0.714;0.68;0.698;0.635;0.646;1.287;0.781;0.7;0.646;0.681;0.652;1.114;1.161;1.219;1.21;1.222;1.263;1.217;1.235;1.223;1.194;1.171;1.202;1.134;1.195;1.221;1.191;1.208;1.215;1.178;1.187;1.193;1.147;1.138;1.17;1.104;1.178;1.196;1.188;1.204;1.217;1.154;1.188;1.176;1.114;1.142;1.173;0.495;0.562;0.508;0.518;0.514;0.501;0.529;0.531;0.535;0.53;0.547;0.542
Raw Data (584);8554;1.302;0.757;0.699;0.709;0.645;0.64;1.359;0.835;0.739;0.665;0.661;0.659;1.23;0.724;0.677;0.681;0.625;0.638;1.315;0.793;0.709;0.642;0.687;0.65;1.216;0.735;0.695;0.708;0.636;0.649;1.346;0.809;0.704;0.643;0.669;0.662;1.257;0.738;0.691;0.717;0.633;0.649;1.347;0.815;0.714;0.654;0.691;0.666;1.193;1.236;1.297;1.283;1.28;1.324;1.278;1.297;1.29;1.241;1.242;1.27;1.205;1.258;1.288;1.259;1.275;1.292;1.246;1.242;1.263;1.212;1.198;1.247;1.194;1.256;1.27;1.248;1.277;1.277;1.225;1.256;1.247;1.159;1.21;1.222;0.497;0.579;0.517;0.509;0.52;0.507;0.537;0.528;0.545;0.53;0.546;0.537
Raw Data (584);9165;1.357;0.776;0.711;0.719;0.65;0.634;1.429;0.871;0.762;0.662;0.642;0.656;1.29;0.743;0.682;0.696;0.623;0.635;1.39;0.81;0.728;0.643;0.693;0.643;1.295;0.752;0.709;0.722;0.638;0.651;1.411;0.838;0.716;0.649;0.672;0.668;1.325;0.755;0.684;0.717;0.626;0.647;1.416;0.841;0.728;0.652;0.687;0.652;1.26;1.303;1.363;1.347;1.36;1.39;1.351;1.358;1.358;1.31;1.31;1.338;1.276;1.336;1.361;1.321;1.343;1.365;1.317;1.304;1.324;1.272;1.272;1.31;1.251;1.335;1.334;1.31;1.339;1.339;1.286;1.331;1.305;1.245;1.279;1.287;0.496;0.55;0.509;0.515;0.517;0.51;0.528;0.53;0.542;0.525;0.548;0.539
Raw Data (584);9777;1.433;0.812;0.73;0.733;0.65;0.631;1.489;0.901;0.781;0.675;0.648;0.662;1.38;0.773;0.695;0.708;0.638;0.642;1.456;0.868;0.753;0.66;0.701;0.643;1.374;0.781;0.728;0.744;0.645;0.656;1.483;0.88;0.738;0.664;0.68;0.665;1.41;0.789;0.713;0.743;0.642;0.662;1.493;0.867;0.75;0.672;0.708;0.663;1.336;1.383;1.443;1.415;1.428;1.45;1.408;1.441;1.438;1.379;1.371;1.41;1.354;1.4;1.439;1.406;1.419;1.436;1.39;1.386;1.398;1.349;1.343;1.391;1.337;1.4;1.417;1.39;1.404;1.419;1.383;1.393;1.386;1.305;1.342;1.367;0.509;0.58;0.512;0.515;0.514;0.505;0.537;0.532;0.544;0.526;0.547;0.547
Raw Data (584);10387;1.492;0.832;0.727;0.743;0.644;0.64;1.561;0.941;0.803;0.676;0.698;0.668;1.447;0.799;0.71;0.718;0.632;0.627;1.541;0.89;0.769;0.665;0.701;0.649;1.439;0.795;0.736;0.74;0.645;0.651;1.551;0.907;0.747;0.648;0.681;0.659;1.474;0.795;0.711;0.755;0.633;0.651;1.549;0.916;0.754;0.674;0.704;0.658;1.409;1.452;1.508;1.481;1.487;1.532;1.467;1.498;1.487;1.442;1.429;1.476;1.422;1.472;1.51;1.466;1.494;1.494;1.456;1.449;1.465;1.401;1.407;1.444;1.408;1.476;1.474;1.452;1.48;1.487;1.443;1.46;1.462;1.382;1.407;1.431;0.497;0.537;0.507;0.526;0.509;0.51;0.534;0.519;0.546;0.527;0.526;0.531
Raw Data (584);10999;1.549;0.853;0.749;0.755;0.646;0.636;1.625;0.977;0.817;0.679;0.661;0.661;1.506;0.805;0.711;0.731;0.636;0.648;1.599;0.936;0.784;0.659;0.71;0.646;1.501;0.822;0.748;0.754;0.653;0.653;1.613;0.952;0.77;0.674;0.678;0.668;1.53;0.825;0.72;0.758;0.639;0.654;1.625;0.952;0.763;0.672;0.712;0.653;1.461;1.512;1.572;1.553;1.556;1.59;1.53;1.552;1.547;1.491;1.511;1.546;1.503;1.533;1.565;1.536;1.567;1.564;1.523;1.527;1.528;1.461;1.461;1.516;1.474;1.538;1.565;1.523;1.549;1.552;1.521;1.536;1.534;1.445;1.474;1.506;0.495;0.548;0.512;0.509;0.51;0.508;0.535;0.519;0.534;0.519;0.543;0.546
Raw Data (584);11610;1.619;0.869;0.769;0.772;0.652;0.647;1.691;1.032;0.837;0.687;0.696;0.654;1.578;0.841;0.734;0.737;0.641;0.645;1.661;0.975;0.812;0.681;0.731;0.646;1.566;0.848;0.769;0.788;0.657;0.666;1.698;1.003;0.801;0.685;0.704;0.656;1.608;0.86;0.738;0.772;0.641;0.656;1.697;1.001;0.794;0.689;0.719;0.658;1.527;1.584;1.63;1.619;1.622;1.666;1.604;1.625;1.619;1.571;1.566;1.606;1.56;1.605;1.627;1.615;1.631;1.628;1.597;1.594;1.604;1.537;1.536;1.591;1.546;1.613;1.621;1.602;1.62;1.627;1.58;1.612;1.599;1.522;1.552;1.571;0.5;0.56;0.503;0.506;0.507;0.499;0.539;0.533;0.536;0.527;0.538;0.55
Raw Data (584);12222;1.697;0.918;0.805;0.8;0.663;0.652;1.761;1.075;0.87;0.705;0.711;0.675;1.648;0.873;0.754;0.764;0.647;0.648;1.746;1.033;0.836;0.688;0.765;0.658;1.632;0.887;0.789;0.803;0.661;0.686;1.763;1.039;0.841;0.696;0.717;0.667;1.673;0.886;0.751;0.803;0.651;0.672;1.777;1.057;0.816;0.708;0.733;0.665;1.613;1.661;1.705;1.688;1.687;1.733;1.678;1.709;1.694;1.638;1.655;1.688;1.635;1.673;1.713;1.67;1.698;1.7;1.673;1.676;1.684;1.614;1.61;1.661;1.627;1.694;1.695;1.665;1.691;1.719;1.658;1.694;1.676;1.595;1.623;1.657;0.496;0.526;0.516;0.524;0.516;0.516;0.535;0.539;0.547;0.537;0.549;0.547
Raw Data (584);12833;1.746;0.939;0.813;0.809;0.665;0.651;1.832;1.115;0.896;0.707;0.743;0.673;1.708;0.896;0.767;0.786;0.654;0.665;1.808;1.057;0.875;0.695;0.761;0.656;1.694;0.911;0.817;0.815;0.671;0.683;1.831;1.096;0.846;0.712;0.729;0.671;1.735;0.912;0.767;0.817;0.661;0.678;1.838;1.097;0.836;0.71;0.738;0.659;1.68;1.708;1.764;1.75;1.754;1.795;1.748;1.772;1.752;1.688;1.721;1.755;1.701;1.735;1.779;1.74;1.763;1.767;1.754;1.755;1.74;1.673;1.666;1.722;1.696;1.763;1.768;1.749;1.768;1.792;1.738;1.763;1.732;1.672;1.703;1.701;0.499;0.576;0.513;0.514;0.516;0.512;0.543;0.531;0.543;0.532;0.546;0.542
Raw Data (584);13445;1.821;0.971;0.828;0.826;0.668;0.655;1.894;1.153;0.925;0.711;0.713;0.676;1.779;0.927;0.789;0.796;0.659;0.667;1.866;1.086;0.878;0.692;0.763;0.654;1.76;0.939;0.83;0.835;0.677;0.687;1.903;1.146;0.866;0.723;0.732;0.677;1.815;0.933;0.783;0.841;0.669;0.673;1.893;1.144;0.854;0.707;0.741;0.667;1.738;1.779;1.829;1.821;1.812;1.859;1.803;1.839;1.832;1.752;1.782;1.836;1.768;1.81;1.853;1.808;1.836;1.846;1.825;1.821;1.819;1.742;1.742;1.788;1.765;1.83;1.83;1.822;1.831;1.872;1.811;1.847;1.803;1.746;1.767;1.779;0.505;0.574;0.521;0.523;0.52;0.507;0.551;0.541;0.539;0.53;0.559;0.546
Raw Data (584);14056;1.888;0.987;0.843;0.84;0.665;0.653;1.961;1.194;0.93;0.702;0.727;0.665;1.819;0.958;0.802;0.813;0.658;0.666;1.935;1.134;0.898;0.695;0.758;0.655;1.81;0.961;0.855;0.853;0.685;0.687;1.959;1.189;0.883;0.709;0.719;0.663;1.867;0.955;0.79;0.84;0.662;0.675;1.958;1.177;0.848;0.71;0.741;0.652;1.808;1.842;1.883;1.883;1.867;1.92;1.872;1.897;1.895;1.818;1.862;1.89;1.834;1.865;1.919;1.872;1.906;1.916;1.911;1.893;1.888;1.805;1.805;1.848;1.825;1.882;1.91;1.888;1.899;1.92;1.883;1.9;1.868;1.802;1.842;1.839;0.492;0.533;0.521;0.517;0.509;0.507;0.532;0.54;0.542;0.527;0.547;0.539
Raw Data (584);14671;1.943;1.013;0.864;0.864;0.667;0.663;2.017;1.214;0.935;0.706;0.749;0.666;1.897;0.986;0.817;0.834;0.672;0.668;2.012;1.144;0.926;0.702;0.758;0.658;1.863;0.993;0.859;0.88;0.683;0.703;2.037;1.237;0.907;0.714;0.721;0.656;1.927;0.984;0.817;0.861;0.66;0.686;2.023;1.201;0.877;0.717;0.736;0.659;1.867;1.907;1.957;1.942;1.941;1.982;1.942;1.964;1.957;1.886;1.941;1.954;1.897;1.922;1.986;1.95;1.974;1.993;1.966;1.97;1.951;1.881;1.874;1.922;1.903;1.958;1.986;1.959;1.958;2.006;1.958;1.962;1.929;1.879;1.909;1.911;0.508;0.569;0.513;0.527;0.521;0.508;0.548;0.533;0.546;0.536;0.547;0.542
Raw Data (584);15283;1.994;1.035;0.88;0.87;0.673;0.664;2.068;1.216;0.931;0.703;0.714;0.657;1.962;1.004;0.827;0.857;0.679;0.682;2.064;1.159;0.924;0.708;0.747;0.654;1.921;1.007;0.888;0.891;0.694;0.693;2.086;1.268;0.907;0.7;0.728;0.656;1.992;1.016;0.832;0.892;0.687;0.701;2.099;1.24;0.873;0.706;0.732;0.659;1.921;1.975;2.007;2.012;1.988;2.063;2.001;2.024;2.02;1.952;1.996;2.026;1.951;1.986;2.046;2.006;2.035;2.051;2.038;2.042;2.032;1.943;1.935;1.99;1.959;2.022;2.043;2.027;2.033;2.07;2.034;2.043;1.994;1.949;1.981;1.968;0.5;0.555;0.513;0.517;0.51;0.514;0.548;0.54;0.547;0.524;0.549;0.551
Raw Data (584);15895;2.042;1.047;0.892;0.87;0.675;0.654;2.107;1.202;0.933;0.69;0.691;0.648;1.993;1.021;0.833;0.849;0.666;0.679;2.118;1.198;0.915;0.686;0.73;0.639;1.973;1.034;0.905;0.913;0.698;0.697;2.139;1.292;0.899;0.705;0.719;0.646;2.03;1.034;0.833;0.898;0.681;0.676;2.14;1.246;0.878;0.702;0.724;0.646;1.974;2.015;2.061;2.064;2.047;2.098;2.059;2.082;2.083;2.019;2.065;2.086;1.994;2.027;2.092;2.066;2.095;2.115;2.089;2.115;2.086;2.008;1.999;2.03;2.004;2.062;2.096;2.075;2.076;2.12;2.081;2.094;2.049;2.005;2.042;2.022;0.502;0.546;0.507;0.515;0.524;0.5;0.525;0.535;0.541;0.527;0.548;0.536
Raw Data (584);16505;2.079;1.061;0.909;0.885;0.67;0.664;2.144;1.224;0.929;0.693;0.708;0.656;2.04;1.043;0.85;0.873;0.681;0.684;2.147;1.194;0.931;0.687;0.734;0.632;2.017;1.059;0.922;0.906;0.7;0.706;2.186;1.296;0.897;0.694;0.705;0.646;2.078;1.045;0.848;0.916;0.691;0.694;2.188;1.249;0.876;0.693;0.707;0.647;2.017;2.067;2.111;2.107;2.097;2.141;2.106;2.127;2.121;2.069;2.126;2.145;2.048;2.088;2.162;2.123;2.149;2.165;2.149;2.172;2.152;2.067;2.065;2.097;2.058;2.129;2.149;2.132;2.136;2.18;2.142;2.164;2.101;2.063;2.098;2.076;0.51;0.564;0.52;0.514;0.514;0.505;0.548;0.531;0.552;0.529;0.554;0.548
Raw Data (584);17117;2.11;1.087;0.918;0.891;0.691;0.654;2.198;1.224;0.918;0.691;0.692;0.643;2.085;1.055;0.868;0.878;0.676;0.684;2.19;1.198;0.927;0.681;0.725;0.639;2.057;1.067;0.926;0.918;0.704;0.707;2.224;1.36;0.946;0.682;0.698;0.644;2.104;1.072;0.86;0.923;0.691;0.705;2.232;1.27;0.877;0.684;0.707;0.642;2.065;2.115;2.153;2.156;2.136;2.201;2.168;2.192;2.174;2.135;2.176;2.206;2.084;2.131;2.21;2.174;2.2;2.215;2.221;2.236;2.214;2.134;2.124;2.163;2.092;2.165;2.195;2.187;2.192;2.233;2.198;2.213;2.157;2.124;2.157;2.123;0.499;0.558;0.521;0.519;0.516;0.513;0.541;0.518;0.546;0.534;0.555;0.538
Raw Data (584);17728;2.146;1.098;0.926;0.907;0.685;0.659;2.237;1.251;0.922;0.682;0.671;0.64;2.123;1.078;0.878;0.899;0.676;0.684;2.22;1.196;0.929;0.669;0.707;0.627;2.09;1.096;0.942;0.945;0.702;0.711;2.266;1.306;0.914;0.678;0.679;0.625;2.139;1.079;0.871;0.938;0.684;0.693;2.26;1.277;0.857;0.681;0.696;0.633;2.094;2.139;2.187;2.198;2.176;2.237;2.209;2.231;2.227;2.195;2.223;2.259;2.13;2.168;2.225;2.212;2.24;2.259;2.25;2.276;2.25;2.185;2.179;2.192;2.131;2.205;2.222;2.228;2.232;2.268;2.244;2.266;2.194;2.175;2.208;2.16;0.495;0.561;0.509;0.518;0.514;0.506;0.539;0.528;0.527;0.526;0.551;0.548
Raw Data (584);18340;2.179;1.103;0.927;0.917;0.681;0.661;2.267;1.255;0.923;0.687;0.686;0.641;2.153;1.103;0.886;0.901;0.692;0.682;2.268;1.21;0.942;0.672;0.715;0.632;2.134;1.114;0.95;0.958;0.709;0.711;2.313;1.395;0.91;0.689;0.68;0.644;2.191;1.113;0.895;0.953;0.698;0.696;2.318;1.296;0.861;0.684;0.696;0.636;2.137;2.191;2.234;2.247;2.208;2.29;2.253;2.28;2.277;2.26;2.292;2.302;2.166;2.199;2.284;2.252;2.283;2.303;2.3;2.332;2.295;2.252;2.229;2.246;2.187;2.247;2.267;2.281;2.27;2.304;2.291;2.311;2.26;2.23;2.261;2.207;0.516;0.558;0.519;0.518;0.521;0.502;0.552;0.53;0.552;0.533;0.55;0.549
Raw Data (584);18952;2.213;1.119;0.934;0.92;0.688;0.665;2.311;1.262;0.922;0.681;0.68;0.639;2.196;1.101;0.886;0.916;0.689;0.688;2.305;1.219;0.937;0.674;0.695;0.633;2.174;1.128;0.953;0.956;0.712;0.719;2.351;1.354;0.915;0.67;0.673;0.638;2.228;1.118;0.896;0.964;0.707;0.708;2.354;1.306;0.856;0.684;0.687;0.64;2.185;2.236;2.273;2.279;2.248;2.335;2.295;2.328;2.311;2.307;2.348;2.346;2.212;2.24;2.337;2.303;2.328;2.35;2.342;2.369;2.337;2.297;2.283;2.291;2.211;2.284;2.308;2.319;2.304;2.354;2.332;2.362;2.296;2.261;2.299;2.252;0.508;0.564;0.523;0.52;0.523;0.519;0.54;0.532;0.54;0.535;0.552;0.548
Raw Data (584);19563;2.251;1.127;0.938;0.916;0.685;0.663;2.343;1.259;0.926;0.676;0.679;0.634;2.228;1.118;0.886;0.932;0.696;0.691;2.346;1.221;0.945;0.658;0.697;0.621;2.209;1.127;0.968;0.956;0.71;0.715;2.392;1.352;0.908;0.666;0.677;0.635;2.257;1.137;0.9;0.963;0.701;0.706;2.4;1.286;0.863;0.677;0.689;0.631;2.217;2.267;2.299;2.317;2.289;2.37;2.339;2.37;2.365;2.367;2.393;2.391;2.253;2.273;2.369;2.344;2.364;2.384;2.385;2.426;2.381;2.349;2.318;2.319;2.26;2.318;2.34;2.347;2.335;2.389;2.379;2.405;2.347;2.301;2.337;2.294;0.501;0.563;0.517;0.522;0.524;0.5;0.546;0.532;0.546;0.535;0.546;0.537
Raw Data (584);20175;2.275;1.119;0.938;0.912;0.688;0.659;2.379;1.271;0.926;0.678;0.675;0.628;2.276;1.119;0.894;0.919;0.684;0.689;2.392;1.229;0.958;0.648;0.681;0.61;2.236;1.157;0.96;0.974;0.714;0.717;2.417;1.36;0.91;0.672;0.676;0.637;2.297;1.13;0.904;0.964;0.694;0.709;2.416;1.367;0.849;0.665;0.68;0.627;2.258;2.281;2.331;2.357;2.317;2.396;2.379;2.413;2.401;2.409;2.43;2.433;2.279;2.311;2.4;2.373;2.398;2.425;2.428;2.459;2.427;2.406;2.357;2.348;2.297;2.358;2.374;2.385;2.374;2.441;2.425;2.439;2.385;2.34;2.365;2.337;0.498;0.565;0.512;0.516;0.522;0.505;0.532;0.53;0.54;0.53;0.55;0.544
Raw Data (584);20785;2.322;1.134;0.94;0.922;0.685;0.657;2.426;1.288;0.948;0.674;0.684;0.632;2.298;1.142;0.887;0.924;0.69;0.684;2.427;1.256;0.961;0.661;0.687;0.628;2.289;1.136;0.952;0.975;0.711;0.727;2.469;1.397;0.905;0.672;0.67;0.642;2.332;1.142;0.897;0.975;0.702;0.7;2.46;1.342;0.86;0.67;0.681;0.629;2.298;2.327;2.372;2.396;2.363;2.437;2.422;2.462;2.452;2.458;2.478;2.465;2.319;2.36;2.45;2.404;2.433;2.464;2.473;2.511;2.475;2.443;2.412;2.4;2.331;2.397;2.421;2.426;2.413;2.48;2.464;2.496;2.44;2.378;2.407;2.388;0.51;0.555;0.511;0.52;0.52;0.514;0.542;0.534;0.541;0.537;0.556;0.552
Raw Data (584);21397;2.346;1.117;0.937;0.907;0.679;0.658;2.451;1.291;0.95;0.67;0.676;0.626;2.33;1.122;0.885;0.911;0.693;0.683;2.464;1.247;0.935;0.652;0.691;0.614;2.324;1.163;0.962;0.985;0.705;0.714;2.511;1.442;0.907;0.662;0.661;0.624;2.369;1.14;0.898;0.965;0.695;0.708;2.499;1.401;0.844;0.666;0.669;0.62;2.333;2.355;2.415;2.425;2.408;2.487;2.462;2.521;2.498;2.505;2.522;2.51;2.36;2.376;2.486;2.445;2.475;2.5;2.526;2.559;2.51;2.495;2.443;2.429;2.37;2.432;2.465;2.469;2.444;2.531;2.497;2.548;2.502;2.426;2.453;2.416;0.501;0.545;0.51;0.54;0.522;0.507;0.538;0.531;0.55;0.537;0.542;0.54
Raw Data (584);22008;2.398;1.125;0.929;0.913;0.696;0.657;2.486;1.318;0.954;0.68;0.682;0.63;2.373;1.123;0.871;0.918;0.685;0.678;2.5;1.266;0.953;0.651;0.692;0.622;2.361;1.162;0.946;0.967;0.705;0.72;2.545;1.452;0.913;0.663;0.673;0.622;2.401;1.143;0.89;0.964;0.702;0.704;2.53;1.42;0.847;0.672;0.68;0.621;2.376;2.387;2.454;2.458;2.446;2.527;2.505;2.557;2.55;2.548;2.562;2.529;2.402;2.429;2.525;2.491;2.506;2.526;2.56;2.583;2.553;2.529;2.48;2.46;2.404;2.463;2.498;2.502;2.475;2.573;2.535;2.579;2.538;2.451;2.481;2.449;0.502;0.552;0.523;0.518;0.525;0.51;0.545;0.538;0.553;0.547;0.551;0.551
Raw Data (584);22620;2.413;1.121;0.932;0.898;0.677;0.654;2.511;1.331;0.948;0.676;0.685;0.617;2.405;1.134;0.901;0.904;0.683;0.681;2.529;1.279;0.965;0.654;0.691;0.612;2.396;1.172;0.925;0.956;0.696;0.716;2.578;1.434;0.902;0.666;0.661;0.628;2.434;1.129;0.878;0.953;0.693;0.702;2.552;1.411;0.836;0.671;0.669;0.627;2.396;2.402;2.478;2.484;2.483;2.544;2.529;2.604;2.587;2.587;2.591;2.561;2.434;2.455;2.541;2.516;2.542;2.554;2.588;2.618;2.585;2.575;2.517;2.486;2.43;2.493;2.516;2.529;2.511;2.61;2.579;2.6;2.571;2.482;2.521;2.487;0.505;0.543;0.523;0.525;0.523;0.515;0.542;0.533;0.544;0.537;0.537;0.548
Raw Data (584);23231;2.461;1.117;0.931;0.903;0.676;0.654;2.547;1.33;0.957;0.675;0.68;0.615;2.429;1.142;0.86;0.902;0.677;0.685;2.554;1.284;0.986;0.656;0.691;0.615;2.423;1.173;0.934;1.009;0.687;0.701;2.6;1.494;0.901;0.661;0.659;0.632;2.464;1.131;0.882;0.939;0.688;0.701;2.577;1.615;0.858;0.667;0.672;0.616;2.423;2.445;2.511;2.524;2.523;2.579;2.568;2.63;2.615;2.614;2.616;2.589;2.464;2.494;2.585;2.54;2.571;2.588;2.617;2.643;2.617;2.603;2.541;2.532;2.452;2.528;2.542;2.568;2.534;2.646;2.595;2.623;2.624;2.505;2.545;2.511;0.514;0.557;0.515;0.522;0.517;0.509;0.533;0.532;0.544;0.531;0.549;0.54
Raw Data (584);23842;2.476;1.112;0.916;0.901;0.682;0.648;2.567;1.393;0.979;0.671;0.683;0.625;2.487;1.111;0.891;0.898;0.673;0.675;2.579;1.303;0.987;0.641;0.697;0.608;2.458;1.183;0.926;0.944;0.682;0.7;2.639;1.492;0.9;0.662;0.655;0.632;2.496;1.126;0.868;0.942;0.678;0.699;2.603;1.563;0.862;0.662;0.675;0.614;2.45;2.461;2.534;2.538;2.554;2.59;2.603;2.67;2.657;2.648;2.646;2.624;2.494;2.525;2.595;2.564;2.596;2.618;2.657;2.687;2.646;2.64;2.597;2.561;2.478;2.559;2.576;2.598;2.553;2.685;2.636;2.643;2.672;2.542;2.561;2.542;0.492;0.542;0.523;0.518;0.513;0.51;0.537;0.534;0.542;0.527;0.554;0.536
Raw Data (584);24454;2.499;1.105;0.916;0.897;0.684;0.651;2.583;1.381;1.088;0.679;0.717;0.627;2.514;1.097;0.854;0.885;0.676;0.677;2.598;1.317;0.984;0.642;0.683;0.611;2.483;1.179;0.905;0.972;0.69;0.708;2.651;1.513;0.906;0.701;0.655;0.61;2.508;1.112;0.863;0.928;0.681;0.69;2.624;1.562;0.919;0.66;0.661;0.609;2.468;2.464;2.567;2.567;2.579;2.626;2.647;2.706;2.679;2.676;2.668;2.623;2.51;2.563;2.624;2.584;2.609;2.629;2.691;2.712;2.675;2.665;2.622;2.575;2.492;2.579;2.602;2.613;2.576;2.714;2.672;2.675;2.698;2.576;2.602;2.563;0.505;0.56;0.509;0.512;0.521;0.499;0.533;0.527;0.542;0.529;0.548;0.535
Raw Data (584);25066;2.548;1.106;0.921;0.892;0.684;0.653;2.611;1.404;1.106;0.661;0.733;0.631;2.545;1.109;0.85;0.898;0.674;0.682;2.63;1.356;0.985;0.648;0.69;0.611;2.518;1.18;0.917;0.95;0.698;0.701;2.689;1.523;0.903;0.756;0.665;0.616;2.536;1.135;0.861;0.935;0.688;0.688;2.653;1.563;0.913;0.665;0.679;0.618;2.493;2.509;2.603;2.608;2.623;2.665;2.672;2.744;2.706;2.714;2.696;2.65;2.538;2.599;2.668;2.625;2.638;2.672;2.717;2.734;2.708;2.708;2.667;2.609;2.523;2.619;2.64;2.642;2.596;2.743;2.698;2.695;2.736;2.596;2.63;2.582;0.507;0.566;0.516;0.526;0.523;0.526;0.539;0.532;0.546;0.537;0.543;0.554
Raw Data (584);25678;2.575;1.13;0.933;0.89;0.668;0.644;2.636;1.419;1.109;0.706;0.668;0.62;2.584;1.125;0.869;0.909;0.673;0.678;2.656;1.355;0.989;0.65;0.685;0.611;2.551;1.153;0.927;0.955;0.694;0.698;2.712;1.525;0.909;0.761;0.661;0.614;2.574;1.131;0.844;0.935;0.683;0.68;2.67;1.564;0.891;0.671;0.671;0.612;2.514;2.531;2.623;2.61;2.644;2.674;2.683;2.752;2.717;2.735;2.708;2.68;2.558;2.614;2.678;2.632;2.655;2.672;2.747;2.75;2.727;2.73;2.692;2.618;2.537;2.638;2.654;2.673;2.622;2.772;2.722;2.704;2.748;2.621;2.634;2.602;0.504;0.525;0.513;0.535;0.521;0.512;0.535;0.526;0.544;0.526;0.544;0.537
Raw Data (584);26290;2.581;1.09;0.916;0.886;0.669;0.64;2.643;1.438;1.115;0.706;0.655;0.615;2.582;1.092;0.838;0.882;0.671;0.667;2.675;1.444;0.983;0.644;0.678;0.605;2.554;1.12;0.9;0.955;0.686;0.696;2.736;1.536;0.934;0.761;0.653;0.622;2.595;1.112;0.848;0.92;0.668;0.68;2.698;1.585;0.974;0.658;0.668;0.616;2.537;2.547;2.664;2.649;2.681;2.7;2.704;2.777;2.741;2.757;2.726;2.683;2.581;2.652;2.715;2.659;2.695;2.701;2.766;2.767;2.743;2.749;2.723;2.64;2.559;2.653;2.669;2.691;2.648;2.799;2.749;2.722;2.767;2.63;2.651;2.62;0.501;0.513;0.518;0.528;0.513;0.511;0.534;0.537;0.537;0.534;0.551;0.548
Raw Data (584);26901;2.613;1.109;0.919;0.888;0.709;0.655;2.67;1.463;1.127;0.723;0.674;0.623;2.608;1.084;0.83;0.891;0.663;0.674;2.693;1.492;1.009;0.648;0.698;0.613;2.593;1.104;0.907;0.957;0.695;0.701;2.753;1.575;0.937;0.76;0.669;0.623;2.607;1.103;0.846;0.924;0.696;0.697;2.724;1.612;0.984;0.66;0.675;0.627;2.562;2.575;2.69;2.673;2.712;2.73;2.738;2.812;2.766;2.785;2.755;2.69;2.617;2.682;2.732;2.689;2.708;2.73;2.808;2.8;2.759;2.781;2.753;2.663;2.591;2.682;2.711;2.711;2.676;2.832;2.789;2.752;2.809;2.679;2.674;2.647;0.512;0.573;0.523;0.525;0.527;0.513;0.55;0.535;0.558;0.53;0.549;0.556
Raw Data (584);27513;2.621;1.096;0.916;0.875;0.703;0.643;2.684;1.483;1.136;0.711;0.691;0.627;2.62;1.069;0.854;0.879;0.671;0.685;2.707;1.474;1.014;0.66;0.692;0.609;2.601;1.104;0.887;0.942;0.689;0.694;2.771;1.576;0.934;0.751;0.67;0.622;2.615;1.112;0.85;0.919;0.689;0.68;2.732;1.62;0.981;0.672;0.675;0.615;2.572;2.584;2.715;2.688;2.732;2.743;2.762;2.82;2.776;2.804;2.755;2.704;2.626;2.706;2.757;2.7;2.725;2.746;2.797;2.811;2.773;2.798;2.774;2.676;2.601;2.702;2.719;2.726;2.688;2.849;2.803;2.769;2.82;2.677;2.68;2.659;0.507;0.515;0.526;0.538;0.526;0.515;0.55;0.55;0.547;0.538;0.556;0.548
Raw Data (584);28125;2.627;1.09;0.9;0.879;0.698;0.642;2.698;1.506;1.147;0.712;0.683;0.615;2.633;1.081;0.843;0.87;0.666;0.664;2.721;1.48;1.03;0.651;0.692;0.614;2.618;1.1;0.891;0.958;0.696;0.697;2.783;1.597;0.955;0.757;0.663;0.617;2.637;1.091;0.821;0.905;0.681;0.69;2.741;1.641;0.986;0.671;0.663;0.612;2.586;2.593;2.713;2.699;2.753;2.751;2.774;2.841;2.779;2.813;2.775;2.705;2.63;2.719;2.769;2.725;2.735;2.765;2.827;2.819;2.781;2.808;2.788;2.664;2.618;2.724;2.744;2.752;2.704;2.861;2.806;2.762;2.845;2.699;2.7;2.649;0.505;0.578;0.519;0.52;0.517;0.517;0.532;0.532;0.552;0.528;0.549;0.553
Raw Data (584);28737;2.65;1.086;0.905;0.877;0.691;0.643;2.716;1.542;1.151;0.713;0.691;0.613;2.656;1.077;0.852;0.878;0.665;0.667;2.736;1.515;1.04;0.651;0.697;0.611;2.641;1.089;0.884;0.94;0.697;0.699;2.8;1.618;0.945;0.758;0.658;0.615;2.643;1.087;0.833;0.91;0.675;0.691;2.756;1.663;0.99;0.661;0.667;0.614;2.598;2.619;2.743;2.728;2.778;2.78;2.786;2.845;2.802;2.834;2.777;2.721;2.658;2.742;2.789;2.749;2.757;2.775;2.843;2.833;2.8;2.826;2.817;2.688;2.638;2.728;2.755;2.774;2.733;2.878;2.836;2.788;2.852;2.719;2.711;2.664;0.515;0.581;0.527;0.523;0.52;0.527;0.543;0.541;0.549;0.543;0.549;0.555
Raw Data (584);29350;2.65;1.1;0.911;0.872;0.701;0.639;2.736;1.555;1.154;0.713;0.719;0.62;2.663;1.055;0.846;0.882;0.666;0.664;2.737;1.528;1.041;0.657;0.703;0.604;2.649;1.087;0.884;0.931;0.697;0.683;2.813;1.634;0.956;0.765;0.66;0.606;2.654;1.081;0.822;0.909;0.682;0.689;2.781;1.673;0.998;0.665;0.665;0.612;2.616;2.633;2.765;2.734;2.801;2.794;2.796;2.863;2.81;2.847;2.795;2.73;2.686;2.772;2.812;2.775;2.777;2.784;2.858;2.847;2.815;2.841;2.816;2.704;2.646;2.748;2.778;2.767;2.741;2.896;2.849;2.796;2.876;2.742;2.717;2.684;0.507;0.521;0.523;0.527;0.515;0.508;0.537;0.541;0.543;0.535;0.555;0.546
Raw Data (584);29962;2.671;1.091;0.905;0.88;0.698;0.644;2.745;1.584;1.164;0.711;0.681;0.618;2.675;1.061;0.853;0.875;0.663;0.677;2.767;1.546;1.056;0.677;0.689;0.61;2.668;1.087;0.88;0.932;0.69;0.694;2.835;1.657;0.964;0.75;0.67;0.611;2.678;1.075;0.824;0.969;0.674;0.694;2.791;1.684;1.012;0.672;0.682;0.61;2.628;2.65;2.802;2.765;2.814;2.811;2.812;2.877;2.825;2.853;2.784;2.738;2.685;2.787;2.81;2.782;2.802;2.807;2.875;2.862;2.832;2.851;2.833;2.704;2.65;2.756;2.777;2.78;2.745;2.902;2.863;2.813;2.891;2.756;2.746;2.684;0.511;0.576;0.519;0.513;0.521;0.521;0.547;0.538;0.54;0.544;0.556;0.554
Raw Data (584);30573;2.685;1.104;0.903;0.872;0.692;0.638;2.749;1.607;1.182;0.716;0.683;0.617;2.684;1.043;0.841;0.865;0.658;0.673;2.78;1.569;1.046;0.649;0.706;0.608;2.679;1.065;0.873;0.929;0.695;0.695;2.848;1.691;0.982;0.758;0.669;0.612;2.678;1.071;0.821;0.901;0.664;0.694;2.8;1.702;1.009;0.66;0.671;0.611;2.643;2.666;2.809;2.774;2.827;2.818;2.806;2.891;2.829;2.863;2.797;2.757;2.708;2.808;2.837;2.804;2.806;2.819;2.887;2.875;2.847;2.861;2.847;2.707;2.674;2.775;2.801;2.8;2.772;2.934;2.876;2.837;2.896;2.77;2.751;2.699;0.511;0.532;0.525;0.531;0.528;0.517;0.542;0.545;0.554;0.541;0.556;0.553
Raw Data (584);31185;2.694;1.096;0.901;0.874;0.701;0.642;2.759;1.638;1.197;0.713;0.76;0.615;2.695;1.049;0.844;0.877;0.663;0.661;2.805;1.621;1.086;0.658;0.693;0.603;2.69;1.069;0.88;0.945;0.704;0.689;2.866;1.713;0.994;0.747;0.679;0.609;2.697;1.07;0.817;0.96;0.68;0.697;2.822;1.726;1.024;0.676;0.669;0.612;2.663;2.677;2.82;2.792;2.853;2.827;2.836;2.896;2.839;2.882;2.812;2.755;2.718;2.827;2.846;2.825;2.817;2.829;2.901;2.883;2.851;2.885;2.862;2.718;2.695;2.796;2.813;2.806;2.788;2.931;2.885;2.832;2.92;2.787;2.76;2.713;0.52;0.536;0.526;0.533;0.525;0.518;0.542;0.545;0.551;0.537;0.55;0.55
Raw Data (584);31798;2.706;1.079;0.892;0.875;0.7;0.641;2.77;1.661;1.2;0.713;0.702;0.624;2.708;1.031;0.842;0.864;0.662;0.672;2.82;1.646;1.077;0.653;0.692;0.601;2.711;1.065;0.879;0.937;0.696;0.684;2.878;1.72;1;0.757;0.668;0.619;2.701;1.07;0.816;0.934;0.677;0.689;2.842;1.748;1.019;0.673;0.664;0.61;2.676;2.692;2.846;2.809;2.867;2.838;2.849;2.913;2.859;2.889;2.825;2.754;2.744;2.844;2.857;2.844;2.831;2.845;2.913;2.897;2.859;2.877;2.868;2.731;2.705;2.807;2.833;2.818;2.79;2.952;2.893;2.848;2.931;2.796;2.787;2.717;0.511;0.571;0.519;0.534;0.524;0.527;0.542;0.544;0.553;0.542;0.551;0.55
Raw Data (584);32410;2.719;1.087;0.883;0.871;0.694;0.638;2.777;1.675;1.209;0.709;0.691;0.608;2.709;1.042;0.85;0.869;0.652;0.668;2.832;1.656;1.092;0.663;0.685;0.593;2.725;1.07;0.869;0.925;0.692;0.682;2.879;1.741;1.009;0.744;0.659;0.615;2.712;1.067;0.812;0.92;0.673;0.681;2.84;1.766;1.029;0.658;0.66;0.607;2.69;2.712;2.85;2.817;2.883;2.853;2.853;2.902;2.863;2.892;2.827;2.773;2.753;2.863;2.865;2.841;2.838;2.856;2.922;2.9;2.875;2.894;2.881;2.728;2.711;2.826;2.814;2.821;2.814;2.958;2.913;2.851;2.952;2.814;2.788;2.716;0.513;0.532;0.517;0.538;0.526;0.525;0.541;0.548;0.551;0.534;0.547;0.544
Raw Data (584);33022;2.717;1.089;0.878;0.858;0.694;0.664;2.782;1.697;1.217;0.705;0.664;0.605;2.718;1.047;0.836;0.86;0.652;0.664;2.829;1.684;1.093;0.658;0.691;0.603;2.743;1.08;0.865;0.916;0.7;0.686;2.887;1.763;1.007;0.747;0.665;0.605;2.716;1.08;0.794;0.923;0.67;0.685;2.851;1.778;1.043;0.659;0.661;0.608;2.709;2.735;2.872;2.832;2.874;2.871;2.866;2.927;2.865;2.905;2.83;2.788;2.764;2.874;2.883;2.871;2.853;2.861;2.936;2.916;2.889;2.917;2.895;2.742;2.733;2.841;2.845;2.833;2.818;2.978;2.903;2.863;2.967;2.828;2.807;2.731;0.509;0.551;0.524;0.535;0.531;0.521;0.546;0.544;0.543;0.529;0.551;0.553
Raw Data (584);33634;2.719;1.07;0.883;0.863;0.696;0.657;2.788;1.733;1.23;0.711;0.725;0.613;2.737;1.033;0.835;0.873;0.655;0.66;2.833;1.719;1.108;0.647;0.69;0.601;2.758;1.064;0.868;0.923;0.688;0.677;2.907;1.774;1.023;0.744;0.663;0.605;2.745;1.079;0.798;0.918;0.674;0.679;2.871;1.815;1.051;0.663;0.671;0.602;2.718;2.753;2.882;2.856;2.89;2.886;2.877;2.929;2.88;2.916;2.845;2.79;2.773;2.887;2.897;2.878;2.872;2.881;2.936;2.917;2.893;2.897;2.9;2.745;2.748;2.851;2.853;2.854;2.838;2.991;2.919;2.862;2.984;2.831;2.815;2.739;0.513;0.566;0.517;0.533;0.527;0.517;0.554;0.553;0.555;0.539;0.547;0.556
Raw Data (584);34246;2.727;1.063;0.873;0.841;0.681;0.657;2.783;1.772;1.234;0.698;0.673;0.606;2.738;1.032;0.831;0.857;0.654;0.652;2.849;1.747;1.125;0.655;0.688;0.597;2.761;1.06;0.87;0.916;0.704;0.676;2.92;1.805;1.034;0.744;0.664;0.601;2.749;1.069;0.798;0.92;0.663;0.685;2.883;1.82;1.066;0.671;0.665;0.601;2.742;2.758;2.886;2.845;2.886;2.872;2.887;2.943;2.883;2.931;2.854;2.806;2.773;2.904;2.913;2.88;2.872;2.88;2.944;2.934;2.904;2.914;2.917;2.748;2.76;2.869;2.859;2.865;2.852;3.02;2.934;2.874;2.989;2.865;2.817;2.742;0.51;0.537;0.527;0.524;0.53;0.514;0.556;0.548;0.543;0.543;0.556;0.554
Raw Data (584);34857;2.735;1.073;0.874;0.848;0.695;0.649;2.806;1.801;1.245;0.706;0.772;0.61;2.742;1.024;0.826;0.847;0.652;0.65;2.865;1.782;1.142;0.654;0.682;0.594;2.763;1.054;0.852;0.914;0.699;0.678;2.933;1.861;1.038;0.75;0.666;0.601;2.742;1.057;0.795;0.907;0.666;0.68;2.89;1.855;1.076;0.664;0.668;0.599;2.73;2.76;2.889;2.867;2.905;2.877;2.907;2.952;2.897;2.934;2.861;2.809;2.783;2.908;2.894;2.897;2.883;2.881;2.95;2.94;2.914;2.916;2.929;2.759;2.775;2.88;2.873;2.873;2.851;3.015;2.935;2.882;2.994;2.846;2.82;2.74;0.518;0.583;0.521;0.532;0.522;0.527;0.559;0.552;0.551;0.54;0.556;0.551
Raw Data (584);35469;2.719;1.065;0.867;0.858;0.68;0.647;2.813;1.82;1.248;0.711;0.751;0.605;2.745;1.016;0.83;0.853;0.648;0.659;2.883;1.82;1.133;0.664;0.675;0.593;2.769;1.044;0.85;0.918;0.69;0.671;2.939;1.885;1.05;0.734;0.657;0.608;2.746;1.044;0.784;0.9;0.659;0.677;2.908;1.881;1.091;0.66;0.662;0.603;2.747;2.785;2.903;2.868;2.918;2.88;2.907;2.96;2.91;2.949;2.868;2.811;2.797;2.939;2.9;2.916;2.905;2.895;2.971;2.957;2.932;2.918;2.926;2.76;2.783;2.883;2.869;2.875;2.862;3.032;2.943;2.894;2.993;2.865;2.84;2.743;0.519;0.541;0.519;0.526;0.519;0.525;0.552;0.542;0.553;0.539;0.545;0.55
Raw Data (584);36081;2.74;1.067;0.865;0.849;0.683;0.644;2.814;1.845;1.257;0.698;0.667;0.598;2.752;1.023;0.824;0.854;0.647;0.645;2.881;1.834;1.156;0.659;0.674;0.594;2.796;1.039;0.857;0.914;0.692;0.67;2.953;1.891;1.064;0.736;0.652;0.592;2.766;1.053;0.778;0.902;0.656;0.672;2.932;1.893;1.102;0.654;0.654;0.602;2.762;2.796;2.921;2.894;2.93;2.907;2.92;2.965;2.923;2.952;2.885;2.832;2.802;2.949;2.914;2.931;2.919;2.91;2.968;2.929;2.942;2.931;2.942;2.772;2.804;2.9;2.885;2.885;2.862;3.047;2.954;2.9;3.019;2.882;2.846;2.758;0.518;0.575;0.527;0.531;0.524;0.515;0.545;0.541;0.552;0.531;0.547;0.551
Raw Data (584);36692;2.763;1.066;0.864;0.85;0.695;0.645;2.832;1.882;1.289;0.703;0.683;0.607;2.771;1.024;0.825;0.852;0.648;0.659;2.909;1.889;1.18;0.66;0.677;0.601;2.824;1.06;0.859;0.909;0.695;0.667;2.963;1.921;1.079;0.736;0.649;0.611;2.787;1.068;0.782;0.909;0.656;0.685;2.938;1.933;1.112;0.65;0.665;0.601;2.79;2.818;2.922;2.907;2.947;2.925;2.935;2.963;2.92;2.96;2.902;2.83;2.813;2.969;2.931;2.945;2.937;2.925;2.985;2.95;2.951;2.94;2.943;2.782;2.822;2.914;2.896;2.915;2.89;3.062;2.965;2.917;3.016;2.892;2.852;2.756;0.526;0.572;0.519;0.529;0.522;0.508;0.548;0.547;0.549;0.527;0.552;0.542
Raw Data (584);37305;2.75;1.058;0.863;0.845;0.685;0.636;2.837;1.904;1.292;0.704;0.763;0.602;2.772;1.029;0.816;0.857;0.647;0.649;2.915;1.873;1.184;0.659;0.673;0.597;2.818;1.035;0.859;0.906;0.683;0.67;2.971;1.95;1.089;0.732;0.647;0.598;2.786;1.045;0.78;0.905;0.665;0.668;2.945;1.943;1.128;0.66;0.665;0.6;2.799;2.831;2.934;2.914;2.952;2.932;2.942;2.986;2.937;2.967;2.896;2.846;2.825;2.973;2.942;2.958;2.946;2.934;2.989;2.96;2.956;2.947;2.958;2.78;2.827;2.921;2.918;2.92;2.903;3.069;2.963;2.909;3.027;2.893;2.868;2.757;0.519;0.558;0.525;0.534;0.528;0.51;0.543;0.55;0.541;0.543;0.551;0.53
Raw Data (584);37917;2.755;1.053;0.853;0.841;0.685;0.64;2.841;1.928;1.308;0.687;0.686;0.604;2.785;1.007;0.816;0.841;0.64;0.655;2.918;1.914;1.198;0.675;0.676;0.591;2.835;1.056;0.843;0.899;0.682;0.664;2.977;1.962;1.098;0.738;0.647;0.598;2.8;1.035;0.784;0.896;0.654;0.669;2.966;1.984;1.135;0.652;0.654;0.591;2.813;2.848;2.939;2.922;2.954;2.944;2.951;2.982;2.929;2.964;2.906;2.841;2.84;2.979;2.947;2.947;2.941;2.939;2.997;2.968;2.971;2.952;2.963;2.78;2.854;2.939;2.919;2.932;2.898;3.075;2.97;2.925;3.022;2.903;2.862;2.758;0.507;0.558;0.518;0.528;0.526;0.514;0.546;0.536;0.553;0.533;0.54;0.546
Raw Data (584);38529;2.766;1.058;0.867;0.841;0.682;0.638;2.854;1.931;1.317;0.691;0.738;0.598;2.79;1.024;0.824;0.85;0.643;0.652;2.942;1.942;1.212;0.664;0.677;0.594;2.846;1.039;0.841;0.907;0.683;0.651;2.99;1.996;1.099;0.732;0.643;0.602;2.801;1.05;0.771;0.901;0.67;0.669;2.975;1.988;1.144;0.65;0.652;0.592;2.817;2.858;2.962;2.943;2.961;2.957;2.958;2.999;2.953;2.985;2.927;2.86;2.858;3.011;2.959;2.977;2.968;2.956;3.01;2.981;2.984;2.969;2.975;2.799;2.883;2.953;2.936;2.942;2.909;3.097;2.984;2.936;3.05;2.917;2.886;2.773;0.528;0.576;0.529;0.535;0.525;0.515;0.54;0.535;0.541;0.546;0.56;0.552
Raw Data (584);39142;2.768;1.056;0.849;0.847;0.68;0.638;2.858;1.95;1.343;0.702;0.738;0.605;2.736;0.999;0.827;0.855;0.646;0.642;2.949;1.942;1.222;0.665;0.683;0.593;2.853;1.026;0.848;0.907;0.692;0.666;3.007;2.006;1.124;0.735;0.637;0.606;2.811;1.037;0.78;0.882;0.667;0.668;2.986;2.029;1.154;0.653;0.661;0.608;2.838;2.873;2.969;2.935;2.978;2.97;2.976;2.999;2.959;2.987;2.932;2.866;2.878;3.012;2.986;2.973;2.961;2.966;3.025;2.989;2.991;2.973;2.991;2.804;2.905;2.964;2.945;2.946;2.924;3.101;2.99;2.942;3.058;2.933;2.904;2.781;0.526;0.575;0.528;0.535;0.525;0.523;0.551;0.556;0.557;0.544;0.558;0.557
Raw Data (584);39754;2.767;1.041;0.853;0.837;0.677;0.63;2.858;1.965;1.346;0.701;0.676;0.607;2.748;0.998;0.815;0.841;0.641;0.639;2.941;1.952;1.233;0.657;0.672;0.588;2.857;1.037;0.836;0.889;0.687;0.657;3.008;2.022;1.128;0.73;0.639;0.599;2.827;1.033;0.764;0.9;0.658;0.663;2.984;2.043;1.162;0.656;0.651;0.598;2.853;2.882;2.96;2.939;2.983;2.966;2.966;3;2.949;2.988;2.929;2.858;2.882;3.015;2.982;2.97;2.962;2.973;3.021;2.98;2.975;2.976;2.996;2.804;2.898;2.968;2.951;2.955;2.931;3.103;2.99;2.94;3.063;2.937;2.887;2.756;0.526;0.552;0.515;0.53;0.509;0.514;0.556;0.546;0.55;0.54;0.552;0.546
Raw Data (584);40367;2.773;1.052;0.858;0.833;0.683;0.638;2.864;1.975;1.367;0.688;0.681;0.598;2.746;1.006;0.812;0.828;0.642;0.643;2.964;1.956;1.25;0.661;0.673;0.592;2.861;1.027;0.834;0.906;0.679;0.651;3.021;2.033;1.154;0.733;0.636;0.603;2.82;1.048;0.76;0.885;0.652;0.652;2.996;2.051;1.187;0.651;0.649;0.595;2.856;2.869;2.977;2.958;2.994;2.983;2.974;3.005;2.966;2.998;2.934;2.881;2.889;3.024;2.989;2.983;2.974;2.984;3.02;2.999;2.997;2.995;3.014;2.832;2.913;2.976;2.966;2.962;2.931;3.106;2.999;2.947;3.08;2.947;2.902;2.757;0.537;0.569;0.528;0.535;0.517;0.521;0.551;0.541;0.543;0.538;0.556;0.549
Raw Data (584);40979;2.772;1.046;0.853;0.845;0.68;0.639;2.872;1.992;1.39;0.698;0.663;0.604;2.757;1.008;0.811;0.83;0.644;0.641;2.966;1.984;1.268;0.664;0.674;0.587;2.871;1.04;0.842;0.899;0.677;0.656;3.021;2.051;1.16;0.735;0.645;0.604;2.838;1.041;0.761;0.888;0.662;0.659;3.008;2.089;1.193;0.643;0.656;0.599;2.873;2.88;2.978;2.957;3.004;2.991;2.978;3.01;2.976;3.022;2.941;2.872;2.909;3.039;2.996;2.994;2.987;2.996;3.028;3.003;2.996;3.015;3.018;2.835;2.921;2.987;2.982;2.968;2.944;3.123;3.022;2.955;3.094;2.962;2.913;2.75;0.543;0.574;0.523;0.524;0.526;0.508;0.547;0.55;0.557;0.529;0.552;0.549
Raw Data (584);41591;2.78;1.052;0.859;0.844;0.683;0.648;2.885;2.009;1.412;0.694;0.738;0.605;2.768;1.004;0.815;0.851;0.697;0.658;2.995;1.993;1.295;0.711;0.695;0.596;2.896;1.026;0.845;0.907;0.682;0.664;3.04;2.066;1.175;0.74;0.647;0.605;2.852;1.042;0.766;0.897;0.664;0.66;3.021;2.106;1.221;0.663;0.664;0.603;2.896;2.901;3;2.983;3.023;3.008;3.027;3.055;3.006;3.028;2.965;2.887;2.947;3.054;3.012;3.005;3.003;3.003;3.043;3.032;3.023;3.025;3.036;2.831;2.948;3.008;2.998;2.993;2.969;3.144;3.041;2.979;3.11;2.998;2.915;2.753;0.549;0.578;0.534;0.55;0.533;0.528;0.548;0.56;0.559;0.534;0.557;0.559
Raw Data (584);42204;2.773;1.044;0.844;0.834;0.68;0.636;2.877;2.025;1.423;0.693;0.694;0.597;2.762;0.998;0.799;0.832;0.655;0.638;2.983;1.984;1.295;0.682;0.678;0.59;2.89;1.022;0.835;0.889;0.677;0.657;3.04;2.055;1.18;0.731;0.64;0.597;2.853;1.038;0.763;0.889;0.654;0.655;3.023;2.114;1.217;0.645;0.65;0.587;2.893;2.887;2.996;2.981;3.025;3.007;3.01;3.042;3;3.03;2.967;2.879;2.937;3.064;3.017;3.005;2.999;3.009;3.049;3.033;3.022;3.024;3.034;2.832;2.942;3.005;2.995;2.976;2.96;3.141;3.031;2.985;3.099;2.995;2.93;2.739;0.553;0.568;0.523;0.529;0.535;0.512;0.548;0.542;0.551;0.543;0.563;0.553
Raw Data (584);42817;2.782;1.035;0.838;0.827;0.681;0.634;2.898;2.032;1.454;0.676;0.713;0.599;2.766;0.982;0.805;0.834;0.638;0.639;2.986;2.045;1.321;0.673;0.681;0.585;2.908;1.029;0.838;0.887;0.671;0.643;3.043;2.065;1.201;0.724;0.636;0.587;2.872;1.021;0.754;0.881;0.643;0.643;3.025;2.135;1.233;0.64;0.642;0.583;2.92;2.892;3.005;2.989;3.022;3.005;3.013;3.03;2.993;3.02;2.961;2.86;2.949;3.078;3.029;3.007;2.992;3.003;3.057;3.037;3.013;3.025;3.016;2.811;2.96;3.012;3.013;2.996;2.963;3.147;3.041;2.995;3.094;2.982;2.941;2.727;0.552;0.561;0.52;0.527;0.525;0.52;0.548;0.531;0.549;0.533;0.536;0.538
Raw Data (584);43429;2.803;1.042;0.842;0.839;0.688;0.638;2.934;2.032;1.475;0.704;0.702;0.609;2.785;1.005;0.81;0.832;0.646;0.638;2.999;2.023;1.348;0.681;0.683;0.59;2.929;1.02;0.846;0.894;0.684;0.659;3.061;2.07;1.225;0.735;0.644;0.598;2.881;1.035;0.758;0.877;0.654;0.661;3.045;2.154;1.251;0.655;0.652;0.591;2.923;2.912;3.016;3.009;3.049;3.032;3.026;3.053;3.005;3.036;2.973;2.882;2.967;3.085;3.041;3.023;3.021;3.03;3.074;3.045;3.034;3.042;3.042;2.835;2.984;3.044;3.014;3.011;2.992;3.167;3.04;3.009;3.114;3.012;2.956;2.743;0.562;0.578;0.532;0.546;0.536;0.532;0.554;0.553;0.56;0.543;0.559;0.56
Raw Data (584);44041;2.815;1.029;0.842;0.834;0.682;0.63;2.922;2.076;1.501;0.699;0.72;0.601;2.807;0.992;0.807;0.827;0.627;0.631;3.006;2.068;1.35;0.673;0.687;0.593;2.938;1.016;0.827;0.881;0.667;0.651;3.078;2.085;1.232;0.731;0.631;0.593;2.893;1.029;0.757;0.869;0.647;0.645;3.05;2.177;1.25;0.653;0.644;0.593;2.935;2.909;3.014;2.997;3.051;3.024;3.017;3.053;2.999;3.026;2.965;2.842;2.973;3.082;3.048;3.031;3.016;3.038;3.061;3.04;3.021;3.03;3.042;2.81;2.988;3.046;3.025;3.015;2.991;3.179;3.059;3.009;3.086;2.995;2.953;2.745;0.577;0.574;0.527;0.533;0.528;0.519;0.545;0.554;0.559;0.546;0.544;0.541
Raw Data (584);44654;2.795;1.032;0.834;0.836;0.681;0.636;2.911;2.073;1.516;0.698;0.738;0.606;2.8;0.989;0.801;0.825;0.646;0.638;3.02;2.058;1.383;0.703;0.683;0.595;2.93;1.015;0.833;0.883;0.669;0.656;3.083;2.08;1.262;0.734;0.633;0.601;2.893;1.024;0.744;0.881;0.652;0.653;3.063;2.193;1.282;0.648;0.655;0.596;2.96;2.936;3.045;3.014;3.072;3.046;3.02;3.053;3.015;3.03;2.978;2.857;2.989;3.099;3.075;3.043;3.028;3.057;3.076;3.05;3.029;3.037;3.039;2.83;2.995;3.046;3.045;3.027;3.002;3.173;3.057;3.012;3.076;3.006;2.943;2.742;0.592;0.576;0.527;0.538;0.535;0.524;0.548;0.552;0.555;0.545;0.561;0.557
Raw Data (584);45268;2.789;1.04;0.847;0.829;0.68;0.639;2.915;2.104;1.55;0.7;0.691;0.605;2.796;0.99;0.804;0.819;0.643;0.642;3.037;2.098;1.41;0.686;0.684;0.592;2.921;1.004;0.822;0.873;0.678;0.652;3.077;2.091;1.272;0.734;0.637;0.599;2.906;1.024;0.746;0.875;0.649;0.655;3.071;2.197;1.297;0.657;0.65;0.605;2.957;2.949;3.05;3.018;3.07;3.053;3.02;3.059;3.012;3.029;2.983;2.858;3.004;3.103;3.085;3.073;3.043;3.059;3.05;3.05;3.039;3.033;3.037;2.828;3.01;3.052;3.06;3.043;3.029;3.175;3.053;3.011;3.079;3;2.961;2.676;0.598;0.572;0.533;0.539;0.532;0.524;0.552;0.551;0.558;0.533;0.553;0.545
Raw Data (584);45881;2.78;1.032;0.841;0.825;0.673;0.643;2.917;2.089;1.567;0.692;0.733;0.596;2.766;0.975;0.785;0.807;0.624;0.632;3.011;2.072;1.426;0.686;0.676;0.576;2.916;0.999;0.81;0.873;0.667;0.648;3.075;2.086;1.289;0.73;0.638;0.592;2.891;1.013;0.744;0.885;0.644;0.653;3.077;2.233;1.289;0.649;0.654;0.597;2.963;2.952;3.047;3.015;3.07;3.062;3.011;3.049;3.013;3.015;2.967;2.853;3.017;3.092;3.085;3.067;3.044;3.077;3.058;3.053;3.029;3.023;3.026;2.815;3.007;3.048;3.039;3.044;3.016;3.174;3.041;3.006;3.063;3;2.939;2.652;0.611;0.577;0.519;0.544;0.525;0.517;0.555;0.55;0.56;0.543;0.554;0.546
Raw Data (584);46493;2.767;1.036;0.83;0.827;0.674;0.621;2.916;2.108;1.612;0.71;0.748;0.603;2.772;0.981;0.787;0.819;0.631;0.639;3.029;2.07;1.45;0.686;0.684;0.59;2.933;1.002;0.812;0.871;0.679;0.654;3.084;2.103;1.309;0.739;0.634;0.603;2.905;1.017;0.757;0.885;0.648;0.656;3.081;2.271;1.327;0.668;0.653;0.605;2.982;2.956;3.053;3.023;3.071;3.073;3.03;3.053;3.01;3.019;2.97;2.867;3.029;3.11;3.089;3.068;3.064;3.081;3.048;3.044;3.038;3.022;3.037;2.816;3.033;3.049;3.044;3.054;3.014;3.168;3.038;3.002;3.056;2.996;2.943;2.64;0.634;0.559;0.526;0.549;0.533;0.524;0.552;0.547;0.564;0.547;0.558;0.557
Raw Data (584);47106;2.754;1.035;0.833;0.82;0.679;0.618;2.916;2.115;1.64;0.712;0.736;0.604;2.762;0.987;0.792;0.806;0.647;0.637;3.03;2.102;1.482;0.701;0.683;0.575;2.921;1.003;0.809;0.877;0.667;0.649;3.083;2.105;1.339;0.743;0.634;0.591;2.911;1.01;0.746;0.87;0.645;0.639;3.07;2.265;1.342;0.668;0.658;0.595;2.984;2.963;3.055;3.027;3.069;3.076;3.021;3.057;3.013;3.021;2.955;2.869;3.036;3.122;3.099;3.083;3.076;3.092;3.059;3.047;3.034;3.019;3.029;2.82;3.041;3.054;3.049;3.061;3.014;3.165;3.04;3.015;3.034;2.998;2.958;2.648;0.655;0.581;0.518;0.535;0.537;0.518;0.543;0.545;0.552;0.55;0.561;0.552
Raw Data (584);47718;2.766;1.042;0.828;0.818;0.653;0.624;2.925;2.142;1.653;0.702;0.729;0.601;2.761;0.974;0.781;0.808;0.65;0.63;3.032;2.101;1.513;0.702;0.69;0.582;2.923;1.006;0.813;0.873;0.674;0.654;3.091;2.141;1.37;0.76;0.635;0.598;2.91;1.009;0.734;0.875;0.646;0.64;3.078;2.289;1.368;0.661;0.656;0.581;2.994;2.962;3.059;3.03;3.071;3.081;3.027;3.053;3.018;3.02;2.947;2.815;3.032;3.079;3.094;3.077;3.071;3.089;3.055;3.039;3.031;3.019;3.035;2.813;3.042;3.051;3.054;3.064;3.033;3.156;3.035;3.007;3.031;2.996;2.956;2.661;0.686;0.575;0.526;0.543;0.531;0.525;0.553;0.547;0.55;0.544;0.571;0.553
Raw Data (584);48331;2.737;1.034;0.838;0.819;0.658;0.624;2.93;2.144;1.692;0.712;0.753;0.602;2.768;0.978;0.785;0.813;0.626;0.633;3.017;2.117;1.535;0.71;0.69;0.579;2.93;1.008;0.809;0.872;0.664;0.649;3.082;2.136;1.396;0.755;0.634;0.587;2.909;1.009;0.74;0.867;0.653;0.646;3.076;2.297;1.388;0.667;0.658;0.589;2.988;2.959;3.058;3.034;3.072;3.085;3.029;3.05;3.017;3.016;2.943;2.808;3.044;3.107;3.087;3.065;3.088;3.1;3.059;3.033;3.039;3.011;3.031;2.812;3.048;3.051;3.05;3.066;3.045;3.152;3.027;3.017;3.079;3.003;2.958;2.67;0.715;0.585;0.526;0.535;0.536;0.517;0.552;0.551;0.577;0.547;0.546;0.553
Raw Data (584);48944;2.74;1.045;0.831;0.813;0.64;0.625;2.927;2.133;1.715;0.713;0.758;0.604;2.772;0.981;0.777;0.807;0.634;0.629;3.039;2.138;1.559;0.719;0.694;0.58;2.941;1.007;0.808;0.864;0.667;0.645;3.09;2.149;1.427;0.752;0.642;0.6;2.917;1.005;0.737;0.87;0.643;0.642;3.086;2.297;1.41;0.67;0.653;0.59;2.995;2.964;3.057;3.039;3.068;3.089;3.027;3.033;3.014;3.014;2.933;2.842;3.051;3.107;3.089;3.076;3.084;3.094;3.061;3.037;3.03;2.997;3.032;2.8;3.046;3.052;3.052;3.058;3.042;3.139;3.03;3.01;3.069;3;2.948;2.689;0.759;0.583;0.531;0.55;0.535;0.517;0.555;0.546;0.568;0.544;0.558;0.558
Raw Data (584);49557;2.721;1.041;0.82;0.805;0.645;0.607;2.918;2.154;1.744;0.72;0.751;0.599;2.765;0.979;0.785;0.801;0.623;0.636;3.04;2.151;1.587;0.723;0.701;0.584;2.941;1.014;0.809;0.867;0.668;0.642;3.079;2.136;1.429;0.755;0.63;0.585;2.908;1.003;0.74;0.859;0.643;0.631;3.073;2.302;1.417;0.672;0.653;0.595;2.993;2.963;3.055;3.035;3.061;3.082;3.017;3.041;3.015;3.009;2.932;2.859;3.05;3.09;3.096;3.078;3.077;3.076;3.055;3.029;3.027;2.997;3.028;2.815;3.054;3.054;3.042;3.065;3.035;3.144;3.023;3.006;3.073;2.993;2.963;2.648;0.804;0.566;0.532;0.531;0.53;0.524;0.554;0.546;0.569;0.541;0.552;0.549
Raw Data (584);50170;2.704;1.04;0.823;0.815;0.647;0.614;2.9;2.165;1.77;0.731;0.768;0.593;2.754;0.981;0.779;0.807;0.616;0.625;3.031;2.157;1.631;0.728;0.701;0.584;2.908;1.003;0.797;0.851;0.654;0.638;3.084;2.122;1.463;0.77;0.638;0.593;2.876;1.001;0.743;0.867;0.646;0.623;3.074;2.297;1.446;0.682;0.683;0.603;2.995;2.977;3.044;3.032;3.074;3.087;3.016;3.043;3.015;3.027;2.931;2.886;3.055;3.078;3.081;3.083;3.091;3.096;3.064;3.036;3.032;3.018;3.034;2.817;3.063;3.057;3.056;3.062;3.043;3.155;3.036;3.024;3.07;2.988;2.941;2.699;0.852;0.585;0.53;0.552;0.54;0.525;0.552;0.542;0.575;0.55;0.566;0.552
Raw Data (584);50783;2.697;1.041;0.832;0.815;0.652;0.613;2.893;2.15;1.804;0.736;0.79;0.609;2.756;0.985;0.789;0.811;0.624;0.632;3.039;2.169;1.662;0.748;0.709;0.592;2.924;1.008;0.799;0.861;0.655;0.644;3.096;2.137;1.485;0.771;0.637;0.598;2.883;1.011;0.742;0.856;0.639;0.646;3.082;2.296;1.477;0.696;0.661;0.595;3.008;2.984;3.052;3.047;3.077;3.093;3.008;3.047;3.019;3.029;2.932;2.902;3.065;3.058;3.084;3.082;3.083;3.096;3.06;3.046;3.043;3.026;3.041;2.791;3.062;3.064;3.04;3.076;3.053;3.143;3.039;3.033;3.066;3.009;2.946;2.747;0.916;0.596;0.533;0.547;0.541;0.534;0.547;0.558;0.58;0.55;0.564;0.557
Raw Data (584);51396;2.691;1.046;0.809;0.802;0.637;0.602;2.89;2.172;1.827;0.735;0.793;0.601;2.752;0.98;0.784;0.799;0.62;0.623;3.029;2.184;1.689;0.746;0.706;0.58;2.911;0.997;0.793;0.842;0.653;0.63;3.088;2.11;1.502;0.781;0.635;0.595;2.885;0.999;0.724;0.849;0.638;0.636;3.08;2.296;1.502;0.701;0.66;0.603;3.004;2.98;3.053;3.031;3.071;3.075;2.998;3.05;2.993;3.027;2.935;2.908;3.038;3.041;3.073;3.066;3.091;3.088;3.053;3.027;3.029;3.005;3.04;2.773;3.049;3.06;3.03;3.064;3.036;3.145;3.03;2.993;3.039;2.97;2.931;2.762;0.989;0.566;0.529;0.538;0.537;0.531;0.558;0.55;0.587;0.548;0.558;0.558
Raw Data (584);52009;2.67;1.044;0.809;0.795;0.629;0.601;2.892;2.167;1.867;0.742;0.796;0.599;2.737;0.984;0.779;0.804;0.61;0.628;3.031;2.192;1.725;0.755;0.711;0.574;2.907;1.009;0.784;0.841;0.653;0.635;3.08;2.118;1.54;0.77;0.644;0.594;2.874;1;0.728;0.826;0.626;0.631;3.067;2.278;1.512;0.69;0.653;0.596;2.998;2.969;3.034;3.016;3.062;3.055;2.987;3.037;2.98;2.994;2.922;2.882;3.04;3.029;3.076;3.064;3.075;3.088;3.047;3.024;3.02;3.005;3.033;2.758;3.052;3.056;3.018;3.052;3.023;3.128;3.006;2.985;3.033;2.965;2.922;2.802;1.037;0.566;0.522;0.546;0.537;0.525;0.544;0.545;0.571;0.547;0.545;0.551
Raw Data (584);52622;2.637;1.055;0.81;0.792;0.637;0.606;2.883;2.18;1.909;0.751;0.892;0.599;2.74;0.995;0.77;0.801;0.614;0.62;3.013;2.192;1.728;0.768;0.712;0.582;2.896;1.01;0.788;0.838;0.657;0.637;3.078;2.129;1.569;0.806;0.667;0.593;2.878;1.001;0.726;0.826;0.634;0.63;3.067;2.264;1.541;0.706;0.652;0.591;3.006;2.983;3.039;3.023;3.057;3.058;2.99;3.035;2.991;3.004;2.919;2.893;3.042;3.063;3.06;3.062;3.083;3.078;3.049;3.02;3.017;3.014;3.042;2.665;3.064;3.037;3.014;3.071;3.028;3.142;3.012;2.986;3.049;2.968;2.926;2.818;1.078;0.562;0.528;0.544;0.535;0.522;0.548;0.554;0.584;0.547;0.567;0.551
Raw Data (584);53235;2.616;1.05;0.814;0.794;0.632;0.598;2.863;2.168;1.923;0.757;0.867;0.607;2.748;0.987;0.76;0.788;0.617;0.619;3.018;2.2;1.776;0.774;0.729;0.576;2.888;1.011;0.789;0.835;0.655;0.632;3.085;2.146;1.604;0.815;0.646;0.591;2.888;1;0.707;0.828;0.618;0.625;3.069;2.271;1.582;0.713;0.649;0.589;3.012;2.957;3.033;3.021;3.061;3.052;2.986;3.016;2.974;2.993;2.912;2.861;3.05;3.041;3.046;3.061;3.075;3.091;3.049;3.024;2.997;2.992;3.002;2.624;3.071;3.036;3.014;3.069;3.023;3.13;2.998;2.972;3.046;2.953;2.908;2.895;1.13;0.581;0.529;0.544;0.533;0.522;0.56;0.546;0.589;0.542;0.553;0.551
Raw Data (584);53848;2.615;1.057;0.811;0.795;0.634;0.611;2.878;2.169;1.954;0.767;0.86;0.597;2.738;0.995;0.767;0.787;0.615;0.611;3.025;2.218;1.813;0.791;0.731;0.581;2.892;1.018;0.791;0.837;0.648;0.633;3.066;2.154;1.641;0.83;0.646;0.595;2.887;1.006;0.714;0.828;0.628;0.623;3.058;2.272;1.614;0.72;0.656;0.592;3.009;2.97;3.041;3.029;3.066;3.055;2.988;3.026;2.973;2.993;2.909;2.86;3.048;3.063;3.015;3.062;3.085;3.083;3.045;3.026;3.001;2.986;2.983;2.648;3.043;3.049;3.019;3.069;3.021;3.137;2.998;2.972;3.024;2.945;2.894;2.853;1.195;0.572;0.535;0.553;0.542;0.53;0.557;0.56;0.594;0.546;0.56;0.553
Raw Data (584);54461;2.58;1.056;0.801;0.786;0.628;0.595;2.865;2.179;1.98;0.784;0.894;0.595;2.728;0.994;0.761;0.786;0.618;0.609;3.012;2.243;1.834;0.806;0.743;0.57;2.881;1.013;0.783;0.83;0.646;0.629;3.067;2.149;1.657;0.849;0.642;0.591;2.87;1.01;0.716;0.808;0.613;0.62;3.062;2.247;1.636;0.716;0.661;0.592;3.007;2.978;3.033;3.018;3.063;3.053;2.984;3.016;2.967;2.992;2.895;2.85;3.049;3.046;3.005;3.064;3.083;3.083;3.036;3.013;2.982;2.97;2.969;2.628;3.056;3.039;3.025;3.074;3.024;3.146;2.985;2.955;3.011;2.939;2.879;2.88;1.242;0.534;0.529;0.547;0.526;0.528;0.55;0.551;0.594;0.536;0.548;0.551
Raw Data (584);55074;2.567;1.065;0.81;0.787;0.629;0.602;2.864;2.184;1.996;0.796;0.874;0.599;2.718;1.002;0.773;0.791;0.634;0.609;3.001;2.232;1.845;0.81;0.749;0.577;2.869;1.019;0.777;0.827;0.65;0.625;3.069;2.144;1.675;0.868;0.658;0.594;2.866;1.02;0.713;0.802;0.614;0.626;3.057;2.265;1.67;0.745;0.66;0.591;3.006;2.977;3.037;3.023;3.068;3.05;2.987;3.004;2.962;2.992;2.892;2.843;3.053;3.001;3.003;3.047;3.071;3.082;3.04;3.006;2.972;2.974;2.982;2.65;3.054;3.035;3.002;3.064;3.013;3.13;2.983;2.956;3.005;2.939;2.87;2.884;1.313;0.569;0.532;0.547;0.537;0.522;0.555;0.556;0.611;0.542;0.56;0.551
Raw Data (584);55687;2.545;1.07;0.805;0.788;0.623;0.599;2.864;2.199;2.022;0.811;0.888;0.602;2.709;0.993;0.771;0.789;0.604;0.611;3.001;2.246;1.881;0.837;0.767;0.576;2.859;1.022;0.774;0.816;0.649;0.619;3.065;2.15;1.708;0.88;0.651;0.588;2.87;1.021;0.703;0.782;0.607;0.626;3.055;2.258;1.711;0.755;0.666;0.591;2.935;2.983;3.037;3.025;3.067;3.036;2.971;3.007;2.966;2.98;2.885;2.889;2.957;3.01;3.002;3.044;3.07;3.076;3.028;2.998;2.976;2.975;2.951;2.666;3.054;3.008;2.999;3.06;2.998;3.132;2.977;2.95;3.013;2.935;2.859;2.871;1.39;0.538;0.53;0.542;0.531;0.532;0.545;0.543;0.622;0.54;0.547;0.543
Raw Data (584);56299;2.537;1.092;0.835;0.803;0.642;0.615;2.852;2.215;2.06;0.842;0.981;0.616;2.713;1.019;0.797;0.816;0.63;0.627;2.996;2.271;1.909;0.865;0.801;0.599;2.852;1.052;0.816;0.848;0.666;0.634;3.067;2.164;1.763;0.925;0.675;0.602;2.874;1.046;0.724;0.81;0.639;0.635;3.044;2.276;1.768;0.793;0.705;0.61;2.939;2.998;3.026;3.024;3.064;3.037;2.978;3.01;2.964;2.993;2.878;2.897;2.976;3.017;3.006;3.056;3.075;3.079;3.045;3.004;2.975;2.978;2.952;2.7;3.004;2.987;3.003;3.079;3.02;3.152;2.985;2.951;2.998;2.944;2.862;2.797;1.451;0.549;0.557;0.553;0.553;0.542;0.557;0.575;0.647;0.562;0.578;0.567
Raw Data (584);56912;2.504;1.087;0.814;0.787;0.622;0.604;2.841;2.201;2.069;0.855;0.949;0.597;2.673;1.009;0.77;0.791;0.611;0.609;2.984;2.249;1.927;0.873;0.789;0.581;2.805;1.031;0.775;0.822;0.635;0.616;3.067;2.163;1.767;0.924;0.669;0.591;2.849;1.029;0.707;0.796;0.616;0.623;3.038;2.255;1.765;0.789;0.674;0.595;2.935;2.935;3.024;3.023;3.052;3.036;2.957;2.997;2.959;2.957;2.871;2.914;2.957;3.007;2.978;3.066;3.059;3.088;3.034;2.995;2.958;2.981;2.932;2.794;2.992;2.97;2.979;3.026;3.012;3.143;2.955;2.943;2.963;2.928;2.816;2.816;1.524;0.584;0.523;0.545;0.531;0.526;0.549;0.548;0.637;0.533;0.56;0.54
Raw Data (584);57524;2.505;1.095;0.82;0.793;0.625;0.603;2.847;2.221;2.101;0.872;0.978;0.602;2.663;1.012;0.791;0.794;0.616;0.615;2.994;2.266;1.946;0.906;0.817;0.587;2.809;1.04;0.782;0.835;0.647;0.618;3.071;2.174;1.801;0.947;0.68;0.604;2.849;1.046;0.715;0.793;0.622;0.625;3.045;2.276;1.804;0.832;0.698;0.601;2.917;2.938;3.033;3.033;3.055;3.054;2.967;3.004;2.974;2.96;2.867;2.873;2.974;3.007;2.988;3.082;3.062;3.092;2.988;3.001;2.972;2.966;2.959;2.836;2.952;2.968;2.996;3.029;3.011;3.165;2.964;2.936;2.972;2.946;2.788;2.844;1.58;0.563;0.534;0.544;0.544;0.53;0.544;0.548;0.662;0.562;0.557;0.56
Raw Data (584);58137;2.474;1.099;0.813;0.774;0.616;0.595;2.816;2.205;2.116;0.893;0.965;0.594;2.631;1.008;0.772;0.789;0.603;0.599;2.977;2.26;1.954;0.925;0.816;0.581;2.793;1.04;0.774;0.825;0.639;0.615;3.049;2.175;1.786;0.974;0.682;0.583;2.839;1.042;0.71;0.781;0.607;0.614;3.034;2.269;1.817;0.848;0.69;0.594;2.901;2.909;3.01;3.016;3.041;3.039;2.944;2.998;2.959;2.946;2.854;2.871;2.953;2.989;2.95;3.065;3.059;3.088;2.977;2.959;2.961;2.965;2.96;2.787;2.921;2.921;2.997;3.008;3.002;3.114;2.961;2.914;2.937;2.916;2.747;2.846;1.624;0.569;0.528;0.54;0.537;0.512;0.551;0.538;0.669;0.533;0.555;0.542
Raw Data (584);58750;2.476;1.118;0.828;0.78;0.621;0.595;2.814;2.211;2.139;0.911;1.016;0.59;2.614;1.014;0.779;0.794;0.606;0.606;2.978;2.288;1.965;0.96;0.851;0.577;2.771;1.04;0.788;0.834;0.639;0.624;3.042;2.15;1.82;0.993;0.692;0.596;2.785;1.063;0.703;0.78;0.611;0.618;3.042;2.268;1.845;0.891;0.703;0.597;2.876;2.91;3.002;3.009;3.042;3.033;2.94;2.966;2.951;2.946;2.842;2.824;2.9;2.974;2.947;3.05;3.058;3.085;2.977;2.97;2.944;2.973;2.962;2.737;2.85;2.921;3;3.004;3.019;3.117;2.977;2.912;2.936;2.925;2.723;2.891;1.687;0.587;0.53;0.545;0.533;0.528;0.551;0.547;0.687;0.544;0.55;0.55
Raw Data (584);59363;2.449;1.13;0.831;0.794;0.628;0.596;2.813;2.232;2.163;0.944;1.042;0.594;2.493;1.03;0.774;0.804;0.618;0.613;2.983;2.3;1.986;0.981;0.87;0.579;2.745;1.059;0.784;0.834;0.641;0.617;3.034;2.168;1.852;1.032;0.693;0.602;2.783;1.066;0.713;0.777;0.614;0.62;2.988;2.279;1.876;0.92;0.72;0.596;2.883;2.843;3.001;3.014;3.053;3.007;2.921;2.974;2.933;2.969;2.829;2.83;2.896;2.961;2.905;3.054;3.067;3.043;2.966;2.96;2.938;3.002;2.951;2.771;2.854;2.89;2.985;2.994;3.011;3.132;2.976;2.913;2.888;2.939;2.695;2.949;1.745;0.557;0.532;0.541;0.535;0.534;0.56;0.543;0.706;0.544;0.563;0.558
Raw Data (584);59976;2.435;1.151;0.843;0.791;0.627;0.597;2.811;2.251;2.184;0.957;1.02;0.594;2.446;1.036;0.786;0.802;0.603;0.613;2.97;2.31;2.018;1.019;0.882;0.588;2.73;1.061;0.779;0.845;0.642;0.613;3.031;2.149;1.865;1.064;0.715;0.598;2.756;1.075;0.717;0.793;0.605;0.618;2.989;2.299;1.899;0.966;0.726;0.599;2.931;2.85;3.021;3.01;3.062;3.007;2.913;2.973;2.941;2.972;2.832;2.767;2.908;2.963;2.892;3.008;3.023;3.038;2.966;2.95;2.934;3.004;2.932;2.798;2.805;2.887;2.968;2.982;2.964;3.118;2.973;2.884;2.872;2.924;2.672;2.874;1.796;0.546;0.529;0.544;0.544;0.532;0.553;0.553;0.741;0.545;0.555;0.552
Raw Data (584);60588;2.426;1.169;0.83;0.795;0.62;0.599;2.807;2.242;2.208;1.009;1.092;0.598;2.408;1.039;0.8;0.814;0.608;0.608;2.884;2.312;2.014;1.048;0.945;0.588;2.735;1.077;0.789;0.836;0.638;0.618;2.994;2.177;1.9;1.097;0.725;0.604;2.74;1.091;0.721;0.792;0.614;0.62;2.994;2.308;1.916;1.004;0.742;0.603;2.902;2.862;3.007;3.017;3.082;3.022;2.908;2.971;2.931;2.982;2.816;2.747;2.861;2.926;2.871;3.028;3.032;3.048;2.943;2.957;2.916;2.97;2.908;2.831;2.789;2.878;2.981;2.949;2.953;3.115;3.013;2.887;2.865;2.928;2.635;2.896;1.877;0.57;0.534;0.549;0.538;0.533;0.552;0.551;0.773;0.55;0.56;0.552
Raw Data (584);61202;2.409;1.186;0.827;0.789;0.617;0.59;2.791;2.247;2.225;1.035;1.117;0.593;2.373;1.061;0.807;0.81;0.597;0.602;2.9;2.286;2.021;1.087;0.938;0.584;2.724;1.08;0.778;0.839;0.637;0.614;2.982;2.149;1.898;1.125;0.737;0.595;2.729;1.09;0.709;0.781;0.61;0.608;2.982;2.299;1.933;1.05;0.757;0.595;2.869;2.802;3.014;2.954;3.075;3.004;2.907;2.927;2.905;2.971;2.824;2.75;2.876;2.894;2.857;3.03;3.029;3.036;2.925;2.905;2.926;2.965;2.854;2.773;2.835;2.873;2.965;2.924;2.962;3.093;3.018;2.874;2.803;2.914;2.617;2.875;1.898;0.564;0.53;0.548;0.53;0.524;0.555;0.547;0.807;0.542;0.553;0.552
Raw Data (584);61815;2.449;1.214;0.84;0.804;0.618;0.592;2.771;2.26;2.249;1.078;1.162;0.595;2.353;1.065;0.812;0.821;0.603;0.594;2.912;2.299;2.053;1.115;0.975;0.592;2.717;1.098;0.797;0.848;0.63;0.621;2.988;2.144;1.922;1.164;0.755;0.605;2.725;1.118;0.716;0.781;0.609;0.618;2.95;2.325;1.948;1.109;0.773;0.61;2.891;2.817;3.006;2.988;3.064;3.021;2.873;2.939;2.914;2.98;2.825;2.728;2.876;2.89;2.839;3.046;3.029;3.043;2.901;2.916;2.929;2.95;2.833;2.826;2.852;2.865;2.933;2.908;2.927;3.039;3.046;2.885;2.824;2.92;2.623;2.887;1.945;0.58;0.529;0.555;0.542;0.536;0.56;0.554;0.85;0.542;0.563;0.56
Raw Data (584);62429;2.45;1.222;0.836;0.811;0.621;0.586;2.765;2.254;2.268;1.121;1.158;0.592;2.303;1.079;0.816;0.821;0.608;0.598;2.89;2.313;2.073;1.149;1.009;0.582;2.69;1.104;0.793;0.851;0.638;0.612;2.982;2.147;1.95;1.211;0.773;0.597;2.701;1.127;0.724;0.787;0.61;0.614;2.945;2.318;1.979;1.154;0.783;0.606;2.908;2.822;3.015;2.988;3.068;2.989;2.872;2.933;2.859;2.963;2.812;2.777;2.877;2.798;2.822;3.017;2.958;2.975;2.916;2.921;2.929;2.931;2.77;2.849;2.842;2.862;2.937;2.888;2.941;2.961;3.04;2.883;2.832;2.893;2.636;2.902;1.981;0.582;0.53;0.534;0.534;0.52;0.554;0.547;0.9;0.55;0.558;0.553
Raw Data (584);63041;2.639;1.26;0.869;0.814;0.624;0.589;2.766;2.274;2.292;1.161;1.169;0.602;2.278;1.096;0.835;0.828;0.604;0.597;2.885;2.304;2.089;1.177;1.058;0.595;2.66;1.122;0.805;0.87;0.634;0.603;2.941;2.154;1.953;1.238;0.808;0.605;2.696;1.15;0.73;0.784;0.602;0.617;2.893;2.33;2.005;1.214;0.82;0.614;2.907;2.757;3.021;3.004;3.068;3.026;2.889;2.941;2.87;2.959;2.809;2.845;2.831;2.768;2.761;2.995;2.981;2.982;2.903;2.935;2.922;2.893;2.703;2.841;2.854;2.874;2.924;2.858;2.961;2.936;2.989;2.878;2.858;2.908;2.654;2.83;2.03;0.577;0.54;0.541;0.54;0.535;0.556;0.551;0.983;0.551;0.56;0.552
;;;;;;;;;;;;;;;;;;;;;;;;;;;;;;;;;;;;;;;;;;;;;;;;;;;;;;;;;;;;;;;;;;;;;;;;;;;;;;;;;;;;;;;;;;;;;;;;;
