20180420	1	2	3	4	5	6	7	8	9	10	11	12
A	topA_Ec;M9;aTc:0	topA_Ec;M9;aTc:0.8	topA_Ec;M9;aTc:1.6	topA_Ec;M9;aTc:2.4	topA_Ec;M9;aTc:3.2	topA_Ec;M9;aTc:4	topA_Sc;M9;aTc:0	topA_Sc;M9;aTc:0.8	topA_Sc;M9;aTc:1.6	topA_Sc;M9;aTc:2.4	topA_Sc;M9;aTc:3.2	topA_Sc;M9;aTc:4
B	topA_Ec;M9;aTc:0	topA_Ec;M9;aTc:0.8	topA_Ec;M9;aTc:1.6	topA_Ec;M9;aTc:2.4	topA_Ec;M9;aTc:3.2	topA_Ec;M9;aTc:4	topA_Sc;M9;aTc:0	topA_Sc;M9;aTc:0.8	topA_Sc;M9;aTc:1.6	topA_Sc;M9;aTc:2.4	topA_Sc;M9;aTc:3.2	topA_Sc;M9;aTc:4
C	topA_Ec;M9;aTc:0	topA_Ec;M9;aTc:0.8	topA_Ec;M9;aTc:1.6	topA_Ec;M9;aTc:2.4	topA_Ec;M9;aTc:3.2	topA_Ec;M9;aTc:4	topA_Sc;M9;aTc:0	topA_Sc;M9;aTc:0.8	topA_Sc;M9;aTc:1.6	topA_Sc;M9;aTc:2.4	topA_Sc;M9;aTc:3.2	topA_Sc;M9;aTc:4
D	blank;M9;aTc:0	blank;M9;aTc:0.8	blank;M9;aTc:1.6	blank;M9;aTc:2.4	blank;M9;aTc:3.2	blank;M9;aTc:4	blank;M9;aTc:0	blank;M9;aTc:0.8	blank;M9;aTc:1.6	blank;M9;aTc:2.4	blank;M9;aTc:3.2	blank;M9;aTc:4
E	gyrA_Ec;M9;IPTG:0	gyrA_Ec;M9;IPTG:500	gyrA_Ec;M9;IPTG:1000	gyrA_Ec;M9;IPTG:1500	gyrA_Ec;M9;IPTG:2000	gyrA_Ec;M9;IPTG:2500	gyrB_Ec;M9;IPTG:0	gyrB_Ec;M9;IPTG:500	gyrB_Ec;M9;IPTG:1000	gyrB_Ec;M9;IPTG:1500	gyrB_Ec;M9;IPTG:2000	gyrB_Ec;M9;IPTG:2500
F	gyrA_Ec;M9;IPTG:0	gyrA_Ec;M9;IPTG:500	gyrA_Ec;M9;IPTG:1000	gyrA_Ec;M9;IPTG:1500	gyrA_Ec;M9;IPTG:2000	gyrA_Ec;M9;IPTG:2500	gyrB_Ec;M9;IPTG:0	gyrB_Ec;M9;IPTG:500	gyrB_Ec;M9;IPTG:1000	gyrB_Ec;M9;IPTG:1500	gyrB_Ec;M9;IPTG:2000	gyrB_Ec;M9;IPTG:2500
G	gyrA_Ec;M9;IPTG:0	gyrA_Ec;M9;IPTG:500	gyrA_Ec;M9;IPTG:1000	gyrA_Ec;M9;IPTG:1500	gyrA_Ec;M9;IPTG:2000	gyrA_Ec;M9;IPTG:2500	gyrB_Ec;M9;IPTG:0	gyrB_Ec;M9;IPTG:500	gyrB_Ec;M9;IPTG:1000	gyrB_Ec;M9;IPTG:1500	gyrB_Ec;M9;IPTG:2000	gyrB_Ec;M9;IPTG:2500
H	blank;M9;IPTG:0	blank;M9;IPTG:500	blank;M9;IPTG:1000	blank;M9;IPTG:1500	blank;M9;IPTG:2000	blank;M9;IPTG:2500	blank;M9;IPTG:0	blank;M9;IPTG:500	blank;M9;IPTG:1000	blank;M9;IPTG:1500	blank;M9;IPTG:2000	blank;M9;IPTG:2500
