User: USER;Path: C:\Program Files\BMG\OPTIMA\User\Data\;Test run no.: 8549
Test name: ABS ECOLI;Date: 2018-04-20;Time: 4:51:36 PM
ID1: 20180420_ecoli_topA  1;ID2: Absorbance;
Absorbance

Well Row;;A;A;A;A;A;A;A;A;A;A;A;A;B;B;B;B;B;B;B;B;B;B;B;B;C;C;C;C;C;C;C;C;C;C;C;C;D;D;D;D;D;D;D;D;D;D;D;D;E;E;E;E;E;E;E;E;E;E;E;E;F;F;F;F;F;F;F;F;F;F;F;F;G;G;G;G;G;G;G;G;G;G;G;G;H;H;H;H;H;H;H;H;H;H;H;H
Well Col;;1;2;3;4;5;6;7;8;9;10;11;12;1;2;3;4;5;6;7;8;9;10;11;12;1;2;3;4;5;6;7;8;9;10;11;12;1;2;3;4;5;6;7;8;9;10;11;12;1;2;3;4;5;6;7;8;9;10;11;12;1;2;3;4;5;6;7;8;9;10;11;12;1;2;3;4;5;6;7;8;9;10;11;12;1;2;3;4;5;6;7;8;9;10;11;12
Content;Time [s];Sample X1;Sample X2;Sample X3;Sample X4;Sample X5;Sample X6;Sample X7;Sample X8;Sample X9;Sample X10;Sample X11;Sample X12;Sample X1;Sample X2;Sample X3;Sample X4;Sample X5;Sample X6;Sample X7;Sample X8;Sample X9;Sample X10;Sample X11;Sample X12;Sample X1;Sample X2;Sample X3;Sample X4;Sample X5;Sample X6;Sample X7;Sample X8;Sample X9;Sample X10;Sample X11;Sample X12;Sample X1;Sample X2;Sample X3;Sample X4;Sample X5;Sample X6;Sample X7;Sample X8;Sample X9;Sample X10;Sample X11;Sample X12;Sample X1;Sample X2;Sample X3;Sample X4;Sample X5;Sample X6;Sample X7;Sample X8;Sample X9;Sample X10;Sample X11;Sample X12;Sample X1;Sample X2;Sample X3;Sample X4;Sample X5;Sample X6;Sample X7;Sample X8;Sample X9;Sample X10;Sample X11;Sample X12;Sample X1;Sample X2;Sample X3;Sample X4;Sample X5;Sample X6;Sample X7;Sample X8;Sample X9;Sample X10;Sample X11;Sample X12;Blank B;Blank B;Blank B;Blank B;Blank B;Blank B;Blank B;Blank B;Blank B;Blank B;Blank B;Blank B
Raw Data (584);0;0.348;0.335;0.343;0.375;0.35;0.349;0.4;0.383;0.376;0.37;0.378;0.36;0.352;0.328;0.37;0.35;0.342;0.338;0.353;0.36;0.341;0.327;0.355;0.36;0.367;0.337;0.352;0.404;0.353;0.315;0.363;0.379;0.38;0.36;0.365;0.354;0.302;0.289;0.294;0.329;0.305;0.299;0.312;0.325;0.308;0.301;0.324;0.306;0.366;0.351;0.356;0.374;0.4;0.366;0.396;0.413;0.407;0.39;0.388;0.381;0.365;0.356;0.347;0.358;0.355;0.36;0.378;0.361;0.375;0.364;0.385;0.395;0.38;0.371;0.355;0.372;0.396;0.349;0.359;0.407;0.391;0.383;0.393;0.398;0.284;0.276;0.28;0.296;0.297;0.297;0.313;0.31;0.319;0.303;0.323;0.334
Raw Data (584);610;0.367;0.345;0.359;0.384;0.364;0.361;0.4;0.389;0.385;0.378;0.379;0.373;0.353;0.342;0.359;0.353;0.345;0.339;0.363;0.363;0.355;0.334;0.358;0.363;0.372;0.351;0.35;0.397;0.348;0.329;0.373;0.382;0.375;0.358;0.372;0.361;0.307;0.305;0.292;0.319;0.312;0.312;0.315;0.326;0.315;0.31;0.328;0.328;0.36;0.355;0.362;0.375;0.391;0.37;0.385;0.402;0.403;0.381;0.377;0.373;0.367;0.361;0.343;0.358;0.357;0.358;0.378;0.352;0.378;0.356;0.378;0.398;0.381;0.364;0.355;0.371;0.379;0.35;0.351;0.402;0.379;0.388;0.397;0.392;0.273;0.275;0.27;0.299;0.292;0.283;0.301;0.301;0.308;0.298;0.315;0.32
Raw Data (584);1224;0.362;0.343;0.355;0.377;0.359;0.364;0.382;0.384;0.38;0.371;0.38;0.361;0.353;0.346;0.361;0.359;0.345;0.348;0.354;0.362;0.364;0.344;0.361;0.367;0.372;0.343;0.348;0.401;0.351;0.339;0.368;0.375;0.373;0.356;0.371;0.364;0.308;0.302;0.297;0.319;0.309;0.311;0.311;0.334;0.321;0.314;0.328;0.318;0.365;0.356;0.362;0.383;0.389;0.376;0.386;0.411;0.404;0.384;0.39;0.375;0.361;0.345;0.355;0.363;0.37;0.363;0.38;0.361;0.384;0.365;0.379;0.384;0.376;0.362;0.348;0.372;0.39;0.354;0.358;0.391;0.381;0.377;0.391;0.398;0.277;0.278;0.27;0.295;0.286;0.281;0.293;0.301;0.305;0.298;0.314;0.328
Raw Data (584);1839;0.379;0.362;0.381;0.396;0.381;0.378;0.41;0.409;0.401;0.394;0.395;0.388;0.379;0.365;0.388;0.368;0.367;0.364;0.38;0.378;0.382;0.358;0.381;0.379;0.391;0.367;0.37;0.42;0.38;0.353;0.38;0.396;0.394;0.374;0.396;0.385;0.316;0.321;0.318;0.337;0.335;0.337;0.325;0.353;0.333;0.328;0.343;0.344;0.376;0.375;0.388;0.393;0.414;0.394;0.405;0.43;0.42;0.399;0.413;0.399;0.389;0.384;0.37;0.39;0.385;0.371;0.399;0.377;0.406;0.389;0.402;0.414;0.427;0.381;0.379;0.391;0.401;0.377;0.382;0.416;0.414;0.407;0.415;0.411;0.287;0.282;0.301;0.302;0.3;0.291;0.323;0.325;0.325;0.318;0.334;0.34
Raw Data (584);2453;0.379;0.354;0.359;0.383;0.379;0.374;0.397;0.4;0.381;0.38;0.388;0.377;0.362;0.349;0.377;0.361;0.352;0.352;0.37;0.371;0.37;0.357;0.371;0.375;0.383;0.356;0.356;0.407;0.353;0.348;0.382;0.386;0.38;0.366;0.382;0.374;0.31;0.317;0.307;0.322;0.322;0.32;0.32;0.338;0.318;0.317;0.327;0.335;0.376;0.371;0.366;0.384;0.403;0.39;0.402;0.419;0.404;0.393;0.399;0.381;0.376;0.363;0.367;0.372;0.376;0.368;0.385;0.373;0.388;0.373;0.391;0.393;0.39;0.375;0.362;0.392;0.4;0.372;0.378;0.406;0.385;0.387;0.399;0.401;0.28;0.28;0.282;0.296;0.289;0.292;0.298;0.293;0.308;0.308;0.324;0.32
Raw Data (584);3068;0.378;0.35;0.373;0.388;0.387;0.376;0.394;0.406;0.386;0.378;0.389;0.378;0.367;0.358;0.372;0.368;0.355;0.356;0.371;0.377;0.37;0.36;0.372;0.381;0.381;0.357;0.361;0.406;0.355;0.351;0.381;0.4;0.379;0.369;0.384;0.374;0.303;0.316;0.31;0.314;0.317;0.318;0.318;0.329;0.323;0.324;0.324;0.331;0.377;0.376;0.375;0.39;0.4;0.381;0.401;0.415;0.415;0.402;0.393;0.395;0.377;0.372;0.366;0.382;0.383;0.369;0.39;0.376;0.393;0.378;0.387;0.405;0.392;0.377;0.367;0.393;0.401;0.362;0.378;0.414;0.388;0.387;0.408;0.42;0.282;0.277;0.279;0.294;0.289;0.277;0.309;0.303;0.316;0.305;0.316;0.324
Raw Data (584);3683;0.374;0.354;0.373;0.39;0.374;0.378;0.392;0.407;0.391;0.388;0.397;0.378;0.371;0.359;0.372;0.367;0.358;0.357;0.376;0.38;0.379;0.362;0.369;0.386;0.38;0.357;0.366;0.399;0.365;0.355;0.377;0.392;0.39;0.363;0.383;0.376;0.309;0.316;0.301;0.314;0.316;0.307;0.318;0.334;0.327;0.322;0.324;0.33;0.368;0.363;0.375;0.392;0.408;0.389;0.404;0.423;0.401;0.394;0.39;0.392;0.387;0.367;0.366;0.37;0.37;0.376;0.392;0.378;0.394;0.38;0.385;0.403;0.39;0.383;0.372;0.387;0.405;0.368;0.375;0.414;0.393;0.394;0.392;0.409;0.285;0.272;0.276;0.294;0.29;0.279;0.301;0.308;0.309;0.301;0.312;0.322
Raw Data (584);4298;0.382;0.362;0.392;0.394;0.386;0.387;0.412;0.42;0.398;0.399;0.397;0.379;0.371;0.363;0.383;0.372;0.366;0.364;0.382;0.383;0.382;0.363;0.387;0.378;0.384;0.362;0.372;0.402;0.363;0.357;0.393;0.403;0.391;0.374;0.398;0.387;0.31;0.317;0.312;0.323;0.328;0.335;0.319;0.335;0.33;0.325;0.335;0.338;0.386;0.373;0.395;0.395;0.413;0.393;0.418;0.425;0.425;0.41;0.407;0.405;0.378;0.371;0.377;0.385;0.378;0.379;0.392;0.388;0.392;0.382;0.388;0.405;0.398;0.375;0.376;0.397;0.408;0.382;0.382;0.413;0.396;0.402;0.41;0.411;0.28;0.279;0.282;0.301;0.297;0.281;0.311;0.308;0.316;0.308;0.322;0.332
Raw Data (584);4914;0.37;0.356;0.386;0.399;0.384;0.387;0.412;0.414;0.402;0.397;0.404;0.385;0.37;0.357;0.383;0.375;0.362;0.364;0.384;0.386;0.38;0.365;0.381;0.381;0.387;0.354;0.364;0.403;0.367;0.353;0.388;0.395;0.385;0.377;0.399;0.382;0.304;0.319;0.302;0.314;0.319;0.319;0.316;0.34;0.32;0.326;0.325;0.335;0.387;0.378;0.392;0.393;0.41;0.393;0.405;0.422;0.417;0.405;0.414;0.401;0.387;0.372;0.372;0.386;0.391;0.377;0.395;0.384;0.397;0.389;0.385;0.409;0.398;0.385;0.373;0.387;0.406;0.373;0.38;0.404;0.393;0.394;0.408;0.408;0.277;0.269;0.276;0.298;0.288;0.28;0.299;0.298;0.317;0.303;0.319;0.321
Raw Data (584);5528;0.381;0.36;0.396;0.399;0.388;0.379;0.405;0.409;0.41;0.39;0.402;0.389;0.373;0.362;0.379;0.377;0.369;0.371;0.382;0.39;0.386;0.365;0.382;0.38;0.386;0.367;0.373;0.409;0.374;0.36;0.39;0.4;0.394;0.374;0.396;0.384;0.298;0.308;0.311;0.313;0.315;0.329;0.312;0.33;0.323;0.324;0.329;0.339;0.387;0.384;0.393;0.39;0.412;0.396;0.406;0.424;0.422;0.403;0.403;0.395;0.39;0.377;0.376;0.388;0.381;0.38;0.393;0.389;0.398;0.383;0.387;0.408;0.39;0.379;0.374;0.393;0.41;0.378;0.385;0.415;0.388;0.396;0.414;0.408;0.274;0.273;0.276;0.292;0.283;0.282;0.3;0.306;0.308;0.302;0.32;0.325
Raw Data (584);6139;0.388;0.365;0.392;0.397;0.391;0.386;0.403;0.41;0.4;0.399;0.392;0.384;0.381;0.372;0.389;0.383;0.366;0.377;0.396;0.389;0.39;0.369;0.379;0.396;0.392;0.36;0.387;0.402;0.37;0.365;0.394;0.404;0.392;0.394;0.402;0.399;0.302;0.309;0.307;0.319;0.325;0.328;0.318;0.337;0.325;0.326;0.329;0.329;0.385;0.383;0.395;0.407;0.417;0.399;0.405;0.434;0.425;0.413;0.412;0.41;0.392;0.38;0.377;0.391;0.393;0.375;0.401;0.391;0.404;0.386;0.4;0.411;0.4;0.388;0.384;0.401;0.417;0.376;0.393;0.417;0.402;0.396;0.401;0.411;0.286;0.268;0.275;0.297;0.289;0.275;0.307;0.302;0.314;0.307;0.315;0.326
Raw Data (584);6750;0.385;0.363;0.393;0.4;0.384;0.381;0.395;0.416;0.414;0.394;0.403;0.387;0.372;0.371;0.388;0.383;0.369;0.366;0.393;0.389;0.386;0.369;0.387;0.386;0.389;0.369;0.388;0.417;0.372;0.365;0.393;0.406;0.397;0.385;0.403;0.39;0.309;0.309;0.304;0.313;0.316;0.32;0.313;0.335;0.326;0.327;0.337;0.329;0.391;0.387;0.397;0.403;0.409;0.396;0.419;0.428;0.418;0.408;0.408;0.397;0.406;0.374;0.387;0.389;0.392;0.385;0.399;0.375;0.399;0.393;0.402;0.407;0.392;0.38;0.384;0.404;0.412;0.378;0.396;0.421;0.398;0.402;0.417;0.42;0.27;0.264;0.26;0.292;0.287;0.271;0.299;0.3;0.309;0.296;0.318;0.322
Raw Data (584);7360;0.379;0.38;0.395;0.403;0.397;0.392;0.411;0.42;0.408;0.401;0.413;0.386;0.385;0.365;0.388;0.384;0.373;0.373;0.405;0.395;0.394;0.378;0.392;0.389;0.397;0.374;0.384;0.419;0.374;0.365;0.397;0.412;0.395;0.387;0.394;0.379;0.298;0.318;0.308;0.311;0.32;0.317;0.308;0.333;0.32;0.322;0.322;0.331;0.391;0.392;0.404;0.411;0.42;0.399;0.423;0.43;0.429;0.41;0.405;0.397;0.396;0.384;0.383;0.391;0.395;0.396;0.406;0.388;0.403;0.398;0.402;0.415;0.402;0.386;0.385;0.402;0.415;0.382;0.395;0.423;0.399;0.416;0.406;0.417;0.277;0.264;0.267;0.295;0.274;0.277;0.3;0.295;0.306;0.292;0.313;0.321
Raw Data (584);7971;0.402;0.384;0.407;0.419;0.402;0.398;0.423;0.434;0.426;0.4;0.422;0.405;0.4;0.389;0.41;0.397;0.389;0.395;0.405;0.411;0.418;0.392;0.403;0.391;0.408;0.388;0.399;0.428;0.392;0.387;0.415;0.42;0.411;0.403;0.423;0.409;0.316;0.31;0.312;0.325;0.327;0.325;0.323;0.342;0.328;0.333;0.335;0.335;0.398;0.402;0.408;0.42;0.432;0.422;0.428;0.446;0.436;0.422;0.417;0.418;0.401;0.398;0.399;0.4;0.41;0.398;0.412;0.405;0.404;0.397;0.413;0.427;0.411;0.405;0.392;0.424;0.43;0.393;0.413;0.443;0.411;0.414;0.419;0.419;0.276;0.274;0.271;0.299;0.291;0.285;0.301;0.3;0.314;0.303;0.315;0.325
Raw Data (584);8582;0.403;0.388;0.415;0.409;0.412;0.403;0.418;0.426;0.423;0.414;0.423;0.402;0.395;0.389;0.401;0.407;0.4;0.392;0.406;0.406;0.403;0.4;0.403;0.394;0.411;0.375;0.395;0.43;0.391;0.375;0.411;0.418;0.417;0.407;0.415;0.407;0.305;0.315;0.309;0.32;0.327;0.314;0.311;0.337;0.33;0.325;0.331;0.33;0.402;0.398;0.411;0.421;0.44;0.421;0.433;0.446;0.436;0.419;0.431;0.409;0.4;0.388;0.408;0.41;0.402;0.403;0.42;0.405;0.412;0.407;0.409;0.417;0.41;0.401;0.406;0.419;0.426;0.405;0.416;0.439;0.414;0.412;0.417;0.429;0.283;0.277;0.274;0.3;0.287;0.283;0.297;0.305;0.309;0.303;0.321;0.321
Raw Data (584);9193;0.394;0.387;0.406;0.417;0.408;0.403;0.417;0.433;0.425;0.41;0.411;0.404;0.388;0.385;0.409;0.396;0.393;0.379;0.395;0.403;0.412;0.386;0.402;0.398;0.401;0.381;0.398;0.432;0.389;0.388;0.414;0.43;0.416;0.404;0.422;0.398;0.305;0.316;0.311;0.316;0.334;0.316;0.317;0.34;0.327;0.321;0.344;0.328;0.394;0.403;0.413;0.419;0.432;0.418;0.424;0.449;0.424;0.411;0.416;0.404;0.398;0.392;0.396;0.41;0.412;0.394;0.412;0.407;0.411;0.404;0.406;0.423;0.413;0.405;0.399;0.417;0.429;0.391;0.401;0.438;0.403;0.407;0.414;0.423;0.28;0.26;0.266;0.293;0.284;0.278;0.295;0.297;0.31;0.294;0.313;0.321
Raw Data (584);9805;0.389;0.383;0.41;0.409;0.403;0.4;0.419;0.433;0.416;0.406;0.415;0.399;0.389;0.378;0.399;0.405;0.387;0.378;0.402;0.402;0.407;0.386;0.407;0.401;0.401;0.392;0.401;0.428;0.403;0.391;0.417;0.425;0.431;0.403;0.418;0.402;0.294;0.312;0.306;0.317;0.311;0.326;0.315;0.333;0.315;0.324;0.317;0.324;0.404;0.39;0.408;0.429;0.428;0.421;0.426;0.438;0.424;0.408;0.416;0.41;0.398;0.389;0.402;0.412;0.404;0.405;0.428;0.41;0.413;0.415;0.409;0.419;0.409;0.407;0.402;0.416;0.428;0.401;0.412;0.43;0.414;0.409;0.416;0.42;0.268;0.268;0.268;0.289;0.284;0.278;0.288;0.292;0.309;0.294;0.306;0.32
Raw Data (584);10416;0.399;0.395;0.428;0.433;0.425;0.414;0.437;0.447;0.441;0.424;0.423;0.406;0.39;0.393;0.422;0.406;0.394;0.398;0.411;0.405;0.412;0.402;0.41;0.411;0.413;0.405;0.415;0.446;0.405;0.393;0.422;0.43;0.425;0.418;0.43;0.406;0.311;0.312;0.309;0.315;0.325;0.327;0.319;0.341;0.326;0.333;0.336;0.329;0.398;0.41;0.424;0.43;0.441;0.417;0.451;0.449;0.439;0.424;0.42;0.413;0.404;0.407;0.416;0.414;0.413;0.406;0.428;0.412;0.426;0.4;0.413;0.433;0.423;0.415;0.418;0.419;0.434;0.411;0.415;0.453;0.407;0.413;0.432;0.432;0.276;0.276;0.268;0.299;0.285;0.281;0.304;0.296;0.315;0.296;0.312;0.319
Raw Data (584);11027;0.406;0.401;0.434;0.434;0.432;0.424;0.434;0.45;0.444;0.428;0.442;0.416;0.406;0.412;0.422;0.416;0.412;0.402;0.422;0.414;0.424;0.403;0.419;0.41;0.414;0.412;0.419;0.45;0.408;0.399;0.422;0.437;0.439;0.427;0.435;0.416;0.307;0.319;0.311;0.324;0.324;0.322;0.319;0.332;0.336;0.336;0.341;0.331;0.416;0.408;0.425;0.444;0.443;0.432;0.452;0.451;0.432;0.428;0.428;0.422;0.412;0.415;0.422;0.438;0.422;0.411;0.433;0.422;0.413;0.417;0.423;0.431;0.407;0.416;0.415;0.438;0.452;0.414;0.425;0.452;0.417;0.418;0.426;0.437;0.272;0.274;0.27;0.288;0.286;0.281;0.299;0.304;0.311;0.296;0.317;0.324
Raw Data (584);11640;0.413;0.407;0.441;0.443;0.435;0.43;0.447;0.462;0.451;0.43;0.449;0.425;0.401;0.411;0.431;0.423;0.412;0.418;0.429;0.434;0.434;0.417;0.43;0.424;0.423;0.422;0.438;0.457;0.42;0.414;0.433;0.458;0.438;0.439;0.446;0.42;0.313;0.32;0.315;0.33;0.34;0.328;0.325;0.358;0.333;0.34;0.341;0.34;0.418;0.423;0.436;0.453;0.454;0.439;0.456;0.463;0.444;0.432;0.433;0.421;0.426;0.417;0.435;0.43;0.427;0.419;0.447;0.428;0.427;0.431;0.421;0.436;0.432;0.415;0.434;0.445;0.448;0.422;0.436;0.456;0.426;0.43;0.441;0.442;0.278;0.278;0.274;0.3;0.295;0.28;0.304;0.306;0.315;0.296;0.319;0.326
Raw Data (584);12251;0.407;0.416;0.442;0.446;0.423;0.431;0.448;0.462;0.457;0.442;0.45;0.418;0.416;0.416;0.435;0.426;0.415;0.409;0.424;0.422;0.432;0.412;0.426;0.413;0.419;0.416;0.434;0.456;0.419;0.421;0.443;0.448;0.452;0.428;0.448;0.427;0.311;0.317;0.309;0.326;0.322;0.328;0.32;0.347;0.326;0.328;0.333;0.331;0.417;0.422;0.435;0.447;0.445;0.443;0.455;0.458;0.441;0.429;0.443;0.432;0.423;0.416;0.429;0.438;0.442;0.419;0.439;0.418;0.421;0.412;0.425;0.434;0.431;0.424;0.432;0.444;0.459;0.422;0.438;0.461;0.424;0.417;0.439;0.446;0.276;0.274;0.263;0.291;0.287;0.272;0.294;0.297;0.31;0.299;0.313;0.317
Raw Data (584);12862;0.408;0.413;0.446;0.447;0.44;0.431;0.452;0.474;0.458;0.447;0.453;0.427;0.418;0.417;0.438;0.433;0.418;0.424;0.435;0.442;0.446;0.423;0.431;0.418;0.412;0.427;0.448;0.471;0.432;0.424;0.436;0.46;0.464;0.433;0.453;0.441;0.312;0.318;0.306;0.316;0.331;0.327;0.322;0.339;0.329;0.329;0.346;0.335;0.423;0.431;0.456;0.457;0.459;0.449;0.458;0.456;0.445;0.432;0.436;0.426;0.42;0.423;0.438;0.44;0.437;0.427;0.444;0.438;0.428;0.417;0.433;0.44;0.436;0.434;0.438;0.453;0.461;0.428;0.444;0.469;0.427;0.435;0.438;0.438;0.269;0.267;0.269;0.29;0.289;0.273;0.304;0.305;0.314;0.299;0.321;0.321
Raw Data (584);13473;0.414;0.423;0.45;0.447;0.44;0.446;0.441;0.474;0.462;0.443;0.443;0.421;0.409;0.428;0.448;0.443;0.421;0.416;0.432;0.436;0.448;0.428;0.436;0.425;0.416;0.426;0.447;0.474;0.432;0.429;0.446;0.457;0.463;0.448;0.458;0.424;0.31;0.32;0.314;0.323;0.327;0.327;0.315;0.335;0.328;0.331;0.336;0.338;0.414;0.424;0.451;0.458;0.456;0.449;0.463;0.457;0.45;0.434;0.43;0.427;0.414;0.431;0.445;0.442;0.444;0.437;0.446;0.433;0.431;0.421;0.449;0.436;0.426;0.437;0.439;0.454;0.466;0.442;0.452;0.47;0.428;0.426;0.447;0.442;0.278;0.265;0.272;0.285;0.283;0.27;0.294;0.303;0.302;0.302;0.31;0.321
Raw Data (584);14084;0.421;0.426;0.453;0.455;0.44;0.447;0.453;0.481;0.476;0.452;0.464;0.43;0.424;0.431;0.453;0.451;0.43;0.436;0.439;0.448;0.453;0.43;0.444;0.436;0.436;0.449;0.456;0.491;0.453;0.437;0.456;0.476;0.474;0.452;0.465;0.445;0.307;0.323;0.316;0.325;0.324;0.329;0.321;0.349;0.327;0.328;0.343;0.336;0.427;0.43;0.461;0.473;0.465;0.451;0.473;0.472;0.454;0.441;0.448;0.437;0.427;0.429;0.45;0.457;0.459;0.445;0.457;0.444;0.438;0.427;0.447;0.453;0.432;0.444;0.457;0.464;0.479;0.442;0.455;0.474;0.434;0.44;0.444;0.452;0.279;0.265;0.27;0.3;0.288;0.279;0.303;0.302;0.314;0.302;0.31;0.327
Raw Data (584);14697;0.423;0.437;0.466;0.471;0.453;0.46;0.46;0.481;0.481;0.467;0.474;0.442;0.426;0.436;0.472;0.459;0.43;0.44;0.442;0.458;0.452;0.445;0.451;0.428;0.436;0.444;0.46;0.49;0.449;0.453;0.456;0.476;0.476;0.46;0.47;0.443;0.312;0.308;0.314;0.326;0.332;0.332;0.322;0.354;0.34;0.327;0.338;0.332;0.432;0.443;0.467;0.476;0.482;0.464;0.476;0.477;0.452;0.436;0.458;0.436;0.434;0.426;0.457;0.461;0.442;0.448;0.458;0.441;0.435;0.427;0.443;0.441;0.441;0.45;0.461;0.467;0.485;0.46;0.452;0.475;0.439;0.44;0.45;0.458;0.275;0.266;0.262;0.287;0.28;0.277;0.296;0.299;0.31;0.3;0.319;0.323
Raw Data (584);15310;0.431;0.443;0.472;0.468;0.462;0.46;0.458;0.491;0.486;0.465;0.467;0.438;0.425;0.447;0.468;0.458;0.439;0.443;0.447;0.466;0.468;0.452;0.46;0.44;0.435;0.453;0.474;0.495;0.455;0.444;0.453;0.488;0.488;0.469;0.482;0.449;0.307;0.316;0.306;0.329;0.331;0.325;0.319;0.336;0.326;0.328;0.34;0.329;0.433;0.446;0.462;0.484;0.474;0.47;0.471;0.462;0.458;0.443;0.447;0.434;0.432;0.441;0.469;0.469;0.462;0.455;0.472;0.449;0.435;0.422;0.448;0.457;0.441;0.453;0.472;0.469;0.486;0.453;0.463;0.478;0.433;0.445;0.45;0.445;0.27;0.274;0.27;0.28;0.29;0.271;0.29;0.292;0.31;0.293;0.303;0.315
Raw Data (584);15922;0.436;0.443;0.484;0.476;0.458;0.464;0.472;0.504;0.5;0.476;0.485;0.446;0.436;0.451;0.474;0.476;0.455;0.446;0.448;0.469;0.475;0.464;0.47;0.445;0.44;0.451;0.478;0.509;0.471;0.458;0.457;0.502;0.487;0.475;0.491;0.456;0.307;0.317;0.301;0.314;0.326;0.324;0.32;0.341;0.325;0.322;0.346;0.339;0.43;0.449;0.471;0.486;0.489;0.478;0.479;0.478;0.462;0.446;0.453;0.441;0.448;0.445;0.472;0.48;0.471;0.457;0.473;0.448;0.439;0.43;0.454;0.462;0.444;0.454;0.481;0.485;0.504;0.461;0.469;0.479;0.437;0.441;0.456;0.448;0.273;0.273;0.268;0.293;0.286;0.268;0.292;0.302;0.301;0.303;0.317;0.312
Raw Data (584);16535;0.431;0.447;0.483;0.481;0.454;0.473;0.471;0.511;0.494;0.473;0.483;0.443;0.427;0.451;0.488;0.467;0.45;0.459;0.455;0.478;0.481;0.459;0.474;0.449;0.436;0.464;0.48;0.518;0.467;0.463;0.457;0.504;0.495;0.477;0.495;0.444;0.295;0.312;0.303;0.311;0.315;0.316;0.307;0.339;0.326;0.33;0.331;0.323;0.429;0.454;0.477;0.493;0.48;0.467;0.486;0.478;0.46;0.444;0.451;0.447;0.445;0.45;0.48;0.477;0.471;0.46;0.473;0.452;0.44;0.44;0.448;0.458;0.443;0.469;0.485;0.486;0.494;0.467;0.484;0.484;0.447;0.444;0.454;0.447;0.265;0.261;0.263;0.289;0.281;0.273;0.291;0.289;0.302;0.295;0.304;0.319
Raw Data (584);17147;0.427;0.457;0.496;0.49;0.469;0.477;0.472;0.504;0.511;0.479;0.498;0.457;0.436;0.461;0.491;0.487;0.465;0.47;0.46;0.477;0.49;0.479;0.479;0.457;0.442;0.476;0.502;0.523;0.482;0.469;0.468;0.501;0.517;0.474;0.503;0.474;0.298;0.307;0.301;0.318;0.322;0.322;0.319;0.33;0.326;0.328;0.338;0.324;0.437;0.456;0.491;0.486;0.488;0.477;0.485;0.47;0.457;0.447;0.465;0.44;0.443;0.448;0.477;0.489;0.49;0.471;0.481;0.453;0.432;0.429;0.452;0.451;0.442;0.472;0.494;0.498;0.502;0.462;0.477;0.486;0.456;0.45;0.454;0.453;0.261;0.268;0.262;0.279;0.28;0.27;0.297;0.297;0.295;0.296;0.31;0.314
Raw Data (584);17760;0.439;0.459;0.504;0.504;0.477;0.489;0.474;0.519;0.512;0.494;0.494;0.464;0.435;0.466;0.497;0.5;0.471;0.47;0.466;0.489;0.501;0.478;0.488;0.462;0.449;0.486;0.508;0.525;0.475;0.484;0.482;0.519;0.508;0.494;0.509;0.473;0.298;0.309;0.305;0.324;0.324;0.32;0.304;0.335;0.322;0.326;0.343;0.336;0.443;0.463;0.487;0.497;0.491;0.485;0.495;0.479;0.47;0.45;0.466;0.455;0.442;0.446;0.494;0.493;0.488;0.486;0.491;0.464;0.443;0.436;0.469;0.468;0.448;0.482;0.507;0.503;0.518;0.466;0.49;0.502;0.449;0.449;0.468;0.459;0.277;0.271;0.262;0.284;0.287;0.266;0.291;0.299;0.305;0.291;0.315;0.321
Raw Data (584);18373;0.446;0.483;0.53;0.525;0.521;0.512;0.502;0.533;0.526;0.509;0.51;0.478;0.442;0.496;0.519;0.516;0.485;0.49;0.485;0.515;0.522;0.494;0.498;0.477;0.466;0.503;0.51;0.558;0.511;0.492;0.492;0.536;0.54;0.508;0.528;0.494;0.311;0.325;0.32;0.328;0.334;0.335;0.318;0.345;0.325;0.331;0.337;0.335;0.46;0.475;0.503;0.519;0.509;0.504;0.507;0.49;0.475;0.467;0.48;0.459;0.468;0.466;0.513;0.514;0.497;0.501;0.504;0.48;0.457;0.45;0.477;0.481;0.467;0.493;0.509;0.516;0.532;0.491;0.506;0.517;0.469;0.471;0.475;0.463;0.275;0.278;0.281;0.296;0.285;0.281;0.304;0.313;0.321;0.307;0.323;0.325
Raw Data (584);18984;0.458;0.49;0.525;0.53;0.52;0.511;0.501;0.547;0.533;0.516;0.523;0.484;0.456;0.501;0.526;0.526;0.496;0.503;0.482;0.509;0.531;0.502;0.507;0.481;0.47;0.494;0.534;0.558;0.501;0.505;0.497;0.543;0.546;0.519;0.527;0.499;0.304;0.322;0.311;0.319;0.32;0.328;0.317;0.337;0.329;0.331;0.333;0.334;0.456;0.486;0.519;0.525;0.508;0.511;0.517;0.496;0.487;0.467;0.483;0.468;0.452;0.472;0.515;0.515;0.512;0.491;0.506;0.476;0.463;0.449;0.472;0.48;0.464;0.5;0.52;0.52;0.528;0.485;0.511;0.52;0.469;0.469;0.478;0.469;0.28;0.276;0.272;0.293;0.29;0.277;0.293;0.303;0.309;0.303;0.321;0.317
Raw Data (584);19598;0.45;0.499;0.544;0.528;0.533;0.515;0.497;0.549;0.557;0.521;0.533;0.482;0.452;0.506;0.531;0.523;0.505;0.505;0.493;0.518;0.533;0.511;0.508;0.49;0.468;0.508;0.538;0.563;0.507;0.509;0.491;0.549;0.553;0.528;0.536;0.498;0.296;0.314;0.316;0.32;0.322;0.332;0.311;0.344;0.333;0.33;0.341;0.336;0.458;0.489;0.509;0.524;0.515;0.518;0.52;0.486;0.479;0.459;0.481;0.457;0.462;0.468;0.519;0.523;0.515;0.501;0.494;0.478;0.456;0.447;0.468;0.484;0.457;0.5;0.528;0.522;0.534;0.503;0.508;0.508;0.47;0.466;0.489;0.471;0.277;0.274;0.271;0.292;0.292;0.273;0.298;0.303;0.31;0.29;0.307;0.316
Raw Data (584);20211;0.462;0.51;0.54;0.538;0.535;0.529;0.499;0.548;0.549;0.527;0.543;0.489;0.453;0.512;0.535;0.538;0.503;0.508;0.491;0.531;0.539;0.527;0.52;0.488;0.467;0.504;0.536;0.564;0.514;0.517;0.496;0.545;0.555;0.529;0.547;0.504;0.29;0.314;0.309;0.315;0.315;0.32;0.314;0.324;0.323;0.319;0.339;0.325;0.457;0.496;0.518;0.531;0.521;0.517;0.513;0.504;0.478;0.464;0.474;0.471;0.458;0.479;0.527;0.519;0.522;0.504;0.504;0.483;0.461;0.452;0.485;0.479;0.467;0.508;0.538;0.52;0.535;0.495;0.516;0.524;0.466;0.469;0.468;0.469;0.268;0.265;0.263;0.281;0.28;0.275;0.294;0.296;0.313;0.297;0.307;0.32
Raw Data (584);20823;0.462;0.531;0.565;0.557;0.543;0.531;0.51;0.569;0.567;0.529;0.552;0.49;0.467;0.523;0.552;0.537;0.526;0.521;0.491;0.539;0.552;0.534;0.544;0.505;0.474;0.519;0.552;0.569;0.527;0.534;0.504;0.571;0.569;0.546;0.543;0.522;0.3;0.319;0.31;0.322;0.331;0.336;0.314;0.336;0.329;0.327;0.339;0.336;0.46;0.509;0.527;0.531;0.532;0.528;0.519;0.505;0.485;0.475;0.491;0.479;0.471;0.485;0.534;0.546;0.527;0.516;0.512;0.489;0.47;0.466;0.484;0.492;0.474;0.513;0.538;0.539;0.545;0.509;0.521;0.527;0.485;0.483;0.486;0.476;0.273;0.274;0.262;0.288;0.286;0.273;0.299;0.303;0.308;0.301;0.314;0.315
Raw Data (584);21435;0.48;0.538;0.579;0.577;0.553;0.553;0.521;0.585;0.576;0.558;0.552;0.504;0.471;0.535;0.564;0.553;0.529;0.532;0.501;0.558;0.562;0.553;0.546;0.512;0.488;0.535;0.559;0.587;0.535;0.532;0.516;0.58;0.576;0.552;0.574;0.538;0.307;0.319;0.315;0.322;0.33;0.327;0.309;0.347;0.328;0.335;0.34;0.34;0.473;0.508;0.546;0.545;0.541;0.538;0.535;0.51;0.49;0.483;0.498;0.485;0.484;0.506;0.55;0.555;0.538;0.516;0.528;0.502;0.476;0.477;0.488;0.496;0.493;0.53;0.562;0.546;0.563;0.518;0.541;0.54;0.484;0.48;0.493;0.479;0.28;0.274;0.274;0.286;0.284;0.277;0.309;0.299;0.311;0.298;0.317;0.318
Raw Data (584);22048;0.465;0.547;0.593;0.584;0.57;0.554;0.532;0.606;0.591;0.568;0.582;0.518;0.47;0.544;0.568;0.576;0.547;0.545;0.515;0.563;0.571;0.563;0.553;0.511;0.483;0.548;0.57;0.599;0.543;0.55;0.529;0.579;0.587;0.564;0.58;0.522;0.3;0.325;0.315;0.331;0.321;0.328;0.314;0.346;0.328;0.336;0.344;0.334;0.482;0.519;0.543;0.549;0.55;0.535;0.533;0.523;0.498;0.489;0.509;0.49;0.486;0.504;0.566;0.562;0.536;0.539;0.532;0.506;0.473;0.471;0.495;0.498;0.482;0.535;0.569;0.553;0.575;0.527;0.54;0.541;0.491;0.492;0.5;0.485;0.279;0.27;0.271;0.29;0.278;0.279;0.298;0.303;0.307;0.302;0.316;0.328
Raw Data (584);22660;0.482;0.563;0.601;0.593;0.594;0.57;0.539;0.598;0.602;0.58;0.587;0.525;0.479;0.552;0.577;0.577;0.55;0.55;0.515;0.564;0.582;0.563;0.564;0.532;0.489;0.547;0.572;0.602;0.55;0.551;0.538;0.6;0.599;0.578;0.586;0.56;0.3;0.325;0.305;0.317;0.319;0.327;0.316;0.333;0.333;0.326;0.351;0.334;0.494;0.514;0.553;0.559;0.548;0.555;0.548;0.531;0.492;0.481;0.506;0.491;0.485;0.512;0.562;0.556;0.547;0.529;0.533;0.511;0.481;0.475;0.501;0.502;0.492;0.541;0.581;0.56;0.572;0.53;0.551;0.541;0.49;0.502;0.501;0.496;0.268;0.273;0.271;0.297;0.299;0.283;0.302;0.306;0.312;0.301;0.321;0.322
Raw Data (584);23272;0.479;0.565;0.604;0.602;0.596;0.564;0.524;0.604;0.603;0.579;0.588;0.534;0.475;0.543;0.586;0.571;0.544;0.553;0.524;0.579;0.591;0.563;0.561;0.523;0.489;0.551;0.58;0.618;0.55;0.556;0.533;0.594;0.6;0.568;0.58;0.539;0.288;0.311;0.301;0.319;0.317;0.322;0.309;0.335;0.318;0.325;0.325;0.319;0.486;0.514;0.555;0.559;0.548;0.542;0.544;0.521;0.498;0.48;0.503;0.481;0.485;0.512;0.567;0.56;0.554;0.536;0.528;0.51;0.472;0.478;0.485;0.493;0.491;0.54;0.578;0.568;0.576;0.526;0.545;0.546;0.486;0.489;0.49;0.487;0.273;0.269;0.258;0.286;0.276;0.272;0.291;0.294;0.297;0.287;0.308;0.322
Raw Data (584);23885;0.486;0.568;0.616;0.617;0.594;0.584;0.536;0.614;0.61;0.598;0.596;0.534;0.485;0.548;0.594;0.579;0.56;0.56;0.538;0.583;0.603;0.583;0.576;0.537;0.492;0.552;0.587;0.624;0.562;0.561;0.548;0.605;0.615;0.576;0.591;0.548;0.3;0.311;0.299;0.309;0.322;0.328;0.309;0.331;0.321;0.323;0.327;0.325;0.487;0.527;0.551;0.571;0.558;0.555;0.556;0.522;0.501;0.493;0.511;0.489;0.49;0.523;0.568;0.556;0.557;0.54;0.538;0.512;0.482;0.477;0.502;0.514;0.494;0.538;0.583;0.567;0.589;0.537;0.554;0.553;0.49;0.48;0.501;0.486;0.267;0.264;0.263;0.282;0.278;0.267;0.284;0.294;0.3;0.29;0.308;0.31
Raw Data (584);24497;0.497;0.591;0.628;0.631;0.621;0.605;0.549;0.629;0.628;0.607;0.624;0.542;0.492;0.569;0.608;0.601;0.577;0.575;0.54;0.604;0.609;0.603;0.601;0.56;0.513;0.587;0.616;0.638;0.577;0.574;0.553;0.632;0.641;0.61;0.621;0.572;0.306;0.317;0.316;0.322;0.329;0.326;0.318;0.343;0.327;0.328;0.343;0.339;0.505;0.545;0.572;0.576;0.575;0.572;0.56;0.537;0.523;0.509;0.528;0.502;0.505;0.529;0.589;0.583;0.577;0.559;0.55;0.526;0.488;0.492;0.521;0.518;0.514;0.556;0.601;0.585;0.601;0.557;0.567;0.56;0.493;0.498;0.512;0.507;0.271;0.277;0.271;0.293;0.284;0.273;0.3;0.302;0.306;0.301;0.317;0.328
Raw Data (584);25109;0.502;0.594;0.634;0.634;0.613;0.603;0.562;0.637;0.644;0.623;0.618;0.545;0.496;0.569;0.613;0.599;0.578;0.577;0.547;0.607;0.616;0.609;0.6;0.55;0.506;0.563;0.616;0.634;0.58;0.578;0.561;0.63;0.643;0.596;0.622;0.58;0.299;0.314;0.313;0.325;0.323;0.317;0.312;0.331;0.327;0.321;0.332;0.323;0.499;0.54;0.572;0.581;0.572;0.566;0.558;0.534;0.509;0.492;0.518;0.505;0.498;0.54;0.593;0.588;0.572;0.566;0.557;0.522;0.485;0.488;0.515;0.512;0.507;0.548;0.603;0.587;0.599;0.551;0.571;0.552;0.503;0.509;0.512;0.505;0.271;0.27;0.268;0.291;0.277;0.27;0.287;0.293;0.305;0.286;0.307;0.314
Raw Data (584);25721;0.51;0.598;0.658;0.646;0.631;0.613;0.574;0.641;0.654;0.623;0.634;0.565;0.513;0.58;0.623;0.611;0.589;0.592;0.559;0.621;0.631;0.608;0.62;0.557;0.526;0.595;0.629;0.652;0.6;0.595;0.572;0.635;0.662;0.618;0.631;0.58;0.293;0.319;0.308;0.33;0.332;0.323;0.307;0.334;0.333;0.321;0.343;0.33;0.512;0.548;0.59;0.602;0.581;0.589;0.583;0.543;0.516;0.503;0.532;0.521;0.509;0.549;0.585;0.597;0.582;0.571;0.561;0.54;0.5;0.503;0.517;0.524;0.518;0.561;0.62;0.607;0.616;0.565;0.58;0.582;0.523;0.525;0.527;0.51;0.28;0.275;0.27;0.285;0.284;0.279;0.292;0.298;0.317;0.301;0.319;0.318
Raw Data (584);26334;0.513;0.612;0.668;0.654;0.648;0.624;0.57;0.658;0.663;0.645;0.643;0.565;0.515;0.594;0.631;0.614;0.599;0.59;0.564;0.629;0.644;0.624;0.627;0.577;0.53;0.605;0.643;0.657;0.594;0.598;0.568;0.652;0.662;0.632;0.646;0.578;0.302;0.317;0.3;0.316;0.319;0.321;0.306;0.34;0.324;0.318;0.339;0.324;0.515;0.557;0.584;0.598;0.587;0.582;0.57;0.545;0.52;0.505;0.533;0.514;0.516;0.54;0.607;0.604;0.592;0.571;0.566;0.538;0.502;0.503;0.528;0.534;0.522;0.567;0.629;0.607;0.625;0.567;0.581;0.576;0.522;0.515;0.524;0.514;0.273;0.266;0.259;0.283;0.272;0.272;0.294;0.292;0.296;0.293;0.304;0.312
Raw Data (584);26946;0.509;0.62;0.681;0.671;0.653;0.641;0.584;0.683;0.676;0.652;0.645;0.584;0.522;0.593;0.639;0.629;0.604;0.603;0.566;0.647;0.655;0.641;0.635;0.582;0.53;0.606;0.649;0.668;0.61;0.615;0.587;0.667;0.677;0.651;0.648;0.597;0.305;0.32;0.301;0.318;0.329;0.322;0.317;0.335;0.323;0.326;0.329;0.339;0.51;0.564;0.592;0.606;0.59;0.6;0.586;0.556;0.532;0.515;0.534;0.522;0.521;0.545;0.605;0.613;0.593;0.583;0.566;0.542;0.508;0.504;0.522;0.537;0.53;0.572;0.635;0.609;0.629;0.578;0.599;0.576;0.52;0.521;0.531;0.511;0.27;0.261;0.256;0.287;0.278;0.275;0.297;0.295;0.301;0.293;0.314;0.323
Raw Data (584);27559;0.507;0.623;0.694;0.666;0.66;0.644;0.579;0.678;0.676;0.651;0.656;0.572;0.521;0.596;0.643;0.633;0.619;0.606;0.579;0.647;0.667;0.649;0.646;0.592;0.532;0.611;0.642;0.668;0.626;0.614;0.587;0.676;0.684;0.647;0.66;0.594;0.293;0.309;0.3;0.322;0.318;0.314;0.307;0.32;0.32;0.317;0.334;0.32;0.516;0.567;0.595;0.604;0.598;0.606;0.586;0.556;0.538;0.519;0.538;0.522;0.528;0.538;0.605;0.617;0.602;0.574;0.57;0.541;0.513;0.502;0.521;0.537;0.53;0.582;0.642;0.624;0.637;0.589;0.595;0.577;0.524;0.529;0.534;0.514;0.273;0.262;0.267;0.287;0.281;0.272;0.29;0.289;0.302;0.285;0.302;0.308
Raw Data (584);28172;0.519;0.647;0.724;0.68;0.668;0.647;0.596;0.693;0.697;0.67;0.675;0.587;0.53;0.615;0.655;0.65;0.631;0.618;0.595;0.672;0.688;0.663;0.663;0.601;0.536;0.625;0.668;0.695;0.627;0.629;0.6;0.688;0.703;0.664;0.686;0.615;0.3;0.318;0.303;0.316;0.323;0.32;0.326;0.337;0.319;0.334;0.33;0.325;0.543;0.592;0.617;0.618;0.603;0.625;0.609;0.57;0.543;0.526;0.556;0.532;0.537;0.566;0.629;0.628;0.617;0.599;0.591;0.557;0.523;0.518;0.545;0.552;0.545;0.59;0.656;0.634;0.649;0.599;0.607;0.594;0.539;0.535;0.546;0.522;0.273;0.27;0.267;0.284;0.283;0.278;0.294;0.298;0.304;0.298;0.303;0.32
Raw Data (584);28786;0.538;0.654;0.727;0.692;0.695;0.657;0.603;0.707;0.705;0.678;0.684;0.598;0.55;0.632;0.675;0.664;0.645;0.638;0.603;0.686;0.696;0.671;0.673;0.621;0.559;0.632;0.669;0.692;0.631;0.644;0.604;0.7;0.722;0.682;0.697;0.629;0.301;0.314;0.31;0.332;0.332;0.329;0.323;0.336;0.323;0.339;0.339;0.339;0.536;0.59;0.631;0.637;0.621;0.633;0.612;0.584;0.551;0.541;0.571;0.54;0.549;0.583;0.636;0.647;0.636;0.624;0.604;0.573;0.523;0.53;0.553;0.557;0.56;0.602;0.668;0.65;0.672;0.615;0.619;0.607;0.542;0.55;0.553;0.549;0.285;0.276;0.28;0.299;0.296;0.286;0.296;0.3;0.321;0.307;0.324;0.33
Raw Data (584);29399;0.545;0.664;0.74;0.705;0.663;0.668;0.606;0.716;0.723;0.687;0.689;0.605;0.548;0.639;0.672;0.67;0.649;0.634;0.615;0.699;0.707;0.697;0.689;0.615;0.56;0.634;0.679;0.705;0.654;0.651;0.616;0.709;0.732;0.69;0.703;0.625;0.311;0.323;0.317;0.321;0.333;0.323;0.32;0.342;0.332;0.335;0.344;0.334;0.548;0.603;0.623;0.641;0.635;0.631;0.629;0.59;0.559;0.538;0.575;0.558;0.553;0.583;0.653;0.655;0.638;0.622;0.606;0.579;0.54;0.542;0.565;0.569;0.558;0.61;0.677;0.663;0.669;0.62;0.633;0.625;0.557;0.546;0.557;0.538;0.273;0.274;0.274;0.289;0.298;0.28;0.3;0.301;0.314;0.304;0.323;0.318
Raw Data (584);30012;0.558;0.675;0.751;0.709;0.7;0.678;0.624;0.73;0.732;0.704;0.71;0.623;0.559;0.653;0.678;0.674;0.655;0.65;0.604;0.719;0.722;0.703;0.697;0.635;0.566;0.659;0.687;0.719;0.656;0.65;0.623;0.735;0.741;0.699;0.724;0.65;0.308;0.316;0.314;0.323;0.335;0.33;0.325;0.352;0.331;0.323;0.336;0.336;0.555;0.595;0.634;0.642;0.644;0.648;0.633;0.597;0.564;0.546;0.576;0.553;0.567;0.591;0.65;0.664;0.638;0.635;0.603;0.582;0.535;0.533;0.568;0.56;0.565;0.618;0.679;0.667;0.679;0.632;0.643;0.625;0.561;0.557;0.572;0.554;0.285;0.271;0.275;0.305;0.293;0.288;0.31;0.307;0.312;0.306;0.321;0.323
Raw Data (584);30624;0.544;0.67;0.745;0.703;0.691;0.682;0.623;0.734;0.732;0.7;0.71;0.619;0.559;0.641;0.683;0.671;0.651;0.652;0.62;0.701;0.72;0.7;0.697;0.631;0.566;0.655;0.673;0.712;0.649;0.656;0.625;0.728;0.744;0.703;0.711;0.645;0.297;0.317;0.303;0.321;0.312;0.323;0.31;0.331;0.321;0.326;0.331;0.335;0.561;0.599;0.635;0.651;0.644;0.632;0.611;0.584;0.56;0.547;0.569;0.552;0.544;0.594;0.665;0.657;0.643;0.632;0.601;0.571;0.535;0.533;0.569;0.566;0.577;0.613;0.678;0.669;0.673;0.633;0.633;0.625;0.562;0.558;0.56;0.544;0.263;0.269;0.268;0.281;0.273;0.262;0.296;0.293;0.307;0.295;0.306;0.318
Raw Data (584);31237;0.559;0.682;0.771;0.714;0.703;0.69;0.636;0.748;0.751;0.72;0.725;0.636;0.577;0.654;0.694;0.683;0.662;0.657;0.632;0.725;0.744;0.722;0.699;0.655;0.572;0.654;0.688;0.715;0.66;0.671;0.638;0.746;0.759;0.725;0.734;0.656;0.302;0.321;0.315;0.32;0.328;0.308;0.304;0.331;0.322;0.313;0.335;0.332;0.567;0.603;0.64;0.655;0.653;0.658;0.631;0.604;0.569;0.55;0.588;0.563;0.571;0.592;0.668;0.671;0.659;0.64;0.619;0.588;0.551;0.543;0.565;0.575;0.58;0.628;0.699;0.691;0.694;0.646;0.653;0.63;0.566;0.56;0.572;0.561;0.278;0.269;0.272;0.278;0.287;0.277;0.298;0.306;0.303;0.297;0.312;0.323
Raw Data (584);31850;0.575;0.691;0.764;0.724;0.728;0.705;0.639;0.761;0.755;0.733;0.73;0.647;0.583;0.66;0.696;0.686;0.665;0.667;0.632;0.729;0.756;0.737;0.728;0.654;0.584;0.667;0.687;0.719;0.669;0.67;0.641;0.762;0.772;0.74;0.746;0.656;0.309;0.317;0.307;0.323;0.319;0.317;0.302;0.336;0.325;0.325;0.34;0.335;0.585;0.621;0.653;0.664;0.658;0.66;0.633;0.604;0.585;0.568;0.596;0.572;0.571;0.607;0.673;0.686;0.67;0.655;0.632;0.601;0.555;0.558;0.586;0.568;0.585;0.633;0.704;0.706;0.704;0.666;0.663;0.65;0.578;0.58;0.587;0.567;0.272;0.272;0.269;0.298;0.289;0.275;0.3;0.302;0.3;0.3;0.317;0.319
Raw Data (584);32464;0.578;0.702;0.79;0.74;0.736;0.714;0.661;0.766;0.775;0.755;0.763;0.658;0.585;0.672;0.704;0.692;0.687;0.68;0.652;0.758;0.772;0.765;0.741;0.678;0.597;0.681;0.71;0.727;0.687;0.686;0.661;0.792;0.795;0.757;0.771;0.701;0.302;0.319;0.307;0.321;0.328;0.324;0.311;0.336;0.321;0.333;0.34;0.34;0.593;0.635;0.666;0.681;0.673;0.683;0.65;0.614;0.595;0.57;0.61;0.588;0.581;0.617;0.686;0.686;0.684;0.669;0.641;0.605;0.567;0.56;0.601;0.59;0.602;0.659;0.73;0.711;0.724;0.667;0.678;0.662;0.581;0.585;0.589;0.572;0.276;0.28;0.281;0.295;0.291;0.289;0.301;0.302;0.315;0.302;0.322;0.325
Raw Data (584);33078;0.582;0.712;0.804;0.735;0.747;0.718;0.668;0.785;0.788;0.766;0.77;0.684;0.594;0.683;0.717;0.696;0.678;0.684;0.658;0.762;0.778;0.775;0.756;0.691;0.6;0.693;0.698;0.737;0.696;0.687;0.657;0.786;0.807;0.762;0.77;0.698;0.309;0.321;0.312;0.321;0.341;0.326;0.314;0.343;0.328;0.33;0.338;0.331;0.588;0.636;0.672;0.691;0.684;0.68;0.656;0.622;0.593;0.588;0.612;0.592;0.595;0.62;0.698;0.707;0.695;0.665;0.636;0.61;0.567;0.563;0.591;0.599;0.609;0.658;0.729;0.724;0.728;0.679;0.684;0.664;0.588;0.583;0.605;0.58;0.271;0.274;0.28;0.292;0.298;0.287;0.305;0.303;0.322;0.313;0.32;0.321
Raw Data (584);33691;0.583;0.704;0.807;0.733;0.749;0.712;0.657;0.782;0.79;0.775;0.76;0.67;0.59;0.676;0.695;0.694;0.682;0.672;0.666;0.771;0.784;0.773;0.755;0.688;0.613;0.691;0.701;0.733;0.692;0.676;0.674;0.793;0.805;0.763;0.772;0.699;0.301;0.306;0.305;0.313;0.324;0.319;0.307;0.33;0.32;0.317;0.331;0.317;0.599;0.641;0.67;0.69;0.68;0.687;0.653;0.619;0.593;0.581;0.614;0.583;0.586;0.634;0.699;0.689;0.689;0.669;0.636;0.605;0.563;0.559;0.601;0.601;0.605;0.652;0.74;0.714;0.733;0.686;0.686;0.652;0.593;0.57;0.589;0.575;0.268;0.271;0.271;0.293;0.284;0.274;0.295;0.297;0.291;0.291;0.308;0.322
Raw Data (584);34304;0.592;0.717;0.815;0.738;0.754;0.723;0.678;0.788;0.803;0.778;0.772;0.679;0.61;0.688;0.712;0.704;0.7;0.691;0.679;0.782;0.792;0.791;0.766;0.707;0.613;0.694;0.7;0.735;0.695;0.688;0.673;0.806;0.819;0.787;0.779;0.713;0.305;0.322;0.309;0.324;0.31;0.32;0.311;0.336;0.316;0.326;0.332;0.336;0.606;0.656;0.685;0.702;0.688;0.698;0.656;0.642;0.607;0.581;0.609;0.589;0.606;0.632;0.712;0.723;0.704;0.677;0.656;0.618;0.564;0.575;0.595;0.597;0.613;0.67;0.741;0.731;0.735;0.688;0.683;0.667;0.594;0.591;0.6;0.585;0.271;0.267;0.274;0.292;0.283;0.275;0.298;0.3;0.304;0.301;0.309;0.319
Raw Data (584);34917;0.603;0.713;0.819;0.752;0.748;0.724;0.678;0.802;0.821;0.786;0.783;0.701;0.612;0.683;0.708;0.703;0.682;0.683;0.683;0.786;0.814;0.797;0.779;0.71;0.617;0.709;0.722;0.736;0.685;0.686;0.693;0.825;0.826;0.795;0.8;0.72;0.302;0.32;0.313;0.321;0.322;0.32;0.313;0.335;0.315;0.319;0.331;0.332;0.609;0.657;0.687;0.701;0.69;0.696;0.659;0.636;0.6;0.597;0.62;0.596;0.601;0.642;0.721;0.73;0.715;0.69;0.652;0.622;0.578;0.579;0.607;0.604;0.614;0.681;0.758;0.734;0.747;0.702;0.693;0.665;0.594;0.598;0.604;0.586;0.276;0.268;0.263;0.289;0.286;0.274;0.296;0.302;0.301;0.294;0.312;0.311
Raw Data (584);35530;0.612;0.712;0.837;0.742;0.746;0.726;0.707;0.822;0.814;0.792;0.802;0.698;0.616;0.691;0.719;0.709;0.688;0.69;0.69;0.799;0.816;0.801;0.788;0.715;0.625;0.712;0.712;0.739;0.697;0.696;0.698;0.826;0.839;0.8;0.805;0.737;0.295;0.306;0.308;0.307;0.308;0.311;0.304;0.323;0.313;0.319;0.332;0.327;0.618;0.665;0.681;0.704;0.691;0.703;0.676;0.628;0.613;0.594;0.619;0.594;0.61;0.651;0.71;0.724;0.713;0.694;0.648;0.626;0.59;0.585;0.61;0.607;0.624;0.686;0.76;0.758;0.756;0.709;0.699;0.674;0.6;0.602;0.605;0.591;0.267;0.27;0.265;0.292;0.282;0.275;0.298;0.286;0.3;0.287;0.311;0.319
Raw Data (584);36144;0.62;0.725;0.841;0.762;0.764;0.749;0.72;0.818;0.838;0.813;0.802;0.705;0.624;0.696;0.72;0.71;0.696;0.694;0.708;0.81;0.819;0.821;0.805;0.74;0.644;0.727;0.724;0.746;0.703;0.702;0.71;0.836;0.851;0.825;0.829;0.747;0.309;0.326;0.31;0.327;0.326;0.333;0.311;0.34;0.326;0.337;0.342;0.334;0.639;0.68;0.704;0.724;0.714;0.722;0.69;0.644;0.617;0.607;0.626;0.596;0.629;0.666;0.744;0.732;0.729;0.708;0.672;0.637;0.602;0.591;0.618;0.616;0.63;0.701;0.782;0.765;0.768;0.723;0.719;0.685;0.616;0.612;0.628;0.613;0.278;0.279;0.276;0.295;0.288;0.283;0.306;0.308;0.305;0.306;0.32;0.332
Raw Data (584);36756;0.618;0.728;0.847;0.762;0.751;0.736;0.728;0.835;0.842;0.813;0.823;0.721;0.638;0.702;0.731;0.709;0.702;0.707;0.718;0.819;0.84;0.842;0.807;0.736;0.647;0.726;0.731;0.744;0.715;0.701;0.728;0.851;0.864;0.834;0.838;0.753;0.302;0.329;0.305;0.315;0.322;0.323;0.309;0.337;0.322;0.329;0.338;0.341;0.635;0.688;0.72;0.727;0.729;0.722;0.695;0.655;0.627;0.604;0.619;0.607;0.628;0.669;0.74;0.754;0.73;0.707;0.682;0.633;0.598;0.583;0.629;0.622;0.641;0.705;0.787;0.781;0.779;0.73;0.714;0.687;0.622;0.612;0.621;0.606;0.274;0.278;0.271;0.294;0.286;0.279;0.301;0.298;0.307;0.299;0.319;0.314
Raw Data (584);37369;0.632;0.722;0.848;0.759;0.749;0.735;0.733;0.841;0.843;0.823;0.832;0.737;0.641;0.69;0.724;0.712;0.698;0.701;0.721;0.823;0.847;0.844;0.821;0.749;0.651;0.733;0.724;0.746;0.705;0.693;0.73;0.854;0.875;0.827;0.838;0.764;0.308;0.313;0.303;0.317;0.319;0.317;0.309;0.33;0.33;0.32;0.333;0.324;0.636;0.692;0.723;0.729;0.734;0.725;0.691;0.647;0.622;0.613;0.635;0.618;0.632;0.679;0.754;0.753;0.739;0.719;0.683;0.635;0.599;0.597;0.617;0.617;0.643;0.711;0.793;0.778;0.786;0.739;0.718;0.685;0.62;0.613;0.635;0.601;0.267;0.276;0.273;0.283;0.287;0.283;0.303;0.292;0.301;0.294;0.312;0.316
Raw Data (584);37982;0.643;0.723;0.844;0.766;0.753;0.739;0.74;0.848;0.852;0.823;0.83;0.735;0.638;0.696;0.732;0.704;0.687;0.701;0.731;0.83;0.851;0.842;0.823;0.76;0.645;0.721;0.726;0.758;0.694;0.703;0.733;0.856;0.877;0.842;0.843;0.777;0.304;0.317;0.296;0.307;0.314;0.314;0.307;0.334;0.326;0.324;0.327;0.332;0.646;0.687;0.712;0.73;0.729;0.736;0.691;0.652;0.63;0.613;0.637;0.61;0.637;0.678;0.747;0.75;0.737;0.728;0.67;0.636;0.601;0.603;0.63;0.628;0.652;0.708;0.802;0.786;0.785;0.748;0.716;0.692;0.63;0.613;0.615;0.612;0.268;0.265;0.258;0.284;0.282;0.267;0.302;0.293;0.3;0.298;0.304;0.311
Raw Data (584);38596;0.656;0.747;0.861;0.77;0.776;0.748;0.758;0.877;0.87;0.839;0.847;0.764;0.659;0.71;0.736;0.722;0.708;0.717;0.745;0.856;0.863;0.873;0.845;0.774;0.667;0.758;0.729;0.76;0.721;0.717;0.757;0.884;0.907;0.868;0.872;0.79;0.309;0.323;0.315;0.324;0.334;0.323;0.322;0.341;0.329;0.326;0.343;0.336;0.662;0.704;0.741;0.756;0.748;0.746;0.714;0.663;0.646;0.629;0.645;0.629;0.652;0.698;0.774;0.776;0.766;0.751;0.696;0.658;0.62;0.616;0.645;0.64;0.664;0.737;0.821;0.821;0.81;0.763;0.734;0.701;0.639;0.628;0.646;0.631;0.279;0.277;0.279;0.299;0.289;0.274;0.301;0.307;0.314;0.305;0.313;0.322
Raw Data (584);39209;0.662;0.738;0.861;0.776;0.768;0.747;0.769;0.861;0.875;0.848;0.85;0.762;0.666;0.704;0.737;0.72;0.715;0.707;0.743;0.858;0.871;0.874;0.851;0.784;0.673;0.75;0.734;0.753;0.717;0.714;0.763;0.899;0.908;0.868;0.875;0.811;0.303;0.306;0.313;0.319;0.325;0.317;0.311;0.332;0.317;0.326;0.341;0.327;0.662;0.733;0.746;0.761;0.752;0.755;0.714;0.668;0.649;0.635;0.653;0.639;0.666;0.7;0.771;0.787;0.77;0.747;0.701;0.66;0.627;0.619;0.634;0.635;0.674;0.742;0.823;0.817;0.816;0.77;0.741;0.714;0.641;0.628;0.639;0.637;0.273;0.28;0.266;0.294;0.285;0.279;0.303;0.297;0.305;0.304;0.311;0.321
Raw Data (584);39823;0.663;0.739;0.867;0.781;0.776;0.756;0.769;0.88;0.88;0.859;0.859;0.768;0.667;0.712;0.732;0.722;0.71;0.715;0.758;0.866;0.877;0.894;0.869;0.788;0.683;0.758;0.734;0.759;0.723;0.722;0.767;0.894;0.91;0.881;0.89;0.806;0.304;0.32;0.312;0.33;0.323;0.324;0.31;0.34;0.323;0.324;0.338;0.332;0.676;0.725;0.749;0.763;0.762;0.758;0.721;0.68;0.653;0.635;0.659;0.642;0.662;0.714;0.789;0.786;0.782;0.761;0.707;0.671;0.631;0.617;0.653;0.642;0.67;0.753;0.836;0.821;0.827;0.787;0.747;0.724;0.65;0.638;0.652;0.635;0.272;0.274;0.268;0.297;0.287;0.275;0.302;0.299;0.303;0.298;0.32;0.318
Raw Data (584);40437;0.677;0.748;0.876;0.776;0.767;0.759;0.789;0.881;0.892;0.873;0.877;0.778;0.68;0.713;0.737;0.731;0.71;0.723;0.777;0.876;0.895;0.899;0.875;0.803;0.688;0.757;0.737;0.761;0.724;0.72;0.79;0.906;0.928;0.892;0.909;0.826;0.304;0.323;0.308;0.323;0.331;0.317;0.305;0.341;0.332;0.32;0.33;0.334;0.67;0.744;0.758;0.776;0.779;0.778;0.724;0.675;0.652;0.643;0.664;0.646;0.671;0.719;0.797;0.806;0.797;0.777;0.721;0.675;0.64;0.625;0.66;0.644;0.683;0.76;0.84;0.841;0.836;0.792;0.755;0.73;0.645;0.638;0.657;0.641;0.281;0.274;0.277;0.297;0.282;0.287;0.295;0.298;0.317;0.299;0.323;0.328
Raw Data (584);41051;0.69;0.746;0.868;0.768;0.774;0.757;0.796;0.891;0.891;0.868;0.87;0.783;0.685;0.713;0.742;0.724;0.711;0.723;0.779;0.878;0.895;0.906;0.871;0.795;0.691;0.764;0.736;0.762;0.724;0.711;0.78;0.905;0.93;0.893;0.907;0.834;0.306;0.32;0.306;0.318;0.333;0.316;0.313;0.328;0.317;0.312;0.334;0.329;0.683;0.74;0.76;0.784;0.774;0.773;0.729;0.681;0.645;0.636;0.663;0.643;0.68;0.728;0.797;0.81;0.78;0.769;0.718;0.67;0.635;0.621;0.664;0.65;0.692;0.762;0.859;0.845;0.832;0.801;0.757;0.719;0.65;0.642;0.652;0.641;0.269;0.267;0.268;0.283;0.277;0.279;0.296;0.296;0.3;0.288;0.316;0.321
Raw Data (584);41664;0.7;0.754;0.88;0.782;0.768;0.766;0.807;0.892;0.907;0.891;0.891;0.798;0.702;0.719;0.744;0.734;0.717;0.732;0.793;0.894;0.912;0.92;0.878;0.826;0.702;0.776;0.742;0.761;0.725;0.727;0.804;0.924;0.939;0.908;0.927;0.838;0.304;0.325;0.315;0.313;0.324;0.329;0.318;0.343;0.325;0.331;0.337;0.33;0.693;0.758;0.788;0.794;0.792;0.802;0.739;0.697;0.663;0.646;0.679;0.653;0.69;0.742;0.812;0.815;0.803;0.783;0.736;0.68;0.645;0.629;0.667;0.663;0.696;0.781;0.858;0.845;0.861;0.811;0.762;0.736;0.655;0.643;0.656;0.65;0.281;0.269;0.268;0.293;0.28;0.286;0.292;0.302;0.302;0.303;0.309;0.328
Raw Data (584);42278;0.704;0.74;0.875;0.782;0.768;0.76;0.809;0.889;0.91;0.88;0.875;0.794;0.692;0.705;0.73;0.721;0.71;0.715;0.796;0.898;0.912;0.92;0.89;0.819;0.707;0.765;0.741;0.765;0.711;0.724;0.795;0.918;0.948;0.912;0.919;0.839;0.295;0.306;0.301;0.319;0.316;0.308;0.306;0.326;0.316;0.321;0.328;0.324;0.679;0.741;0.778;0.796;0.796;0.782;0.735;0.69;0.66;0.643;0.67;0.653;0.69;0.736;0.807;0.814;0.806;0.791;0.735;0.681;0.652;0.625;0.668;0.656;0.693;0.787;0.861;0.857;0.856;0.806;0.769;0.723;0.655;0.648;0.658;0.642;0.269;0.26;0.252;0.277;0.265;0.274;0.284;0.29;0.307;0.289;0.308;0.3
Raw Data (584);42891;0.71;0.757;0.89;0.79;0.777;0.767;0.827;0.914;0.916;0.902;0.894;0.81;0.709;0.725;0.752;0.74;0.725;0.73;0.819;0.906;0.928;0.938;0.901;0.833;0.721;0.777;0.75;0.771;0.729;0.734;0.826;0.928;0.959;0.928;0.949;0.852;0.303;0.325;0.308;0.32;0.328;0.315;0.313;0.336;0.326;0.329;0.333;0.334;0.708;0.748;0.79;0.802;0.811;0.808;0.755;0.701;0.67;0.653;0.681;0.662;0.695;0.743;0.836;0.84;0.829;0.802;0.74;0.692;0.651;0.646;0.68;0.676;0.714;0.792;0.877;0.87;0.87;0.823;0.78;0.753;0.676;0.655;0.672;0.662;0.278;0.273;0.266;0.293;0.279;0.28;0.298;0.306;0.304;0.295;0.309;0.314
Raw Data (584);43504;0.725;0.75;0.89;0.79;0.809;0.768;0.84;0.924;0.921;0.911;0.91;0.816;0.716;0.731;0.754;0.744;0.73;0.727;0.826;0.907;0.936;0.939;0.916;0.841;0.737;0.775;0.745;0.77;0.735;0.725;0.829;0.939;0.965;0.929;0.934;0.873;0.3;0.321;0.311;0.326;0.318;0.321;0.312;0.341;0.33;0.326;0.335;0.341;0.718;0.764;0.798;0.813;0.809;0.813;0.75;0.707;0.671;0.664;0.686;0.675;0.702;0.766;0.836;0.835;0.829;0.81;0.741;0.7;0.654;0.653;0.683;0.667;0.721;0.812;0.89;0.887;0.884;0.832;0.79;0.751;0.681;0.665;0.677;0.669;0.282;0.266;0.271;0.288;0.288;0.278;0.295;0.303;0.303;0.294;0.311;0.321
Raw Data (584);327782;1.05;0.778;0.949;0.799;0.812;0.785;1.359;1.13;1.154;1.116;1.1;1.064;0.907;0.737;0.738;0.736;0.742;0.749;1.128;1.047;1.072;1.077;1.008;1;0.893;0.778;0.737;0.751;0.729;0.729;1.075;1.023;1.019;1.03;1.038;0.992;0.31;0.319;0.328;0.342;0.345;0.343;0.322;0.36;0.344;0.346;0.367;0.381;0.859;0.995;1.117;1.09;1.075;1.073;0.944;0.936;0.905;0.984;1.063;1.244;0.795;0.788;0.998;1.102;1.182;1.07;0.973;0.929;0.912;0.947;1.036;1.111;0.816;0.747;0.823;1.106;1.128;1.187;1.009;0.977;0.945;0.976;1.024;1.039;0.29;0.287;0.288;0.303;0.301;0.285;0.317;0.313;0.326;0.308;0.331;0.331
Raw Data (584);328391;1.049;0.782;0.951;0.796;0.818;0.782;1.364;1.137;1.156;1.111;1.106;1.064;0.909;0.734;0.737;0.733;0.748;0.756;1.126;1.056;1.068;1.079;1.005;1.001;0.89;0.776;0.739;0.747;0.728;0.724;1.08;1.017;1.02;1.025;1.042;1.001;0.311;0.345;0.339;0.351;0.354;0.35;0.326;0.379;0.35;0.359;0.374;0.384;0.865;0.998;1.114;1.089;1.081;1.076;0.954;0.948;0.913;0.988;1.071;1.247;0.808;0.798;1.006;1.106;1.196;1.069;0.976;0.933;0.917;0.937;1.033;1.109;0.812;0.746;0.835;1.113;1.139;1.19;1.017;0.981;0.951;0.983;1.037;1.053;0.291;0.285;0.291;0.304;0.296;0.285;0.307;0.314;0.32;0.313;0.327;0.328
Raw Data (584);329005;1.054;0.78;0.955;0.801;0.823;0.785;1.369;1.139;1.165;1.115;1.111;1.066;0.909;0.727;0.742;0.727;0.745;0.75;1.121;1.048;1.072;1.071;1.002;0.994;0.889;0.783;0.734;0.74;0.729;0.725;1.074;1.009;1.013;1.024;1.044;0.997;0.304;0.351;0.339;0.344;0.353;0.352;0.325;0.368;0.343;0.348;0.379;0.383;0.859;1.003;1.114;1.087;1.079;1.062;0.95;0.946;0.907;0.99;1.055;1.241;0.807;0.801;1;1.104;1.19;1.081;0.98;0.935;0.917;0.94;1.029;1.115;0.818;0.746;0.824;1.117;1.14;1.181;1.017;0.977;0.942;0.991;1.042;1.059;0.287;0.285;0.284;0.296;0.298;0.28;0.309;0.304;0.316;0.314;0.324;0.33
Raw Data (584);329615;1.057;0.781;0.962;0.807;0.819;0.791;1.373;1.147;1.168;1.133;1.112;1.063;0.913;0.734;0.752;0.73;0.747;0.762;1.144;1.06;1.082;1.079;1.026;1.008;0.902;0.789;0.744;0.746;0.739;0.727;1.082;1.02;1.025;1.043;1.047;1.009;0.31;0.347;0.334;0.353;0.363;0.357;0.328;0.378;0.351;0.353;0.387;0.381;0.875;1.012;1.123;1.096;1.089;1.077;0.962;0.948;0.91;0.993;1.06;1.239;0.818;0.807;1.006;1.118;1.202;1.078;0.985;0.942;0.932;0.942;1.038;1.126;0.829;0.752;0.838;1.122;1.138;1.189;1.013;0.984;0.951;0.995;1.048;1.081;0.289;0.285;0.292;0.306;0.303;0.29;0.313;0.309;0.314;0.309;0.321;0.338
Raw Data (584);330225;1.054;0.777;0.951;0.805;0.817;0.796;1.374;1.144;1.164;1.126;1.107;1.062;0.901;0.728;0.743;0.732;0.737;0.752;1.141;1.061;1.083;1.086;1.024;1.013;0.896;0.783;0.733;0.74;0.726;0.723;1.081;1.016;1.023;1.029;1.041;0.997;0.308;0.346;0.343;0.348;0.355;0.345;0.328;0.367;0.34;0.356;0.375;0.381;0.864;1.009;1.123;1.093;1.085;1.074;0.951;0.948;0.911;0.992;1.059;1.229;0.82;0.804;1.012;1.104;1.191;1.08;0.98;0.94;0.931;0.954;1.032;1.122;0.826;0.754;0.845;1.123;1.14;1.179;1.02;0.989;0.947;0.993;1.052;1.073;0.284;0.28;0.285;0.292;0.294;0.29;0.309;0.307;0.315;0.303;0.32;0.335
Raw Data (584);330835;1.058;0.787;0.961;0.809;0.833;0.805;1.379;1.145;1.181;1.134;1.108;1.079;0.915;0.739;0.758;0.743;0.758;0.76;1.147;1.071;1.09;1.098;1.023;1.021;0.901;0.786;0.752;0.745;0.731;0.726;1.085;1.024;1.032;1.038;1.052;1.005;0.313;0.352;0.346;0.356;0.361;0.359;0.32;0.376;0.341;0.357;0.384;0.381;0.882;1.017;1.129;1.106;1.087;1.086;0.963;0.959;0.924;0.999;1.051;1.231;0.831;0.822;1.021;1.123;1.202;1.083;0.992;0.949;0.931;0.962;1.036;1.135;0.837;0.759;0.842;1.123;1.148;1.191;1.028;0.986;0.965;1.005;1.067;1.086;0.289;0.279;0.301;0.303;0.296;0.298;0.31;0.314;0.319;0.309;0.324;0.341
Raw Data (584);331446;1.058;0.788;0.965;0.809;0.831;0.797;1.367;1.143;1.175;1.136;1.112;1.068;0.915;0.742;0.755;0.744;0.747;0.75;1.142;1.074;1.086;1.099;1.026;1.015;0.904;0.779;0.742;0.751;0.736;0.734;1.098;1.027;1.033;1.036;1.05;1.004;0.31;0.351;0.338;0.359;0.358;0.351;0.327;0.37;0.349;0.362;0.375;0.376;0.881;1.018;1.132;1.103;1.091;1.079;0.958;0.956;0.924;1.003;1.056;1.233;0.828;0.816;1.019;1.118;1.207;1.08;0.99;0.958;0.944;0.957;1.029;1.129;0.835;0.762;0.848;1.126;1.156;1.19;1.032;0.989;0.966;1.007;1.078;1.103;0.295;0.283;0.294;0.299;0.304;0.293;0.309;0.309;0.328;0.309;0.316;0.327
Raw Data (584);332057;1.068;0.794;0.957;0.805;0.833;0.801;1.37;1.141;1.174;1.13;1.122;1.079;0.913;0.745;0.749;0.735;0.749;0.755;1.145;1.071;1.094;1.092;1.029;1.02;0.903;0.785;0.743;0.745;0.744;0.726;1.099;1.038;1.036;1.042;1.059;1.011;0.313;0.362;0.34;0.355;0.36;0.35;0.322;0.378;0.352;0.356;0.384;0.37;0.881;1.02;1.141;1.105;1.085;1.093;0.969;0.957;0.919;1.002;1.054;1.228;0.828;0.826;1.033;1.119;1.212;1.095;0.997;0.953;0.946;0.961;1.04;1.134;0.846;0.767;0.855;1.134;1.158;1.199;1.029;0.988;0.973;1.018;1.076;1.101;0.283;0.282;0.285;0.298;0.295;0.293;0.325;0.313;0.315;0.311;0.325;0.337
Raw Data (584);332669;1.061;0.794;0.967;0.807;0.835;0.801;1.372;1.159;1.185;1.126;1.111;1.068;0.914;0.736;0.753;0.729;0.748;0.761;1.156;1.072;1.102;1.099;1.034;1.021;0.902;0.785;0.749;0.742;0.738;0.734;1.096;1.039;1.041;1.045;1.06;1.002;0.311;0.354;0.335;0.351;0.368;0.352;0.327;0.373;0.349;0.359;0.378;0.367;0.893;1.023;1.141;1.101;1.1;1.093;0.972;0.967;0.936;0.999;1.061;1.22;0.826;0.826;1.025;1.13;1.211;1.087;1.004;0.953;0.955;0.97;1.041;1.129;0.849;0.765;0.86;1.136;1.158;1.197;1.03;0.995;0.975;1.01;1.072;1.105;0.286;0.283;0.285;0.298;0.303;0.294;0.309;0.315;0.314;0.308;0.323;0.334
Raw Data (584);333280;1.069;0.792;0.961;0.815;0.829;0.802;1.366;1.149;1.183;1.136;1.112;1.075;0.92;0.739;0.739;0.737;0.745;0.756;1.148;1.062;1.098;1.106;1.033;1.023;0.895;0.78;0.747;0.745;0.739;0.736;1.097;1.034;1.053;1.041;1.054;1.005;0.311;0.343;0.341;0.354;0.362;0.364;0.328;0.367;0.353;0.37;0.376;0.381;0.888;1.029;1.139;1.103;1.1;1.094;0.98;0.965;0.933;1.002;1.056;1.225;0.832;0.831;1.027;1.121;1.209;1.096;0.996;0.955;0.947;0.971;1.044;1.14;0.853;0.76;0.86;1.133;1.164;1.199;1.036;0.998;0.971;1.022;1.085;1.112;0.29;0.278;0.289;0.305;0.292;0.293;0.316;0.307;0.318;0.313;0.33;0.334
Raw Data (584);333892;1.067;0.787;0.961;0.806;0.83;0.803;1.372;1.154;1.183;1.143;1.13;1.081;0.916;0.738;0.742;0.741;0.743;0.754;1.147;1.07;1.097;1.098;1.028;1.02;0.904;0.788;0.743;0.743;0.735;0.726;1.102;1.028;1.043;1.041;1.056;0.999;0.309;0.339;0.331;0.346;0.361;0.359;0.321;0.374;0.347;0.361;0.377;0.379;0.892;1.02;1.146;1.109;1.098;1.095;0.981;0.961;0.93;1.004;1.059;1.221;0.837;0.829;1.024;1.129;1.209;1.095;0.998;0.954;0.957;0.972;1.034;1.141;0.856;0.761;0.868;1.14;1.154;1.198;1.038;0.998;0.983;1.012;1.08;1.115;0.285;0.28;0.284;0.294;0.296;0.282;0.294;0.304;0.326;0.305;0.315;0.327
Raw Data (584);334502;1.063;0.781;0.96;0.808;0.817;0.806;1.372;1.154;1.179;1.143;1.118;1.073;0.919;0.735;0.749;0.739;0.739;0.753;1.16;1.079;1.102;1.098;1.039;1.013;0.902;0.779;0.742;0.743;0.737;0.725;1.095;1.036;1.047;1.04;1.05;1.008;0.306;0.345;0.338;0.349;0.365;0.349;0.327;0.375;0.348;0.356;0.377;0.356;0.901;1.029;1.143;1.109;1.093;1.098;0.975;0.975;0.936;1.014;1.06;1.216;0.833;0.832;1.036;1.133;1.217;1.093;1.002;0.962;0.951;0.97;1.04;1.141;0.857;0.76;0.865;1.147;1.169;1.208;1.039;0.999;0.985;1.03;1.089;1.122;0.281;0.281;0.295;0.301;0.3;0.282;0.31;0.311;0.318;0.3;0.313;0.33
Raw Data (584);335113;1.06;0.792;0.955;0.811;0.823;0.797;1.364;1.153;1.183;1.135;1.113;1.074;0.916;0.736;0.737;0.742;0.748;0.766;1.157;1.08;1.107;1.102;1.036;1.026;0.899;0.785;0.754;0.75;0.748;0.729;1.111;1.037;1.052;1.046;1.059;1.016;0.307;0.354;0.334;0.351;0.357;0.344;0.326;0.366;0.34;0.359;0.38;0.404;0.901;1.031;1.146;1.122;1.111;1.106;0.992;0.968;0.941;1.015;1.061;1.221;0.835;0.831;1.039;1.135;1.211;1.109;1.007;0.968;0.962;0.975;1.039;1.149;0.859;0.767;0.872;1.147;1.17;1.217;1.053;1.006;0.979;1.038;1.086;1.12;0.292;0.279;0.289;0.298;0.291;0.284;0.307;0.306;0.312;0.308;0.326;0.333
Raw Data (584);335724;1.059;0.79;0.955;0.813;0.828;0.806;1.377;1.164;1.195;1.147;1.138;1.067;0.92;0.741;0.745;0.739;0.754;0.758;1.158;1.081;1.101;1.099;1.039;1.019;0.897;0.785;0.741;0.751;0.739;0.725;1.11;1.032;1.044;1.044;1.056;1.027;0.314;0.336;0.339;0.343;0.358;0.362;0.332;0.369;0.345;0.361;0.379;0.367;0.906;1.031;1.146;1.111;1.108;1.102;0.99;0.967;0.941;1.007;1.053;1.212;0.834;0.842;1.047;1.141;1.226;1.1;1.006;0.964;0.968;0.978;1.043;1.149;0.866;0.772;0.875;1.152;1.155;1.203;1.052;1.005;0.986;1.036;1.088;1.121;0.277;0.281;0.29;0.31;0.294;0.288;0.312;0.303;0.322;0.3;0.318;0.326
Raw Data (584);336335;1.064;0.793;0.951;0.806;0.832;0.811;1.375;1.157;1.185;1.145;1.131;1.069;0.919;0.745;0.741;0.741;0.758;0.758;1.156;1.088;1.11;1.106;1.039;1.022;0.903;0.784;0.747;0.75;0.742;0.726;1.106;1.045;1.05;1.042;1.056;1.016;0.302;0.336;0.338;0.337;0.352;0.342;0.318;0.357;0.335;0.345;0.37;0.357;0.902;1.026;1.149;1.105;1.109;1.098;0.994;0.971;0.942;1.014;1.056;1.215;0.838;0.839;1.047;1.135;1.226;1.096;1.004;0.962;0.956;0.989;1.049;1.152;0.86;0.772;0.879;1.158;1.166;1.206;1.054;1.016;0.994;1.043;1.094;1.116;0.282;0.278;0.287;0.294;0.291;0.282;0.303;0.311;0.313;0.297;0.325;0.326
;;;;;;;;;;;;;;;;;;;;;;;;;;;;;;;;;;;;;;;;;;;;;;;;;;;;;;;;;;;;;;;;;;;;;;;;;;;;;;;;;;;;;;;;;;;;;;;;;
