20180529;1;2;3;4;5;6;7;8;9;10;11;12
A;"Sc_topA;LB;glucose:0";"Sc_topA;LB;glucose:0.2";"Sc_topA;LB;glucose:0.4";"Sc_topA;LB;glucose:0.6";"Sc_topA;LB;glucose:0.8";"Sc_topA;LB;glucose:1";"Sc_topA;LB;glucose:1.2";"Sc_topA;LB;glucose:1.4";"Sc_topA;LB;glucose:1.6";"Sc_topA;LB;glucose:1.8";"Sc_topA;LB;glucose:2";"Sc_topA;LB;glucose:2.2"
B;"Sc_topA;LB;glucose:0";"Sc_topA;LB;glucose:0.2";"Sc_topA;LB;glucose:0.4";"Sc_topA;LB;glucose:0.6";"Sc_topA;LB;glucose:0.8";"Sc_topA;LB;glucose:1";"Sc_topA;LB;glucose:1.2";"Sc_topA;LB;glucose:1.4";"Sc_topA;LB;glucose:1.6";"Sc_topA;LB;glucose:1.8";"Sc_topA;LB;glucose:2";"Sc_topA;LB;glucose:2.2"
C;"Sc_topA;LB;glucose:0";"Sc_topA;LB;glucose:0.2";"Sc_topA;LB;glucose:0.4";"Sc_topA;LB;glucose:0.6";"Sc_topA;LB;glucose:0.8";"Sc_topA;LB;glucose:1";"Sc_topA;LB;glucose:1.2";"Sc_topA;LB;glucose:1.4";"Sc_topA;LB;glucose:1.6";"Sc_topA;LB;glucose:1.8";"Sc_topA;LB;glucose:2";"Sc_topA;LB;glucose:2.2"
D;"Sc_topA;LB;glucose:0";"Sc_topA;LB;glucose:0.2";"Sc_topA;LB;glucose:0.4";"Sc_topA;LB;glucose:0.6";"Sc_topA;LB;glucose:0.8";"Sc_topA;LB;glucose:1";"Sc_topA;LB;glucose:1.2";"Sc_topA;LB;glucose:1.4";"Sc_topA;LB;glucose:1.6";"Sc_topA;LB;glucose:1.8";"Sc_topA;LB;glucose:2";"Sc_topA;LB;glucose:2.2"
E;"Sc_topA;LB;glucose:0";"Sc_topA;LB;glucose:0.2";"Sc_topA;LB;glucose:0.4";"Sc_topA;LB;glucose:0.6";"Sc_topA;LB;glucose:0.8";"Sc_topA;LB;glucose:1";"Sc_topA;LB;glucose:1.2";"Sc_topA;LB;glucose:1.4";"Sc_topA;LB;glucose:1.6";"Sc_topA;LB;glucose:1.8";"Sc_topA;LB;glucose:2";"Sc_topA;LB;glucose:2.2"
F;"Sc_topA;LB;glucose:0";"Sc_topA;LB;glucose:0.2";"Sc_topA;LB;glucose:0.4";"Sc_topA;LB;glucose:0.6";"Sc_topA;LB;glucose:0.8";"Sc_topA;LB;glucose:1";"Sc_topA;LB;glucose:1.2";"Sc_topA;LB;glucose:1.4";"Sc_topA;LB;glucose:1.6";"Sc_topA;LB;glucose:1.8";"Sc_topA;LB;glucose:2";"Sc_topA;LB;glucose:2.2"
G;"Sc_topA;LB;glucose:0";"Sc_topA;LB;glucose:0.2";"Sc_topA;LB;glucose:0.4";"Sc_topA;LB;glucose:0.6";"Sc_topA;LB;glucose:0.8";"Sc_topA;LB;glucose:1";"Sc_topA;LB;glucose:1.2";"Sc_topA;LB;glucose:1.4";"Sc_topA;LB;glucose:1.8";"Sc_topA;LB;glucose:1.8";"Sc_topA;LB;glucose:2";"Sc_topA;LB;glucose:2.2"
H;"blank;LB;glucose:0";"blank;LB;glucose:0.2";"blank;LB;glucose:0.4";"blank;LB;glucose:0.6";"blank;LB;glucose:0.8";"blank;LB;glucose:1";"blank;LB;glucose:1.2";"blank;LB;glucose:1.4";"blank;LB;glucose:1.8";"blank;LB;glucose:1.8";"blank;LB;glucose:2";"blank;LB;glucose:2.2"
