lane;ID;order;file;speckle;note;color
0;empty;;;;:
1;ladder;;20210127_endpoint_CQ_lane1_sizemarker.csv;;
2;EVC;1;20210127_endpoint_CQ_lane2_EVC.csv;;;#000000
4;topA-OX;6;20210127_endpoint_CQ_lane4_topA-OX.csv;;;#CD0BBC
5;gyrA-kd;3;20210127_endpoint_CQ_lane5_gyrA-kd.csv;;rectangle on top of lane to avoide speckle;#DF536B
6;gyrB-kd;4;20210127_endpoint_CQ_lane6_gyrB-kd.csv;;;#61D04F
7;gyrAB-kd;5;20210127_endpoint_CQ_lane7_gyrAB-kd.csv;;;#2297E6
8;empty;;;
9;34 h;;20210127_endpoint_CQ_lane9_34h.csv;;
10;48 h;;20210127_endpoint_CQ_lane10_48h.csv;;
11;72 h;;20210127_endpoint_CQ_lane11_72h.csv;;lanes are not straight anymore, aligned from bottom end of well
12;96 h;;20210127_endpoint_CQ_lane12_96h.csv;yes;
13;120 h;;20210127_endpoint_CQ_lane13_120h.csv;yes;
14;ladder;;20210127_endpoint_CQ_lane14_sizemarker.csv;;

