lane;ID;order;file;color
0;empty;;;
1;ladder;;210111_CQ_time-series_lane1_sizemarker.csv;#CD0BBC
2;0 h;2;210111_CQ_time-series_lane2_0h.csv;#CD0BBC
3;3 h;3;210111_CQ_time-series_lane3_3h.csv;#CD0BBC
4;8 h;4;210111_CQ_time-series_lane4_8h.csv;#CD0BBC
5;20 h;5;210111_CQ_time-series_lane5_20h.csv;#CD0BBC
6;34 h;6;210111_CQ_time-series_lane6_34h.csv;#CD0BBC
7;2 d;7;210111_CQ_time-series_lane7_48h.csv;#CD0BBC
8;3 d;8;210111_CQ_time-series_lane8_72h.csv;#CD0BBC
9;4 d;9;210111_CQ_time-series_lane9_96h.csv;#CD0BBC
10;5 d;10;210111_CQ_time-series_lane10_120h.csv;#CD0BBC
11;ladder;;210111_CQ_time-series_lane11_sizemarker.csv;#CD0BBC

