User: USER;Path: C:\Program Files (x86)\BMG\CLARIOstar\User\Data\;Test run no.: 89
Test name: OD600-AGAx;Date: 14.06.2018;Time: 10:58:37

ID1: 14.06.2018_10:58:37_OD600-AGAx;ID2: Wizard script `ODmVenus 24h`;
Absorbance

Well;Content; Raw Data (497-15 2); Raw Data (497-15 2); Raw Data (497-15 2); Raw Data (497-15 2); Raw Data (497-15 2); Raw Data (497-15 2); Raw Data (497-15 2); Raw Data (497-15 2); Raw Data (497-15 2); Raw Data (497-15 2); Raw Data (497-15 2);Raw Data (600 1);Raw Data (600 1);Raw Data (600 1);Raw Data (600 1);Raw Data (600 1);Raw Data (600 1);Raw Data (600 1);Raw Data (600 1);Raw Data (600 1);Raw Data (600 1);Raw Data (600 1);Temperature;Temperature;Temperature;Temperature;Temperature;Temperature;Temperature;Temperature;Temperature;Temperature;Temperature;
;Time;0 min ;10 min ;20 min 1 s;30 min 1 s;40 min 1 s;50 min 1 s;60 min 1 s;70 min 1 s;80 min 2 s;90 min 2 s;100 min 2 s;0 min ;10 min ;20 min 1 s;30 min 1 s;40 min 1 s;50 min 1 s;60 min 1 s;70 min 1 s;80 min 2 s;90 min 2 s;100 min 2 s;0 min ;10 min ;20 min 1 s;30 min 1 s;40 min 1 s;50 min 1 s;60 min 1 s;70 min 1 s;80 min 2 s;90 min 2 s;100 min 2 s;
A01;Sample X1;109552;108632;110980;110066;108681;109661;113279;111987;116983;120952;123249;0,158;0,176;0,18;0,187;0,2;0,21;0,236;0,266;0,287;0,335;0,391;36,9;37;37;37;37;37;37;37;37;37,1;37,1;
A02;Sample X2;103875;103319;105466;103664;105745;106028;106858;108698;112505;114654;119378;0,158;0,178;0,201;0,236;0,212;0,231;0,258;0,291;0,338;0,392;0,42;36,9;37;37;37;37;37;37;37;37;37,1;37,1;
A03;Sample X3;104068;104411;107357;105733;106258;109298;107770;110728;111679;115367;119243;0,156;0,169;0,173;0,187;0,191;0,204;0,225;0,257;0,278;0,311;0,359;36,9;37;37;37;37;37;37;37;37;37,1;37,1;
A04;Sample X4;101000;101865;104554;102955;104962;103971;104909;107636;109381;112412;117493;0,195;0,208;0,25;0,22;0,23;0,243;0,263;0,298;0,313;0,361;0,407;36,9;37;37;37;37;37;37;37;37;37,1;37,1;
A05;Sample X5;97303;98243;99212;98142;100407;99465;101253;103553;104805;108284;112814;0,169;0,188;0,201;0,212;0,221;0,234;0,254;0,286;0,31;0,352;0,392;36,9;37;37;37;37;37;37;37;37;37,1;37,1;
A06;Sample X6;94515;96329;96482;96184;98378;97982;98296;99368;102312;106758;110110;0,157;0,178;0,191;0,223;0,207;0,225;0,249;0,274;0,3;0,353;0,397;36,9;37;37;37;37;37;37;37;37;37,1;37,1;
A07;Sample X7;99656;99908;99987;100540;100740;100996;102045;104577;104652;107283;107490;0,152;0,176;0,194;0,203;0,211;0,222;0,252;0,293;0,307;0,373;0,417;36,9;37;37;37;37;37;37;37;37;37,1;37,1;
A08;Sample X8;99332;99995;101250;100807;101478;101151;103156;103804;103593;107987;107959;0,17;0,189;0,201;0,209;0,219;0,231;0,253;0,289;0,317;0,363;0,41;36,9;37;37;37;37;37;37;37;37;37,1;37,1;
A09;Sample X9;110367;113788;112140;113951;111861;114352;116095;116752;118518;120381;122710;0,174;0,181;0,186;0,203;0,217;0,227;0,248;0,267;0,306;0,346;0,387;36,9;37;37;37;37;37;37;37;37;37,1;37,1;
A10;Sample X10;101193;102533;102167;104076;103278;104748;105624;105493;108114;110761;113377;0,16;0,183;0,189;0,209;0,219;0,228;0,254;0,29;0,313;0,367;0,413;36,9;37;37;37;37;37;37;37;37;37,1;37,1;
A11;Sample X11;102024;104081;104862;105834;106439;105058;106424;106737;109210;110251;114684;0,192;0,204;0,212;0,249;0,239;0,242;0,263;0,293;0,322;0,366;0,418;36,9;37;37;37;37;37;37;37;37;37,1;37,1;
A12;Sample X12;99152;101885;103672;102911;103502;103515;106656;105453;106943;108787;112046;0,237;0,254;0,26;0,283;0,292;0,307;0,328;0,358;0,365;0,502;0,545;36,9;37;37;37;37;37;37;37;37;37,1;37,1;
B01;Sample X1;113467;115340;115467;117914;114808;116652;120476;121607;124202;127971;133917;0,171;0,182;0,18;0,195;0,205;0,222;0,244;0,271;0,307;0,348;0,399;36,9;37;37;37;37;37;37;37;37;37,1;37,1;
B02;Sample X2;110636;113705;115552;114735;114908;115097;118523;119891;121918;123749;129021;0,164;0,171;0,19;0,184;0,196;0,215;0,23;0,252;0,291;0,33;0,383;36,9;37;37;37;37;37;37;37;37;37,1;37,1;
B03;Sample X3;111696;110671;114092;115497;113437;115813;116824;117337;120786;126031;127106;0,168;0,169;0,172;0,186;0,197;0,212;0,234;0,252;0,289;0,325;0,365;36,9;37;37;37;37;37;37;37;37;37,1;37,1;
B04;Sample X4;111136;111981;112062;110994;112644;113219;116593;118201;118491;122175;125563;0,162;0,166;0,169;0,18;0,192;0,207;0,228;0,248;0,281;0,321;0,368;36,9;37;37;37;37;37;37;37;37;37,1;37,1;
B05;Sample X5;106375;107450;107881;105847;108661;107077;109438;111037;112875;116999;121931;0,156;0,169;0,169;0,183;0,196;0,208;0,231;0,257;0,289;0,334;0,381;36,9;37;37;37;37;37;37;37;37;37,1;37,1;
B06;Sample X6;105187;106805;107283;107299;109690;109133;108835;110724;114669;120172;121907;0,179;0,188;0,188;0,201;0,212;0,228;0,245;0,271;0,307;0,347;0,388;36,9;37;37;37;37;37;37;37;37;37,1;37,1;
B07;Sample X7;110588;112343;110735;110748;112929;111446;114443;115085;114831;119105;121737;0,184;0,19;0,192;0,205;0,218;0,234;0,256;0,274;0,314;0,358;0,405;36,9;37;37;37;37;37;37;37;37;37,1;37,1;
B08;Sample X8;110071;112908;111142;113296;111712;113617;114457;113204;117626;120447;122956;0,168;0,173;0,172;0,188;0,2;0,215;0,234;0,259;0,292;0,334;0,382;36,9;37;37;37;37;37;37;37;37;37,1;37,1;
B09;Sample X9;111215;111649;113142;112699;112995;113721;115789;116953;118997;120746;122444;0,167;0,175;0,178;0,192;0,202;0,223;0,243;0,262;0,305;0,346;0,388;36,9;37;37;37;37;37;37;37;37;37,1;37,1;
B10;Sample X10;110855;111975;112605;111715;112959;112732;115125;116319;117775;119685;121303;0,178;0,184;0,186;0,202;0,212;0,225;0,251;0,274;0,312;0,354;0,401;36,9;37;37;37;37;37;37;37;37;37,1;37,1;
B11;Sample X11;111277;112968;114610;112602;113702;112794;116985;115710;116524;119323;123034;0,175;0,185;0,182;0,208;0,219;0,232;0,258;0,276;0,318;0,363;0,404;36,9;37;37;37;37;37;37;37;37;37,1;37,1;
B12;Sample X12;96633;99555;99969;99285;99324;100310;100393;102537;103576;106631;107399;0,161;0,184;0,197;0,214;0,231;0,245;0,263;0,319;0,361;0,403;0,467;36,9;37;37;37;37;37;37;37;37;37,1;37,1;
C01;Sample X1;113610;114890;116484;117817;117807;118254;119900;122672;123290;127414;132403;0,192;0,195;0,198;0,211;0,222;0,237;0,26;0,283;0,321;0,361;0,41;36,9;37;37;37;37;37;37;37;37;37,1;37,1;
C02;Sample X2;110588;113423;112414;114662;114275;113696;116972;118196;120924;124660;128038;0,164;0,167;0,17;0,186;0,195;0,212;0,232;0,258;0,292;0,332;0,38;36,9;37;37;37;37;37;37;37;37;37,1;37,1;
C03;Sample X3;111056;110773;113587;111386;112109;112101;114647;117669;119035;123350;126058;0,164;0,169;0,175;0,186;0,193;0,209;0,232;0,254;0,286;0,327;0,365;36,9;37;37;37;37;37;37;37;37;37,1;37,1;
C04;Sample X4;109100;109243;111877;109556;111612;111698;114256;114510;117003;120269;123619;0,16;0,171;0,171;0,185;0,197;0,217;0,238;0,262;0,297;0,337;0,389;36,9;37;37;37;37;37;37;37;37;37,1;37,1;
C05;Sample X5;105378;107132;106689;107528;110498;109642;108495;113116;112831;117212;122759;0,161;0,17;0,174;0,187;0,195;0,21;0,231;0,256;0,293;0,334;0,372;36,9;37;37;37;37;37;37;37;37;37,1;37,1;
C06;Sample X6;103926;104216;102907;103877;104426;106882;106478;108038;111819;114573;119554;0,159;0,165;0,168;0,183;0,188;0,205;0,226;0,253;0,284;0,317;0,365;36,9;37;37;37;37;37;37;37;37;37,1;37,1;
C07;Sample X7;110160;109379;111415;110779;111790;110362;113061;112789;116404;117165;121272;0,165;0,17;0,176;0,191;0,198;0,217;0,235;0,262;0,299;0,347;0,393;36,9;37;37;37;37;37;37;37;37;37,1;37,1;
C08;Sample X8;108480;109489;111385;110656;112705;111839;112708;114931;114289;118637;120735;0,166;0,171;0,179;0,194;0,202;0,22;0,242;0,258;0,293;0,342;0,385;36,9;37;37;37;37;37;37;37;37;37,1;37,1;
C09;Sample X9;107338;111804;109625;111598;111220;111975;110797;113279;116053;117159;121010;0,173;0,18;0,184;0,205;0,21;0,227;0,246;0,269;0,311;0,349;0,395;36,9;37;37;37;37;37;37;37;37;37,1;37,1;
C10;Sample X10;109281;110723;110441;111136;111816;111400;115197;114207;116411;118742;123264;0,277;0,276;0,295;0,293;0,297;0,317;0,342;0,357;0,392;0,438;0,477;36,9;37;37;37;37;37;37;37;37;37,1;37,1;
C11;Sample X11;110550;111766;113126;112178;113099;113083;114885;115909;118064;118658;122566;0,173;0,179;0,188;0,205;0,211;0,23;0,253;0,279;0,317;0,355;0,401;36,9;37;37;37;37;37;37;37;37;37,1;37,1;
C12;Sample X12;107980;108025;106730;110704;112834;111682;110927;114514;114043;116377;119162;0,172;0,176;0,184;0,207;0,218;0,232;0,25;0,284;0,322;0,365;0,409;36,9;37;37;37;37;37;37;37;37;37,1;37,1;
D01;Sample X1;111427;112931;111719;112534;114994;116271;116593;118481;123162;125218;128495;0,176;0,185;0,184;0,199;0,21;0,228;0,249;0,279;0,311;0,351;0,404;36,9;37;37;37;37;37;37;37;37;37,1;37,1;
D02;Sample X2;111620;112358;114103;115490;114019;115564;115763;117597;121221;124579;129555;0,166;0,169;0,176;0,184;0,197;0,211;0,235;0,257;0,287;0,331;0,37;36,9;37;37;37;37;37;37;37;37;37,1;37,1;
D03;Sample X3;108046;108083;109100;109068;109556;110846;112719;114134;114837;119362;123478;0,169;0,179;0,186;0,193;0,203;0,22;0,24;0,271;0,302;0,34;0,39;36,9;37;37;37;37;37;37;37;37;37,1;37,1;
D04;Sample X4;108231;108593;109364;109697;109046;109992;113443;113974;116626;119238;122396;0,177;0,191;0,187;0,207;0,216;0,234;0,256;0,283;0,317;0,352;0,397;36,9;37;37;37;37;37;37;37;37;37,1;37,1;
D05;Sample X5;105227;105618;105821;105522;107078;107150;110742;111171;112631;117227;120594;0,178;0,183;0,188;0,197;0,208;0,224;0,244;0,27;0,302;0,342;0,381;36,9;37;37;37;37;37;37;37;37;37,1;37,1;
D06;Sample X6;100960;101955;102599;104508;104295;106044;107310;108548;112364;113174;117648;0,175;0,18;0,185;0,196;0,203;0,221;0,242;0,263;0,293;0,335;0,378;36,9;37;37;37;37;37;37;37;37;37,1;37,1;
D07;Sample X7;108193;108641;107668;108348;107864;110047;111758;112304;112363;114301;119518;0,19;0,192;0,199;0,214;0,225;0,243;0,262;0,287;0,32;0,374;0,416;36,9;37;37;37;37;37;37;37;37;37,1;37,1;
D08;Sample X8;107612;108648;110336;111386;110499;110167;114302;114706;114368;119417;121065;0,168;0,17;0,175;0,184;0,199;0,213;0,236;0,257;0,295;0,341;0,385;36,9;37;37;37;37;37;37;37;37;37,1;37,1;
D09;Sample X9;109233;110191;110536;109397;111377;111381;112849;114848;115297;117361;121118;0,17;0,174;0,18;0,193;0,202;0,216;0,244;0,264;0,293;0,345;0,387;36,9;37;37;37;37;37;37;37;37;37,1;37,1;
D10;Sample X10;108140;110969;109368;109983;110796;111148;113391;113480;113006;119442;120495;0,2;0,205;0,215;0,226;0,233;0,251;0,276;0,298;0,334;0,382;0,422;36,9;37;37;37;37;37;37;37;37;37,1;37,1;
D11;Sample X11;109414;109179;110724;109423;111781;113076;114157;113835;115961;117662;120761;0,181;0,185;0,192;0,208;0,216;0,232;0,255;0,278;0,316;0,37;0,404;36,9;37;37;37;37;37;37;37;37;37,1;37,1;
D12;Sample X12;108332;109259;111010;110992;112618;112255;111083;115310;116382;119894;122124;0,184;0,191;0,194;0,215;0,228;0,24;0,265;0,29;0,329;0,376;0,424;36,9;37;37;37;37;37;37;37;37;37,1;37,1;
E01;Sample X1;112974;114195;114077;115112;114727;115532;118452;120945;123138;126170;130671;0,161;0,172;0,171;0,184;0,197;0,214;0,234;0,261;0,295;0,334;0,387;36,9;37;37;37;37;37;37;37;37;37,1;37,1;
E02;Sample X2;109866;112039;112357;111927;111962;111901;112849;115776;118274;123412;125946;0,231;0,233;0,234;0,246;0,258;0,278;0,298;0,316;0,353;0,391;0,432;36,9;37;37;37;37;37;37;37;37;37,1;37,1;
E03;Sample X3;106723;107713;108257;107114;109635;109483;113036;113911;115260;119848;123791;0,166;0,177;0,178;0,189;0,202;0,219;0,236;0,269;0,298;0,336;0,383;36,9;37;37;37;37;37;37;37;37;37,1;37,1;
E04;Sample X4;106132;107133;106865;108870;109688;109341;113130;113632;115952;118153;121691;0,169;0,179;0,183;0,191;0,202;0,215;0,236;0,266;0,296;0,331;0,379;36,9;37;37;37;37;37;37;37;37;37,1;37,1;
E05;Sample X5;103247;105758;106661;105458;106927;108250;108339;111188;112676;115168;119759;0,167;0,173;0,177;0,188;0,196;0,213;0,232;0,262;0,286;0,322;0,367;36,9;37;37;37;37;37;37;37;37;37,1;37,1;
E06;Sample X6;101287;102508;104210;103114;102709;103849;106578;108440;107901;113692;118028;0,171;0,177;0,185;0,191;0,199;0,216;0,234;0,257;0,282;0,325;0,364;36,9;37;37;37;37;37;37;37;37;37,1;37,1;
E07;Sample X7;107500;108432;109850;110388;109740;111789;112573;112856;112452;115825;119244;0,173;0,179;0,181;0,197;0,208;0,226;0,244;0,266;0,299;0,345;0,391;36,9;37;37;37;37;37;37;37;37;37,1;37,1;
E08;Sample X8;107022;108944;109399;108788;109567;110705;111348;114092;113910;114791;117639;0,174;0,178;0,183;0,192;0,202;0,22;0,244;0,265;0,294;0,338;0,387;36,9;37;37;37;37;37;37;37;37;37,1;37,1;
E09;Sample X9;107875;108836;110695;109331;110192;109869;112668;115157;113365;116814;118113;0,171;0,183;0,184;0,196;0,211;0,225;0,245;0,269;0,3;0,343;0,394;36,9;37;37;37;37;37;37;37;37;37,1;37,1;
E10;Sample X10;109649;108770;110483;112487;113431;112870;113978;113224;117493;118368;119002;0,167;0,181;0,183;0,197;0,207;0,221;0,244;0,274;0,314;0,352;0,39;36,9;37;37;37;37;37;37;37;37;37,1;37,1;
E11;Sample X11;111275;110520;110755;110840;111785;111503;112836;114453;115840;117910;120996;0,181;0,184;0,191;0,205;0,218;0,231;0,249;0,273;0,313;0,352;0,393;36,9;37;37;37;37;37;37;37;37;37,1;37,1;
E12;Sample X12;108666;109632;109285;110039;110438;111717;112243;114136;117298;119634;121428;0,166;0,175;0,181;0,191;0,206;0,223;0,246;0,266;0,309;0,352;0,392;36,9;37;37;37;37;37;37;37;37;37,1;37,1;
F01;Sample X1;110233;111726;112653;111769;113358;113340;116109;118587;120025;123834;128884;0,163;0,169;0,175;0,185;0,199;0,215;0,236;0,266;0,294;0,335;0,383;36,9;37;37;37;37;37;37;37;37;37,1;37,1;
F02;Sample X2;109190;110051;110460;108966;113702;112764;112910;116250;117578;120888;124469;0,184;0,193;0,197;0,208;0,22;0,237;0,253;0,284;0,315;0,348;0,401;36,9;37;37;37;37;37;37;37;37;37,1;37,1;
F03;Sample X3;108407;109640;109629;108920;109495;112381;112761;114412;116154;120705;123321;0,192;0,203;0,198;0,212;0,226;0,242;0,265;0,291;0,32;0,359;0,405;36,9;37;37;37;37;37;37;37;37;37,1;37,1;
F04;Sample X4;107793;108071;109063;108680;108409;109897;111952;111993;116585;118093;120182;0,159;0,171;0,17;0,183;0,193;0,21;0,23;0,259;0,293;0,32;0,368;36,9;37;37;37;37;37;37;37;37;37,1;37,1;
F05;Sample X5;105006;103684;106678;105785;107314;108274;106397;110265;111921;117243;119313;0,192;0,199;0,199;0,211;0,22;0,235;0,256;0,279;0,307;0,341;0,387;36,9;37;37;37;37;37;37;37;37;37,1;37,1;
F06;Sample X6;100867;102309;103009;104115;102805;103914;105875;106395;110235;112928;115741;0,163;0,171;0,172;0,182;0,191;0,207;0,225;0,248;0,28;0,313;0,355;36,9;37;37;37;37;37;37;37;37;37,1;37,1;
F07;Sample X7;106330;106703;107437;106470;109642;109331;111683;111171;111472;113936;116866;0,17;0,174;0,177;0,186;0,198;0,215;0,235;0,259;0,288;0,331;0,382;36,9;37;37;37;37;37;37;37;37;37,1;37,1;
F08;Sample X8;107432;108501;109097;108077;108764;109755;110854;112579;113715;117196;118558;0,177;0,187;0,189;0,201;0,214;0,229;0,245;0,277;0,304;0,341;0,39;36,9;37;37;37;37;37;37;37;37;37,1;37,1;
F09;Sample X9;108396;110139;109562;110031;111132;109946;112422;111538;115909;116298;118727;0,186;0,191;0,193;0,206;0,218;0,235;0,251;0,276;0,309;0,344;0,396;36,9;37;37;37;37;37;37;37;37;37,1;37,1;
F10;Sample X10;112440;109557;110979;111456;112491;111817;115133;113493;117343;119002;121758;0,173;0,178;0,184;0,195;0,205;0,217;0,24;0,266;0,297;0,334;0,384;36,9;37;37;37;37;37;37;37;37;37,1;37,1;
F11;Sample X11;109584;108863;110169;110108;110913;110947;113462;113957;114296;118703;119907;0,179;0,186;0,193;0,206;0,214;0,232;0,247;0,282;0,311;0,355;0,392;36,9;37;37;37;37;37;37;37;37;37,1;37,1;
F12;Sample X12;108117;109641;110056;109474;110004;109888;111693;112735;114533;116297;119476;0,166;0,181;0,181;0,2;0,213;0,228;0,246;0,277;0,314;0,352;0,399;36,9;37;37;37;37;37;37;37;37;37,1;37,1;
G01;Sample X1;107278;108653;109649;108169;111097;111313;113726;113532;117570;119687;125381;0,161;0,183;0,182;0,193;0,204;0,223;0,243;0,276;0,311;0,353;0,411;36,9;37;37;37;37;37;37;37;37;37,1;37,1;
G02;Sample X2;110787;113215;112967;112906;114143;114452;117231;118166;120391;124071;127455;0,177;0,183;0,185;0,2;0,211;0,227;0,247;0,272;0,3;0,336;0,39;36,9;37;37;37;37;37;37;37;37;37,1;37,1;
G03;Sample X3;108909;109765;110991;107104;110363;110238;112411;113176;116511;121124;123475;0,167;0,179;0,177;0,192;0,205;0,222;0,242;0,271;0,305;0,345;0,394;36,9;37;37;37;37;37;37;37;37;37,1;37,1;
G04;Sample X4;107747;110454;106621;107737;109581;109177;112239;113373;115142;119299;122663;0,168;0,176;0,177;0,191;0,199;0,215;0,233;0,266;0,297;0,331;0,375;36,9;37;37;37;37;37;37;37;37;37,1;37,1;
G05;Sample X5;102657;105175;106943;106404;104646;106769;108079;107898;110755;115654;115984;0,161;0,178;0,175;0,187;0,197;0,215;0,233;0,262;0,287;0,332;0,374;36,9;37;37;37;37;37;37;37;37;37,1;37,1;
G06;Sample X6;101272;102763;101744;101568;100850;101919;104612;106839;106844;112419;116319;0,163;0,175;0,174;0,186;0,198;0,214;0,228;0,257;0,285;0,32;0,358;36,9;37;37;37;37;37;37;37;37;37,1;37,1;
G07;Sample X7;107528;105561;107290;108723;107492;109788;110325;112261;112764;113223;116621;0,168;0,174;0,176;0,188;0,198;0,215;0,235;0,258;0,291;0,333;0,373;36,9;37;37;37;37;37;37;37;37;37,1;37,1;
G08;Sample X8;107965;106461;107721;108570;109060;109156;111412;113673;113550;114299;116976;0,173;0,181;0,185;0,197;0,207;0,223;0,238;0,269;0,305;0,347;0,387;36,9;37;37;37;37;37;37;37;37;37,1;37,1;
G09;Sample X9;108271;109136;108415;110772;109691;111666;112149;113576;114475;117952;120341;0,17;0,178;0,182;0,196;0,205;0,22;0,234;0,265;0,297;0,339;0,373;36,9;37;37;37;37;37;37;37;37;37,1;37,1;
G10;Sample X10;109269;109283;109438;109781;110615;112504;112600;113694;116204;118215;119860;0,172;0,18;0,184;0,196;0,209;0,225;0,241;0,269;0,304;0,338;0,386;36,9;37;37;37;37;37;37;37;37;37,1;37,1;
G11;Sample X11;108565;110790;110211;111079;110214;110037;113234;115280;116397;118541;120104;0,17;0,176;0,18;0,191;0,203;0,219;0,235;0,265;0,302;0,34;0,375;36,9;37;37;37;37;37;37;37;37;37,1;37,1;
G12;Sample X12;108506;110749;110526;109771;112087;110543;112983;114099;115408;117937;121259;0,17;0,18;0,185;0,2;0,214;0,224;0,242;0,277;0,315;0,349;0,392;36,9;37;37;37;37;37;37;37;37;37,1;37,1;
H01;Blank B;92788;94482;93833;93492;94339;93277;95557;94205;93795;93536;93029;0,12;0,12;0,117;0,121;0,12;0,124;0,121;0,12;0,12;0,121;0,121;36,9;37;37;37;37;37;37;37;37;37,1;37,1;
H02;Blank B;92487;94054;93162;91878;93879;93322;93423;93152;92813;93532;93888;0,12;0,121;0,118;0,122;0,122;0,125;0,124;0,12;0,121;0,122;0,121;36,9;37;37;37;37;37;37;37;37;37,1;37,1;
H03;Blank B;93855;93970;92843;92192;93770;93733;93806;93766;93165;93641;94010;0,12;0,122;0,12;0,122;0,123;0,123;0,122;0,121;0,121;0,123;0,123;36,9;37;37;37;37;37;37;37;37;37,1;37,1;
H04;Blank B;92854;90857;92716;92619;93518;92279;93241;92287;92201;93348;93247;0,12;0,123;0,121;0,124;0,123;0,124;0,125;0,124;0,123;0,125;0,124;36,9;37;37;37;37;37;37;37;37;37,1;37,1;
H05;Blank B;90404;91379;91350;91088;91818;92677;89170;92576;92169;93353;91529;0,118;0,121;0,12;0,123;0,122;0,123;0,122;0,122;0,121;0,124;0,128;36,9;37;37;37;37;37;37;37;37;37,1;37,1;
H06;Blank B;89426;89880;91112;89729;91518;91198;90824;91363;91248;90751;90682;0,118;0,12;0,118;0,121;0,121;0,122;0,121;0,121;0,12;0,121;0,123;36,9;37;37;37;37;37;37;37;37;37,1;37,1;
H07;Blank B;91780;91342;91953;92147;93007;92186;92143;93771;91105;91131;92213;0,124;0,127;0,125;0,128;0,129;0,13;0,129;0,128;0,128;0,13;0,13;36,9;37;37;37;37;37;37;37;37;37,1;37,1;
H08;Blank B;94025;93492;93487;94448;94327;93548;92555;93840;94746;94668;94176;0,124;0,127;0,126;0,128;0,128;0,128;0,128;0,128;0,127;0,129;0,128;36,9;37;37;37;37;37;37;37;37;37,1;37,1;
H09;Blank B;96387;95472;96312;95493;95544;95380;96995;93989;94805;95295;93977;0,124;0,129;0,128;0,13;0,131;0,132;0,132;0,132;0,131;0,132;0,133;36,9;37;37;37;37;37;37;37;37;37,1;37,1;
H10;Blank B;94932;95188;94906;95175;94232;94706;94192;95716;93804;96642;93478;0,122;0,124;0,124;0,126;0,126;0,126;0,127;0,127;0,126;0,127;0,127;36,9;37;37;37;37;37;37;37;37;37,1;37,1;
H11;Blank B;209391;228534;260000;260000;260000;260000;260000;260000;260000;260000;260000;0,781;0,834;0,849;0,891;0,917;0,949;0,972;1,005;1,038;1,094;1,135;36,9;37;37;37;37;37;37;37;37;37,1;37,1;
H12;Blank B;207160;233397;260000;260000;260000;260000;260000;260000;260000;260000;260000;0,774;0,902;0,923;0,973;1,024;1,064;1,099;1,153;1,205;1,264;1,307;36,9;37;37;37;37;37;37;37;37;37,1;37,1;
